[0m[ INFO] [1423379440.391301264]: advertising[0m
[0m[ INFO] [1423379444.142461242]: trying to switch mux to /fritz/no_pau[0m
[0m[ INFO] [1423379444.142491406]: mux selected input: [/fritz/no_pau][0m
[0m[ INFO] [1423379449.800591192]: trying to switch mux to /blender_api/get_pau[0m
[0m[ INFO] [1423379449.800622418]: mux selected input: [/blender_api/get_pau][0m
