[roslaunch][INFO] 2015-02-08 08:10:38,689: Checking log directory for disk usage. This may take awhile.
Press Ctrl-C to interrupt
[roslaunch][ERROR] 2015-02-08 08:10:38,698: WARNING: disk usage in log directory [/home/hr/.ros/log] is over 1GB.
It's recommended that you use the 'rosclean' command.
[roslaunch][INFO] 2015-02-08 08:10:38,698: roslaunch starting with args ['/opt/ros/indigo/bin/roslaunch', 'perception', 'tracker.launch']
[roslaunch][INFO] 2015-02-08 08:10:38,698: roslaunch env is {'INSTANCE': '', 'MANDATORY_PATH': '/usr/share/gconf/ubuntu.mandatory.path', 'ROS_DISTRO': 'indigo', 'ROS_LOG_FILENAME': '/home/hr/.ros/log/8e7c4388-af61-11e4-a6f6-dc85debf707f/roslaunch-hr2-10754.log', 'XDG_GREETER_DATA_DIR': '/var/lib/lightdm-data/hr', 'GNOME_DESKTOP_SESSION_ID': 'this-is-deprecated', 'GTK_IM_MODULE': 'ibus', 'XDG_CURRENT_DESKTOP': 'Unity', 'PKG_CONFIG_PATH': '/catkin_ws/devel/lib/pkgconfig:/catkin_ws/devel/lib/x86_64-linux-gnu/pkgconfig:/opt/ros/indigo/lib/x86_64-linux-gnu/pkgconfig:/opt/ros/indigo/lib/pkgconfig', 'ROSLISP_PACKAGE_DIRECTORIES': '/catkin_ws/devel/share/common-lisp', 'CPATH': '/catkin_ws/devel/include:/opt/ros/indigo/include', 'LOGNAME': 'hr', 'USER': 'hr', 'PATH': '/catkin_ws/devel/bin:/opt/ros/indigo/bin:/usr/local/sbin:/usr/local/bin:/usr/sbin:/usr/bin:/sbin:/bin:/usr/games:/usr/local/games', 'XDG_VTNR': '7', 'GNOME_KEYRING_CONTROL': '/run/user/1000/keyring-D1bbBV', 'CMAKE_PREFIX_PATH': '/catkin_ws/devel:/opt/ros/indigo', 'LD_LIBRARY_PATH': '/catkin_ws/devel/lib:/catkin_ws/devel/lib/x86_64-linux-gnu:/opt/ros/indigo/lib/x86_64-linux-gnu:/opt/ros/indigo/lib', 'SSH_AGENT_PID': '1741', 'LANG': 'en_HK.UTF-8', 'TERM': 'screen', 'SHELL': '/bin/bash', 'XDG_SESSION_PATH': '/org/freedesktop/DisplayManager/Session0', 'XAUTHORITY': '/home/hr/.Xauthority', 'LANGUAGE': 'en_HK:en', 'SESSION_MANAGER': 'local/hr2:@/tmp/.ICE-unix/1796,unix/hr2:/tmp/.ICE-unix/1796', 'SHLVL': '2', 'ROS_TEST_RESULTS_DIR': '/catkin_ws/build/test_results', 'QT_QPA_PLATFORMTHEME': 'appmenu-qt5', 'JOB': 'dbus', 'TEXTDOMAIN': 'im-config', 'QT4_IM_MODULE': 'xim', 'CLUTTER_IM_MODULE': 'xim', 'WINDOWID': '75497484', 'SESSIONTYPE': 'gnome-session', 'XMODIFIERS': '@im=ibus', 'ROS_ETC_DIR': '/opt/ros/indigo/etc/ros', 'GPG_AGENT_INFO': '/run/user/1000/keyring-D1bbBV/gpg:0:1', 'HOME': '/home/hr', 'SELINUX_INIT': 'YES', 'XDG_RUNTIME_DIR': '/run/user/1000', 'CATKIN_TEST_RESULTS_DIR': '/catkin_ws/build/test_results', 'PYTHONPATH': '/catkin_ws/devel/lib/python2.7/dist-packages:/opt/ros/indigo/lib/python2.7/dist-packages', 'COMPIZ_CONFIG_PROFILE': 'ubuntu', 'SSH_AUTH_SOCK': '/run/user/1000/keyring-D1bbBV/ssh', 'VTE_VERSION': '3409', 'TMUX': '/tmp/tmux-1000/default,9964,0', 'ROS_ROOT': '/opt/ros/indigo/share/ros', 'GDMSESSION': 'ubuntu', 'IM_CONFIG_PHASE': '1', 'TEXTDOMAINDIR': '/usr/share/locale/', 'XDG_SEAT_PATH': '/org/freedesktop/DisplayManager/Seat0', 'ROS_PACKAGE_PATH': '/catkin_ws/src:/opt/ros/indigo/share:/opt/ros/indigo/stacks', 'XDG_SESSION_ID': 'c1', 'DBUS_SESSION_BUS_ADDRESS': 'unix:abstract=/tmp/dbus-iPZQHVPiEP', '_': '/opt/ros/indigo/bin/roslaunch', 'DEFAULTS_PATH': '/usr/share/gconf/ubuntu.default.path', 'SESSION': 'ubuntu', 'DESKTOP_SESSION': 'ubuntu', 'UPSTART_SESSION': 'unix:abstract=/com/ubuntu/upstart-session/1000/1667', 'XDG_CONFIG_DIRS': '/etc/xdg/xdg-ubuntu:/usr/share/upstart/xdg:/etc/xdg', 'GTK_MODULES': 'overlay-scrollbar:unity-gtk-module', 'UBUNTU_MENUPROXY': '1', 'GDM_LANG': 'en_US', 'XDG_DATA_DIRS': '/usr/share/ubuntu:/usr/share/gnome:/usr/local/share/:/usr/share/', 'PWD': '/home/hr', 'QT_IM_MODULE': 'ibus', 'ROS_MASTER_URI': 'http://localhost:11311', 'SSH_AGENT_LAUNCHER': 'upstart', 'COLORTERM': 'gnome-terminal', 'DISPLAY': ':0.0', 'XDG_MENU_PREFIX': 'gnome-', 'TMUX_PANE': '%7', 'XDG_SEAT': 'seat0'}
[roslaunch][INFO] 2015-02-08 08:10:38,699: starting in server mode
[roslaunch.parent][INFO] 2015-02-08 08:10:38,699: starting roslaunch parent run
[roslaunch][INFO] 2015-02-08 08:10:38,699: loading roscore config file /opt/ros/indigo/etc/ros/roscore.xml
[roslaunch][INFO] 2015-02-08 08:10:38,959: Added core node of type [rosout/rosout] in namespace [/]
[roslaunch.config][INFO] 2015-02-08 08:10:38,960: loading config file /catkin_ws/src/perception/launch/tracker.launch
[roslaunch][INFO] 2015-02-08 08:10:38,961: Added node of type [usb_cam/usb_cam_node] in namespace [/]
[roslaunch][INFO] 2015-02-08 08:10:38,961: Added node of type [usb_cam/usb_cam_node] in namespace [/]
[roslaunch][INFO] 2015-02-08 08:10:39,020: Added node of type [pi_face_tracker/face_tracker.py] in namespace [/]
[roslaunch][INFO] 2015-02-08 08:10:39,041: Added node of type [pi_face_tracker/face_tracker.py] in namespace [/]
[roslaunch][INFO] 2015-02-08 08:10:39,041: ... selected machine [] for node of type [usb_cam/usb_cam_node]
[roslaunch][INFO] 2015-02-08 08:10:39,042: ... selected machine [] for node of type [usb_cam/usb_cam_node]
[roslaunch][INFO] 2015-02-08 08:10:39,042: ... selected machine [] for node of type [pi_face_tracker/face_tracker.py]
[roslaunch][INFO] 2015-02-08 08:10:39,042: ... selected machine [] for node of type [pi_face_tracker/face_tracker.py]
[roslaunch.pmon][INFO] 2015-02-08 08:10:39,042: start_process_monitor: creating ProcessMonitor
[roslaunch.pmon][INFO] 2015-02-08 08:10:39,043: created process monitor <ProcessMonitor(ProcessMonitor-1, initial daemon)>
[roslaunch.pmon][INFO] 2015-02-08 08:10:39,043: start_process_monitor: ProcessMonitor started
[roslaunch.parent][INFO] 2015-02-08 08:10:39,043: starting parent XML-RPC server
[roslaunch.server][INFO] 2015-02-08 08:10:39,043: starting roslaunch XML-RPC server
[xmlrpc][INFO] 2015-02-08 08:10:39,043: XML-RPC server binding to 0.0.0.0:0
[roslaunch.server][INFO] 2015-02-08 08:10:39,043: waiting for roslaunch XML-RPC server to initialize
[xmlrpc][INFO] 2015-02-08 08:10:39,044: Started XML-RPC server [http://hr2:35419/]
[xmlrpc][INFO] 2015-02-08 08:10:39,044: xml rpc node: starting XML-RPC server
[roslaunch][INFO] 2015-02-08 08:10:39,055: started roslaunch server http://hr2:35419/
[roslaunch.parent][INFO] 2015-02-08 08:10:39,055: ... parent XML-RPC server started
[roslaunch][INFO] 2015-02-08 08:10:39,056: master.is_running[http://localhost:11311]
[roslaunch][INFO] 2015-02-08 08:10:39,056: master.is_running[http://localhost:11311]
[roslaunch][INFO] 2015-02-08 08:10:39,057: ROS_MASTER_URI=http://localhost:11311
[roslaunch][INFO] 2015-02-08 08:10:39,059: setting /roslaunch/uris/host_hr2__35419' to http://hr2:35419/
[roslaunch][INFO] 2015-02-08 08:10:39,062: load_parameters starting ...
[roslaunch][INFO] 2015-02-08 08:10:39,072: ... load_parameters complete
[roslaunch][INFO] 2015-02-08 08:10:39,072: launch_nodes: launching local nodes ...
[roslaunch][INFO] 2015-02-08 08:10:39,072: ... preparing to launch node of type [usb_cam/usb_cam_node]
[roslaunch][INFO] 2015-02-08 08:10:39,073: create_node_process: package[usb_cam] type[usb_cam_node] machine[Machine(name[] env_loader[None] address[localhost] ssh_port[22] user[None] assignable[True] timeout[10.0])] master_uri[http://localhost:11311]
[roslaunch][INFO] 2015-02-08 08:10:39,073: process[camera-1]: env[{'WINDOWID': '75497484', 'QT_QPA_PLATFORMTHEME': 'appmenu-qt5', 'ROS_DISTRO': 'indigo', 'XDG_GREETER_DATA_DIR': '/var/lib/lightdm-data/hr', 'GNOME_DESKTOP_SESSION_ID': 'this-is-deprecated', 'XDG_CURRENT_DESKTOP': 'Unity', 'XDG_SEAT_PATH': '/org/freedesktop/DisplayManager/Seat0', 'ROSLISP_PACKAGE_DIRECTORIES': '/catkin_ws/devel/share/common-lisp', 'CPATH': '/catkin_ws/devel/include:/opt/ros/indigo/include', 'LOGNAME': 'hr', 'USER': 'hr', 'PATH': '/catkin_ws/devel/bin:/opt/ros/indigo/bin:/usr/local/sbin:/usr/local/bin:/usr/sbin:/usr/bin:/sbin:/bin:/usr/games:/usr/local/games', 'XDG_VTNR': '7', 'GNOME_KEYRING_CONTROL': '/run/user/1000/keyring-D1bbBV', 'CMAKE_PREFIX_PATH': '/catkin_ws/devel:/opt/ros/indigo', 'LD_LIBRARY_PATH': '/catkin_ws/devel/lib:/catkin_ws/devel/lib/x86_64-linux-gnu:/opt/ros/indigo/lib/x86_64-linux-gnu:/opt/ros/indigo/lib', 'SSH_AGENT_PID': '1741', 'LANG': 'en_HK.UTF-8', 'TERM': 'screen', 'SHELL': '/bin/bash', 'XDG_SESSION_PATH': '/org/freedesktop/DisplayManager/Session0', 'XAUTHORITY': '/home/hr/.Xauthority', 'LANGUAGE': 'en_HK:en', 'SESSION_MANAGER': 'local/hr2:@/tmp/.ICE-unix/1796,unix/hr2:/tmp/.ICE-unix/1796', 'SHLVL': '2', 'XDG_SESSION_ID': 'c1', 'MANDATORY_PATH': '/usr/share/gconf/ubuntu.mandatory.path', 'CLUTTER_IM_MODULE': 'xim', 'ROS_LOG_FILENAME': '/home/hr/.ros/log/8e7c4388-af61-11e4-a6f6-dc85debf707f/roslaunch-hr2-10754.log', 'QT4_IM_MODULE': 'xim', 'JOB': 'dbus', 'TEXTDOMAIN': 'im-config', 'SESSIONTYPE': 'gnome-session', 'XMODIFIERS': '@im=ibus', 'ROS_MASTER_URI': 'http://localhost:11311', 'GPG_AGENT_INFO': '/run/user/1000/keyring-D1bbBV/gpg:0:1', 'HOME': '/home/hr', 'SELINUX_INIT': 'YES', 'XDG_RUNTIME_DIR': '/run/user/1000', 'CATKIN_TEST_RESULTS_DIR': '/catkin_ws/build/test_results', 'PYTHONPATH': '/catkin_ws/devel/lib/python2.7/dist-packages:/opt/ros/indigo/lib/python2.7/dist-packages', 'COMPIZ_CONFIG_PROFILE': 'ubuntu', 'SSH_AUTH_SOCK': '/run/user/1000/keyring-D1bbBV/ssh', 'SESSION': 'ubuntu', 'VTE_VERSION': '3409', 'TMUX': '/tmp/tmux-1000/default,9964,0', 'ROS_ROOT': '/opt/ros/indigo/share/ros', 'GDMSESSION': 'ubuntu', 'IM_CONFIG_PHASE': '1', 'TEXTDOMAINDIR': '/usr/share/locale/', 'XDG_DATA_DIRS': '/usr/share/ubuntu:/usr/share/gnome:/usr/local/share/:/usr/share/', 'PKG_CONFIG_PATH': '/catkin_ws/devel/lib/pkgconfig:/catkin_ws/devel/lib/x86_64-linux-gnu/pkgconfig:/opt/ros/indigo/lib/x86_64-linux-gnu/pkgconfig:/opt/ros/indigo/lib/pkgconfig', 'ROS_PACKAGE_PATH': '/catkin_ws/src:/opt/ros/indigo/share:/opt/ros/indigo/stacks', 'ROS_TEST_RESULTS_DIR': '/catkin_ws/build/test_results', 'DBUS_SESSION_BUS_ADDRESS': 'unix:abstract=/tmp/dbus-iPZQHVPiEP', '_': '/opt/ros/indigo/bin/roslaunch', 'GTK_MODULES': 'overlay-scrollbar:unity-gtk-module', 'GTK_IM_MODULE': 'ibus', 'DESKTOP_SESSION': 'ubuntu', 'UPSTART_SESSION': 'unix:abstract=/com/ubuntu/upstart-session/1000/1667', 'XDG_CONFIG_DIRS': '/etc/xdg/xdg-ubuntu:/usr/share/upstart/xdg:/etc/xdg', 'DEFAULTS_PATH': '/usr/share/gconf/ubuntu.default.path', 'UBUNTU_MENUPROXY': '1', 'GDM_LANG': 'en_US', 'INSTANCE': '', 'PWD': '/home/hr', 'QT_IM_MODULE': 'ibus', 'ROS_ETC_DIR': '/opt/ros/indigo/etc/ros', 'SSH_AGENT_LAUNCHER': 'upstart', 'COLORTERM': 'gnome-terminal', 'DISPLAY': ':0.0', 'XDG_MENU_PREFIX': 'gnome-', 'TMUX_PANE': '%7', 'XDG_SEAT': 'seat0'}]
[roslaunch][INFO] 2015-02-08 08:10:39,133: process[camera-1]: args[[u'/opt/ros/indigo/lib/usb_cam/usb_cam_node', u'__name:=camera']]
[roslaunch][INFO] 2015-02-08 08:10:39,134: ... created process [camera-1]
[roslaunch.pmon][INFO] 2015-02-08 08:10:39,134: ProcessMonitor.register[camera-1]
[roslaunch.pmon][INFO] 2015-02-08 08:10:39,134: ProcessMonitor.register[camera-1] complete
[roslaunch][INFO] 2015-02-08 08:10:39,134: ... registered process [camera-1]
[roslaunch][INFO] 2015-02-08 08:10:39,134: process[camera-1]: starting os process
[roslaunch][INFO] 2015-02-08 08:10:39,134: process[camera-1]: start w/ args [[u'/opt/ros/indigo/lib/usb_cam/usb_cam_node', u'__name:=camera', u'__log:=/home/hr/.ros/log/8e7c4388-af61-11e4-a6f6-dc85debf707f/camera-1.log']]
[roslaunch][INFO] 2015-02-08 08:10:39,134: process[camera-1]: cwd will be [/home/hr/.ros]
[roslaunch][INFO] 2015-02-08 08:10:39,146: process[camera-1]: started with pid [10929]
[roslaunch][INFO] 2015-02-08 08:10:39,147: ... successfully launched [camera-1]
[roslaunch][INFO] 2015-02-08 08:10:39,147: ... preparing to launch node of type [usb_cam/usb_cam_node]
[roslaunch][INFO] 2015-02-08 08:10:39,147: create_node_process: package[usb_cam] type[usb_cam_node] machine[Machine(name[] env_loader[None] address[localhost] ssh_port[22] user[None] assignable[True] timeout[10.0])] master_uri[http://localhost:11311]
[roslaunch][INFO] 2015-02-08 08:10:39,147: process[eye_camera-2]: env[{'WINDOWID': '75497484', 'QT_QPA_PLATFORMTHEME': 'appmenu-qt5', 'ROS_DISTRO': 'indigo', 'XDG_GREETER_DATA_DIR': '/var/lib/lightdm-data/hr', 'GNOME_DESKTOP_SESSION_ID': 'this-is-deprecated', 'XDG_CURRENT_DESKTOP': 'Unity', 'XDG_SEAT_PATH': '/org/freedesktop/DisplayManager/Seat0', 'ROSLISP_PACKAGE_DIRECTORIES': '/catkin_ws/devel/share/common-lisp', 'CPATH': '/catkin_ws/devel/include:/opt/ros/indigo/include', 'LOGNAME': 'hr', 'USER': 'hr', 'PATH': '/catkin_ws/devel/bin:/opt/ros/indigo/bin:/usr/local/sbin:/usr/local/bin:/usr/sbin:/usr/bin:/sbin:/bin:/usr/games:/usr/local/games', 'XDG_VTNR': '7', 'GNOME_KEYRING_CONTROL': '/run/user/1000/keyring-D1bbBV', 'CMAKE_PREFIX_PATH': '/catkin_ws/devel:/opt/ros/indigo', 'LD_LIBRARY_PATH': '/catkin_ws/devel/lib:/catkin_ws/devel/lib/x86_64-linux-gnu:/opt/ros/indigo/lib/x86_64-linux-gnu:/opt/ros/indigo/lib', 'SSH_AGENT_PID': '1741', 'LANG': 'en_HK.UTF-8', 'TERM': 'screen', 'SHELL': '/bin/bash', 'XDG_SESSION_PATH': '/org/freedesktop/DisplayManager/Session0', 'XAUTHORITY': '/home/hr/.Xauthority', 'LANGUAGE': 'en_HK:en', 'SESSION_MANAGER': 'local/hr2:@/tmp/.ICE-unix/1796,unix/hr2:/tmp/.ICE-unix/1796', 'SHLVL': '2', 'XDG_SESSION_ID': 'c1', 'MANDATORY_PATH': '/usr/share/gconf/ubuntu.mandatory.path', 'CLUTTER_IM_MODULE': 'xim', 'ROS_LOG_FILENAME': '/home/hr/.ros/log/8e7c4388-af61-11e4-a6f6-dc85debf707f/roslaunch-hr2-10754.log', 'QT4_IM_MODULE': 'xim', 'JOB': 'dbus', 'TEXTDOMAIN': 'im-config', 'SESSIONTYPE': 'gnome-session', 'XMODIFIERS': '@im=ibus', 'ROS_MASTER_URI': 'http://localhost:11311', 'GPG_AGENT_INFO': '/run/user/1000/keyring-D1bbBV/gpg:0:1', 'HOME': '/home/hr', 'SELINUX_INIT': 'YES', 'XDG_RUNTIME_DIR': '/run/user/1000', 'CATKIN_TEST_RESULTS_DIR': '/catkin_ws/build/test_results', 'PYTHONPATH': '/catkin_ws/devel/lib/python2.7/dist-packages:/opt/ros/indigo/lib/python2.7/dist-packages', 'COMPIZ_CONFIG_PROFILE': 'ubuntu', 'SSH_AUTH_SOCK': '/run/user/1000/keyring-D1bbBV/ssh', 'SESSION': 'ubuntu', 'VTE_VERSION': '3409', 'TMUX': '/tmp/tmux-1000/default,9964,0', 'ROS_ROOT': '/opt/ros/indigo/share/ros', 'GDMSESSION': 'ubuntu', 'IM_CONFIG_PHASE': '1', 'TEXTDOMAINDIR': '/usr/share/locale/', 'XDG_DATA_DIRS': '/usr/share/ubuntu:/usr/share/gnome:/usr/local/share/:/usr/share/', 'PKG_CONFIG_PATH': '/catkin_ws/devel/lib/pkgconfig:/catkin_ws/devel/lib/x86_64-linux-gnu/pkgconfig:/opt/ros/indigo/lib/x86_64-linux-gnu/pkgconfig:/opt/ros/indigo/lib/pkgconfig', 'ROS_PACKAGE_PATH': '/catkin_ws/src:/opt/ros/indigo/share:/opt/ros/indigo/stacks', 'ROS_TEST_RESULTS_DIR': '/catkin_ws/build/test_results', 'DBUS_SESSION_BUS_ADDRESS': 'unix:abstract=/tmp/dbus-iPZQHVPiEP', '_': '/opt/ros/indigo/bin/roslaunch', 'GTK_MODULES': 'overlay-scrollbar:unity-gtk-module', 'GTK_IM_MODULE': 'ibus', 'DESKTOP_SESSION': 'ubuntu', 'UPSTART_SESSION': 'unix:abstract=/com/ubuntu/upstart-session/1000/1667', 'XDG_CONFIG_DIRS': '/etc/xdg/xdg-ubuntu:/usr/share/upstart/xdg:/etc/xdg', 'DEFAULTS_PATH': '/usr/share/gconf/ubuntu.default.path', 'UBUNTU_MENUPROXY': '1', 'GDM_LANG': 'en_US', 'INSTANCE': '', 'PWD': '/home/hr', 'QT_IM_MODULE': 'ibus', 'ROS_ETC_DIR': '/opt/ros/indigo/etc/ros', 'SSH_AGENT_LAUNCHER': 'upstart', 'COLORTERM': 'gnome-terminal', 'DISPLAY': ':0.0', 'XDG_MENU_PREFIX': 'gnome-', 'TMUX_PANE': '%7', 'XDG_SEAT': 'seat0'}]
[roslaunch][INFO] 2015-02-08 08:10:39,222: process[eye_camera-2]: args[[u'/opt/ros/indigo/lib/usb_cam/usb_cam_node', u'__name:=eye_camera']]
[roslaunch][INFO] 2015-02-08 08:10:39,222: ... created process [eye_camera-2]
[roslaunch.pmon][INFO] 2015-02-08 08:10:39,222: ProcessMonitor.register[eye_camera-2]
[roslaunch.pmon][INFO] 2015-02-08 08:10:39,223: ProcessMonitor.register[eye_camera-2] complete
[roslaunch][INFO] 2015-02-08 08:10:39,223: ... registered process [eye_camera-2]
[roslaunch][INFO] 2015-02-08 08:10:39,223: process[eye_camera-2]: starting os process
[roslaunch][INFO] 2015-02-08 08:10:39,223: process[eye_camera-2]: start w/ args [[u'/opt/ros/indigo/lib/usb_cam/usb_cam_node', u'__name:=eye_camera', u'__log:=/home/hr/.ros/log/8e7c4388-af61-11e4-a6f6-dc85debf707f/eye_camera-2.log']]
[roslaunch][INFO] 2015-02-08 08:10:39,223: process[eye_camera-2]: cwd will be [/home/hr/.ros]
[roslaunch][INFO] 2015-02-08 08:10:39,243: process[eye_camera-2]: started with pid [10961]
[roslaunch][INFO] 2015-02-08 08:10:39,244: ... successfully launched [eye_camera-2]
[roslaunch][INFO] 2015-02-08 08:10:39,244: ... preparing to launch node of type [pi_face_tracker/face_tracker.py]
[roslaunch][INFO] 2015-02-08 08:10:39,244: create_node_process: package[pi_face_tracker] type[face_tracker.py] machine[Machine(name[] env_loader[None] address[localhost] ssh_port[22] user[None] assignable[True] timeout[10.0])] master_uri[http://localhost:11311]
[roslaunch][INFO] 2015-02-08 08:10:39,244: process[body_face_tracker-3]: env[{'WINDOWID': '75497484', 'QT_QPA_PLATFORMTHEME': 'appmenu-qt5', 'ROS_DISTRO': 'indigo', 'XDG_GREETER_DATA_DIR': '/var/lib/lightdm-data/hr', 'GNOME_DESKTOP_SESSION_ID': 'this-is-deprecated', 'XDG_CURRENT_DESKTOP': 'Unity', 'XDG_SEAT_PATH': '/org/freedesktop/DisplayManager/Seat0', 'ROSLISP_PACKAGE_DIRECTORIES': '/catkin_ws/devel/share/common-lisp', 'CPATH': '/catkin_ws/devel/include:/opt/ros/indigo/include', 'LOGNAME': 'hr', 'USER': 'hr', 'PATH': '/catkin_ws/devel/bin:/opt/ros/indigo/bin:/usr/local/sbin:/usr/local/bin:/usr/sbin:/usr/bin:/sbin:/bin:/usr/games:/usr/local/games', 'XDG_VTNR': '7', 'GNOME_KEYRING_CONTROL': '/run/user/1000/keyring-D1bbBV', 'CMAKE_PREFIX_PATH': '/catkin_ws/devel:/opt/ros/indigo', 'LD_LIBRARY_PATH': '/catkin_ws/devel/lib:/catkin_ws/devel/lib/x86_64-linux-gnu:/opt/ros/indigo/lib/x86_64-linux-gnu:/opt/ros/indigo/lib', 'SSH_AGENT_PID': '1741', 'LANG': 'en_HK.UTF-8', 'TERM': 'screen', 'SHELL': '/bin/bash', 'XDG_SESSION_PATH': '/org/freedesktop/DisplayManager/Session0', 'XAUTHORITY': '/home/hr/.Xauthority', 'LANGUAGE': 'en_HK:en', 'SESSION_MANAGER': 'local/hr2:@/tmp/.ICE-unix/1796,unix/hr2:/tmp/.ICE-unix/1796', 'SHLVL': '2', 'XDG_SESSION_ID': 'c1', 'MANDATORY_PATH': '/usr/share/gconf/ubuntu.mandatory.path', 'CLUTTER_IM_MODULE': 'xim', 'ROS_LOG_FILENAME': '/home/hr/.ros/log/8e7c4388-af61-11e4-a6f6-dc85debf707f/roslaunch-hr2-10754.log', 'QT4_IM_MODULE': 'xim', 'JOB': 'dbus', 'TEXTDOMAIN': 'im-config', 'SESSIONTYPE': 'gnome-session', 'XMODIFIERS': '@im=ibus', 'ROS_MASTER_URI': 'http://localhost:11311', 'GPG_AGENT_INFO': '/run/user/1000/keyring-D1bbBV/gpg:0:1', 'HOME': '/home/hr', 'SELINUX_INIT': 'YES', 'XDG_RUNTIME_DIR': '/run/user/1000', 'CATKIN_TEST_RESULTS_DIR': '/catkin_ws/build/test_results', 'PYTHONPATH': '/catkin_ws/devel/lib/python2.7/dist-packages:/opt/ros/indigo/lib/python2.7/dist-packages', 'COMPIZ_CONFIG_PROFILE': 'ubuntu', 'SSH_AUTH_SOCK': '/run/user/1000/keyring-D1bbBV/ssh', 'SESSION': 'ubuntu', 'VTE_VERSION': '3409', 'TMUX': '/tmp/tmux-1000/default,9964,0', 'ROS_ROOT': '/opt/ros/indigo/share/ros', 'GDMSESSION': 'ubuntu', 'IM_CONFIG_PHASE': '1', 'TEXTDOMAINDIR': '/usr/share/locale/', 'XDG_DATA_DIRS': '/usr/share/ubuntu:/usr/share/gnome:/usr/local/share/:/usr/share/', 'PKG_CONFIG_PATH': '/catkin_ws/devel/lib/pkgconfig:/catkin_ws/devel/lib/x86_64-linux-gnu/pkgconfig:/opt/ros/indigo/lib/x86_64-linux-gnu/pkgconfig:/opt/ros/indigo/lib/pkgconfig', 'ROS_PACKAGE_PATH': '/catkin_ws/src:/opt/ros/indigo/share:/opt/ros/indigo/stacks', 'ROS_TEST_RESULTS_DIR': '/catkin_ws/build/test_results', 'DBUS_SESSION_BUS_ADDRESS': 'unix:abstract=/tmp/dbus-iPZQHVPiEP', '_': '/opt/ros/indigo/bin/roslaunch', 'GTK_MODULES': 'overlay-scrollbar:unity-gtk-module', 'GTK_IM_MODULE': 'ibus', 'DESKTOP_SESSION': 'ubuntu', 'UPSTART_SESSION': 'unix:abstract=/com/ubuntu/upstart-session/1000/1667', 'XDG_CONFIG_DIRS': '/etc/xdg/xdg-ubuntu:/usr/share/upstart/xdg:/etc/xdg', 'DEFAULTS_PATH': '/usr/share/gconf/ubuntu.default.path', 'UBUNTU_MENUPROXY': '1', 'GDM_LANG': 'en_US', 'INSTANCE': '', 'PWD': '/home/hr', 'QT_IM_MODULE': 'ibus', 'ROS_ETC_DIR': '/opt/ros/indigo/etc/ros', 'SSH_AGENT_LAUNCHER': 'upstart', 'COLORTERM': 'gnome-terminal', 'DISPLAY': ':0.0', 'XDG_MENU_PREFIX': 'gnome-', 'TMUX_PANE': '%7', 'XDG_SEAT': 'seat0'}]
[roslaunch][INFO] 2015-02-08 08:10:39,317: process[body_face_tracker-3]: args[[u'/catkin_ws/src/pi_vision/pi_face_tracker/nodes/face_tracker.py', u'input_rgb_image:=camera/image_raw', u'output_image:=camera/pi_face_tracker/image', u'__name:=body_face_tracker']]
[roslaunch][INFO] 2015-02-08 08:10:39,317: ... created process [body_face_tracker-3]
[roslaunch.pmon][INFO] 2015-02-08 08:10:39,317: ProcessMonitor.register[body_face_tracker-3]
[roslaunch.pmon][INFO] 2015-02-08 08:10:39,318: ProcessMonitor.register[body_face_tracker-3] complete
[roslaunch][INFO] 2015-02-08 08:10:39,318: ... registered process [body_face_tracker-3]
[roslaunch][INFO] 2015-02-08 08:10:39,318: process[body_face_tracker-3]: starting os process
[roslaunch][INFO] 2015-02-08 08:10:39,318: process[body_face_tracker-3]: start w/ args [[u'/catkin_ws/src/pi_vision/pi_face_tracker/nodes/face_tracker.py', u'input_rgb_image:=camera/image_raw', u'output_image:=camera/pi_face_tracker/image', u'__name:=body_face_tracker', u'__log:=/home/hr/.ros/log/8e7c4388-af61-11e4-a6f6-dc85debf707f/body_face_tracker-3.log']]
[roslaunch][INFO] 2015-02-08 08:10:39,318: process[body_face_tracker-3]: cwd will be [/home/hr/.ros]
[roslaunch][INFO] 2015-02-08 08:10:39,323: process[body_face_tracker-3]: started with pid [10994]
[roslaunch][INFO] 2015-02-08 08:10:39,324: ... successfully launched [body_face_tracker-3]
[roslaunch][INFO] 2015-02-08 08:10:39,324: ... preparing to launch node of type [pi_face_tracker/face_tracker.py]
[roslaunch][INFO] 2015-02-08 08:10:39,324: create_node_process: package[pi_face_tracker] type[face_tracker.py] machine[Machine(name[] env_loader[None] address[localhost] ssh_port[22] user[None] assignable[True] timeout[10.0])] master_uri[http://localhost:11311]
[roslaunch][INFO] 2015-02-08 08:10:39,324: process[eye_face_tracker-4]: env[{'WINDOWID': '75497484', 'QT_QPA_PLATFORMTHEME': 'appmenu-qt5', 'ROS_DISTRO': 'indigo', 'XDG_GREETER_DATA_DIR': '/var/lib/lightdm-data/hr', 'GNOME_DESKTOP_SESSION_ID': 'this-is-deprecated', 'XDG_CURRENT_DESKTOP': 'Unity', 'XDG_SEAT_PATH': '/org/freedesktop/DisplayManager/Seat0', 'ROSLISP_PACKAGE_DIRECTORIES': '/catkin_ws/devel/share/common-lisp', 'CPATH': '/catkin_ws/devel/include:/opt/ros/indigo/include', 'LOGNAME': 'hr', 'USER': 'hr', 'PATH': '/catkin_ws/devel/bin:/opt/ros/indigo/bin:/usr/local/sbin:/usr/local/bin:/usr/sbin:/usr/bin:/sbin:/bin:/usr/games:/usr/local/games', 'XDG_VTNR': '7', 'GNOME_KEYRING_CONTROL': '/run/user/1000/keyring-D1bbBV', 'CMAKE_PREFIX_PATH': '/catkin_ws/devel:/opt/ros/indigo', 'LD_LIBRARY_PATH': '/catkin_ws/devel/lib:/catkin_ws/devel/lib/x86_64-linux-gnu:/opt/ros/indigo/lib/x86_64-linux-gnu:/opt/ros/indigo/lib', 'SSH_AGENT_PID': '1741', 'LANG': 'en_HK.UTF-8', 'TERM': 'screen', 'SHELL': '/bin/bash', 'XDG_SESSION_PATH': '/org/freedesktop/DisplayManager/Session0', 'XAUTHORITY': '/home/hr/.Xauthority', 'LANGUAGE': 'en_HK:en', 'SESSION_MANAGER': 'local/hr2:@/tmp/.ICE-unix/1796,unix/hr2:/tmp/.ICE-unix/1796', 'SHLVL': '2', 'XDG_SESSION_ID': 'c1', 'MANDATORY_PATH': '/usr/share/gconf/ubuntu.mandatory.path', 'CLUTTER_IM_MODULE': 'xim', 'ROS_LOG_FILENAME': '/home/hr/.ros/log/8e7c4388-af61-11e4-a6f6-dc85debf707f/roslaunch-hr2-10754.log', 'QT4_IM_MODULE': 'xim', 'JOB': 'dbus', 'TEXTDOMAIN': 'im-config', 'SESSIONTYPE': 'gnome-session', 'XMODIFIERS': '@im=ibus', 'ROS_MASTER_URI': 'http://localhost:11311', 'GPG_AGENT_INFO': '/run/user/1000/keyring-D1bbBV/gpg:0:1', 'HOME': '/home/hr', 'SELINUX_INIT': 'YES', 'XDG_RUNTIME_DIR': '/run/user/1000', 'CATKIN_TEST_RESULTS_DIR': '/catkin_ws/build/test_results', 'PYTHONPATH': '/catkin_ws/devel/lib/python2.7/dist-packages:/opt/ros/indigo/lib/python2.7/dist-packages', 'COMPIZ_CONFIG_PROFILE': 'ubuntu', 'SSH_AUTH_SOCK': '/run/user/1000/keyring-D1bbBV/ssh', 'SESSION': 'ubuntu', 'VTE_VERSION': '3409', 'TMUX': '/tmp/tmux-1000/default,9964,0', 'ROS_ROOT': '/opt/ros/indigo/share/ros', 'GDMSESSION': 'ubuntu', 'IM_CONFIG_PHASE': '1', 'TEXTDOMAINDIR': '/usr/share/locale/', 'XDG_DATA_DIRS': '/usr/share/ubuntu:/usr/share/gnome:/usr/local/share/:/usr/share/', 'PKG_CONFIG_PATH': '/catkin_ws/devel/lib/pkgconfig:/catkin_ws/devel/lib/x86_64-linux-gnu/pkgconfig:/opt/ros/indigo/lib/x86_64-linux-gnu/pkgconfig:/opt/ros/indigo/lib/pkgconfig', 'ROS_PACKAGE_PATH': '/catkin_ws/src:/opt/ros/indigo/share:/opt/ros/indigo/stacks', 'ROS_TEST_RESULTS_DIR': '/catkin_ws/build/test_results', 'DBUS_SESSION_BUS_ADDRESS': 'unix:abstract=/tmp/dbus-iPZQHVPiEP', '_': '/opt/ros/indigo/bin/roslaunch', 'GTK_MODULES': 'overlay-scrollbar:unity-gtk-module', 'GTK_IM_MODULE': 'ibus', 'DESKTOP_SESSION': 'ubuntu', 'UPSTART_SESSION': 'unix:abstract=/com/ubuntu/upstart-session/1000/1667', 'XDG_CONFIG_DIRS': '/etc/xdg/xdg-ubuntu:/usr/share/upstart/xdg:/etc/xdg', 'DEFAULTS_PATH': '/usr/share/gconf/ubuntu.default.path', 'UBUNTU_MENUPROXY': '1', 'GDM_LANG': 'en_US', 'INSTANCE': '', 'PWD': '/home/hr', 'QT_IM_MODULE': 'ibus', 'ROS_ETC_DIR': '/opt/ros/indigo/etc/ros', 'SSH_AGENT_LAUNCHER': 'upstart', 'COLORTERM': 'gnome-terminal', 'DISPLAY': ':0.0', 'XDG_MENU_PREFIX': 'gnome-', 'TMUX_PANE': '%7', 'XDG_SEAT': 'seat0'}]
[roslaunch][INFO] 2015-02-08 08:10:39,400: process[eye_face_tracker-4]: args[[u'/catkin_ws/src/pi_vision/pi_face_tracker/nodes/face_tracker.py', u'input_rgb_image:=eye_camera/image_raw', u'output_image:=eye_camera/pi_face_tracker/image', u'__name:=eye_face_tracker']]
[roslaunch][INFO] 2015-02-08 08:10:39,400: ... created process [eye_face_tracker-4]
[roslaunch.pmon][INFO] 2015-02-08 08:10:39,400: ProcessMonitor.register[eye_face_tracker-4]
[roslaunch.pmon][INFO] 2015-02-08 08:10:39,400: ProcessMonitor.register[eye_face_tracker-4] complete
[roslaunch][INFO] 2015-02-08 08:10:39,400: ... registered process [eye_face_tracker-4]
[roslaunch][INFO] 2015-02-08 08:10:39,401: process[eye_face_tracker-4]: starting os process
[roslaunch][INFO] 2015-02-08 08:10:39,401: process[eye_face_tracker-4]: start w/ args [[u'/catkin_ws/src/pi_vision/pi_face_tracker/nodes/face_tracker.py', u'input_rgb_image:=eye_camera/image_raw', u'output_image:=eye_camera/pi_face_tracker/image', u'__name:=eye_face_tracker', u'__log:=/home/hr/.ros/log/8e7c4388-af61-11e4-a6f6-dc85debf707f/eye_face_tracker-4.log']]
[roslaunch][INFO] 2015-02-08 08:10:39,401: process[eye_face_tracker-4]: cwd will be [/home/hr/.ros]
[roslaunch][INFO] 2015-02-08 08:10:39,404: process[eye_face_tracker-4]: started with pid [11016]
[roslaunch][INFO] 2015-02-08 08:10:39,404: ... successfully launched [eye_face_tracker-4]
[roslaunch][INFO] 2015-02-08 08:10:39,405: ... launch_nodes complete
[roslaunch.pmon][INFO] 2015-02-08 08:10:39,405: registrations completed <ProcessMonitor(ProcessMonitor-1, started daemon 140031836534528)>
[roslaunch.parent][INFO] 2015-02-08 08:10:39,405: ... roslaunch parent running, waiting for process exit
[roslaunch][INFO] 2015-02-08 08:10:39,405: spin
[roslaunch][ERROR] 2015-02-08 08:10:44,954: [eye_camera-2] process has died [pid 10961, exit code 1, cmd /opt/ros/indigo/lib/usb_cam/usb_cam_node __name:=eye_camera __log:=/home/hr/.ros/log/8e7c4388-af61-11e4-a6f6-dc85debf707f/eye_camera-2.log].
log file: /home/hr/.ros/log/8e7c4388-af61-11e4-a6f6-dc85debf707f/eye_camera-2*.log
[roslaunch.pmon][INFO] 2015-02-08 08:10:44,954: ProcessMonitor.unregister[eye_camera-2] starting
[roslaunch.pmon][INFO] 2015-02-08 08:10:44,955: ProcessMonitor.unregister[eye_camera-2] complete
[roslaunch.pmon][INFO] 2015-02-08 08:14:03,356: ProcessMonitor.shutdown <ProcessMonitor(ProcessMonitor-1, started daemon 140031836534528)>
[roslaunch.pmon][INFO] 2015-02-08 08:14:03,383: ProcessMonitor._post_run <ProcessMonitor(ProcessMonitor-1, started daemon 140031836534528)>
[roslaunch.pmon][INFO] 2015-02-08 08:14:03,384: ProcessMonitor._post_run <ProcessMonitor(ProcessMonitor-1, started daemon 140031836534528)>: remaining procs are [<roslaunch.nodeprocess.LocalProcess object at 0x7f5bb4409c50>, <roslaunch.nodeprocess.LocalProcess object at 0x7f5bb4409690>, <roslaunch.nodeprocess.LocalProcess object at 0x7f5bb434c6d0>]
[roslaunch.pmon][INFO] 2015-02-08 08:14:03,386: ProcessMonitor exit: killing eye_face_tracker-4
[roslaunch][INFO] 2015-02-08 08:14:03,386: [eye_face_tracker-4] killing on exit
[roslaunch][INFO] 2015-02-08 08:14:03,386: process[eye_face_tracker-4]: killing os process with pid[11016] pgid[11016]
[roslaunch][INFO] 2015-02-08 08:14:03,386: [eye_face_tracker-4] sending SIGINT to pgid [11016]
[roslaunch][INFO] 2015-02-08 08:14:03,387: [eye_face_tracker-4] sent SIGINT to pgid [11016]
[roslaunch.pmon][INFO] 2015-02-08 08:14:03,388: ProcessMonitor exit: killing body_face_tracker-3
[roslaunch][INFO] 2015-02-08 08:14:03,388: [body_face_tracker-3] killing on exit
[roslaunch][INFO] 2015-02-08 08:14:03,389: process[body_face_tracker-3]: killing os process with pid[10994] pgid[10994]
[roslaunch][INFO] 2015-02-08 08:14:03,389: [body_face_tracker-3] sending SIGINT to pgid [10994]
[roslaunch][INFO] 2015-02-08 08:14:03,389: [body_face_tracker-3] sent SIGINT to pgid [10994]
[roslaunch.pmon][INFO] 2015-02-08 08:14:03,409: ProcessMonitor exit: killing camera-1
[roslaunch][INFO] 2015-02-08 08:14:03,409: [camera-1] killing on exit
[roslaunch][INFO] 2015-02-08 08:14:03,409: process[camera-1]: killing os process with pid[10929] pgid[10929]
[roslaunch][INFO] 2015-02-08 08:14:03,410: [camera-1] sending SIGINT to pgid [10929]
[roslaunch][INFO] 2015-02-08 08:14:03,410: [camera-1] sent SIGINT to pgid [10929]
[roslaunch][INFO] 2015-02-08 08:14:03,590: process[body_face_tracker-3]: SIGINT killed with return value 0
[roslaunch][INFO] 2015-02-08 08:14:03,688: process[eye_face_tracker-4]: SIGINT killed with return value 1
[roslaunch][INFO] 2015-02-08 08:14:04,011: process[camera-1]: SIGINT killed with return value -11
[roslaunch.pmon][INFO] 2015-02-08 08:14:04,011: ProcessMonitor exit: cleaning up data structures and signals
[roslaunch.pmon][INFO] 2015-02-08 08:14:04,012: ProcessMonitor exit: pmon has shutdown
[roslaunch][INFO] 2015-02-08 08:14:04,024: process monitor is done spinning, initiating full shutdown
[roslaunch][INFO] 2015-02-08 08:14:04,024: runner.stop()
[roslaunch][INFO] 2015-02-08 08:14:04,024: shutting down processing monitor...
[roslaunch][INFO] 2015-02-08 08:14:04,024: shutting down processing monitor <ProcessMonitor(ProcessMonitor-1, stopped daemon 140031836534528)>
[roslaunch.pmon][INFO] 2015-02-08 08:14:04,024: ProcessMonitor.shutdown <ProcessMonitor(ProcessMonitor-1, stopped daemon 140031836534528)>
[roslaunch][INFO] 2015-02-08 08:14:04,024: ... shutting down processing monitor complete
[roslaunch][INFO] 2015-02-08 08:14:04,024: done
[roslaunch.pmon][INFO] 2015-02-08 08:14:04,024: ProcessMonitor.shutdown <ProcessMonitor(ProcessMonitor-1, stopped daemon 140031836534528)>
[rospy.core][INFO] 2015-02-08 08:14:04,024: signal_shutdown [atexit]
