[rospy.client][INFO] 2015-02-08 23:38:48,303: init_node, name[/state_publisher], pid[27041]
[xmlrpc][INFO] 2015-02-08 23:38:48,304: XML-RPC server binding to 0.0.0.0:0
[xmlrpc][INFO] 2015-02-08 23:38:48,304: Started XML-RPC server [http://hr2:59447/]
[rospy.init][INFO] 2015-02-08 23:38:48,304: ROS Slave URI: [http://hr2:59447/]
[rospy.impl.masterslave][INFO] 2015-02-08 23:38:48,304: _ready: http://hr2:59447/
[xmlrpc][INFO] 2015-02-08 23:38:48,305: xml rpc node: starting XML-RPC server
[rospy.registration][INFO] 2015-02-08 23:38:48,306: Registering with master node http://localhost:11311
[rospy.init][INFO] 2015-02-08 23:38:48,405: registered with master
[rospy.rosout][INFO] 2015-02-08 23:38:48,405: initializing /rosout core topic
[rospy.rosout][INFO] 2015-02-08 23:38:48,408: connected to core topic /rosout
[rospy.simtime][INFO] 2015-02-08 23:38:48,409: /use_sim_time is not set, will not subscribe to simulated time [/clock] topic
[rospy.internal][INFO] 2015-02-08 23:38:48,458: topic[/joint_states_combined] adding connection to [/joint_state_publisher], count 0
[rospy.internal][INFO] 2015-02-08 23:38:48,632: topic[/rosout] adding connection to [/rosout], count 0
[rospy.core][INFO] 2015-02-08 23:43:14,177: signal_shutdown [signal-2]
[rospy.internal][INFO] 2015-02-08 23:43:14,201: topic[/joint_states_combined] removing connection to /joint_state_publisher
[rospy.internal][INFO] 2015-02-08 23:43:14,201: topic[/rosout] removing connection to /rosout
[rospy.impl.masterslave][INFO] 2015-02-08 23:43:14,201: signal-2
[rospy.core][INFO] 2015-02-08 23:43:14,818: signal_shutdown [atexit]
