[rospy.client][INFO] 2015-02-06 07:09:10,607: init_node, name[/rostopic_29055_1423202950587], pid[29055]
[xmlrpc][INFO] 2015-02-06 07:09:10,608: XML-RPC server binding to 0.0.0.0:0
[xmlrpc][INFO] 2015-02-06 07:09:10,608: Started XML-RPC server [http://hr2:35160/]
[rospy.init][INFO] 2015-02-06 07:09:10,608: ROS Slave URI: [http://hr2:35160/]
[rospy.impl.masterslave][INFO] 2015-02-06 07:09:10,608: _ready: http://hr2:35160/
[xmlrpc][INFO] 2015-02-06 07:09:10,608: xml rpc node: starting XML-RPC server
[rospy.registration][INFO] 2015-02-06 07:09:10,608: Registering with master node http://localhost:11311
[rospy.init][INFO] 2015-02-06 07:09:10,708: registered with master
[rospy.rosout][INFO] 2015-02-06 07:09:10,709: initializing /rosout core topic
[rospy.rosout][INFO] 2015-02-06 07:09:10,710: connected to core topic /rosout
[rospy.simtime][INFO] 2015-02-06 07:09:10,712: /use_sim_time is not set, will not subscribe to simulated time [/clock] topic
[rospy.internal][INFO] 2015-02-06 07:09:10,776: topic[/fritz/right/command] adding connection to [http://hr2:50996/], count 0
[rospy.internal][INFO] 2015-02-06 07:09:10,776: topic[/fritz/right/command] adding connection to [http://hr2:38810/], count 0
[rospy.internal][INFO] 2015-02-06 07:09:10,780: topic[/fritz/right/command] adding connection to [http://hr2:48967/], count 2
[rospy.internal][INFO] 2015-02-06 07:09:10,948: topic[/rosout] adding connection to [/rosout], count 0
[rospy.core][INFO] 2015-02-06 07:09:15,293: signal_shutdown [signal-2]
[rospy.internal][INFO] 2015-02-06 07:09:15,295: topic[/rosout] removing connection to /rosout
[rospy.internal][INFO] 2015-02-06 07:09:15,295: topic[/fritz/right/command] removing connection to http://hr2:50996/
[rospy.internal][INFO] 2015-02-06 07:09:15,296: topic[/fritz/right/command] removing connection to http://hr2:38810/
[rospy.internal][INFO] 2015-02-06 07:09:15,296: topic[/fritz/right/command] removing connection to http://hr2:48967/
[rospy.impl.masterslave][INFO] 2015-02-06 07:09:15,296: signal-2
[rospy.core][INFO] 2015-02-06 07:09:15,412: signal_shutdown [atexit]
