[rospy.client][INFO] 2015-02-08 23:58:23,908: init_node, name[/rostopic_6773_1423411103889], pid[6773]
[xmlrpc][INFO] 2015-02-08 23:58:23,908: XML-RPC server binding to 0.0.0.0:0
[xmlrpc][INFO] 2015-02-08 23:58:23,909: Started XML-RPC server [http://hr2:53670/]
[rospy.init][INFO] 2015-02-08 23:58:23,909: ROS Slave URI: [http://hr2:53670/]
[rospy.impl.masterslave][INFO] 2015-02-08 23:58:23,909: _ready: http://hr2:53670/
[rospy.registration][INFO] 2015-02-08 23:58:23,909: Registering with master node http://localhost:11311
[xmlrpc][INFO] 2015-02-08 23:58:23,909: xml rpc node: starting XML-RPC server
[rospy.init][INFO] 2015-02-08 23:58:24,009: registered with master
[rospy.core][INFO] 2015-02-08 23:58:25,561: signal_shutdown [signal-2]
[rospy.impl.masterslave][INFO] 2015-02-08 23:58:25,563: signal-2
[rospy.core][INFO] 2015-02-08 23:58:25,679: signal_shutdown [atexit]
