[rospy.client][INFO] 2015-03-03 16:42:29,240: init_node, name[/ttsprompt], pid[10462]
[xmlrpc][INFO] 2015-03-03 16:42:29,240: XML-RPC server binding to 0.0.0.0:0
[xmlrpc][INFO] 2015-03-03 16:42:29,241: Started XML-RPC server [http://hr2:55096/]
[rospy.impl.masterslave][INFO] 2015-03-03 16:42:29,241: _ready: http://hr2:55096/
[rospy.init][INFO] 2015-03-03 16:42:29,241: ROS Slave URI: [http://hr2:55096/]
[xmlrpc][INFO] 2015-03-03 16:42:29,241: xml rpc node: starting XML-RPC server
[rospy.registration][INFO] 2015-03-03 16:42:29,242: Registering with master node http://localhost:11311
[rospy.init][INFO] 2015-03-03 16:42:29,341: registered with master
[rospy.rosout][INFO] 2015-03-03 16:42:29,341: initializing /rosout core topic
[rospy.rosout][INFO] 2015-03-03 16:42:29,347: connected to core topic /rosout
[rospy.simtime][INFO] 2015-03-03 16:42:29,349: /use_sim_time is not set, will not subscribe to simulated time [/clock] topic
[rospy.internal][INFO] 2015-03-03 16:42:29,428: topic[/han/chatbot_responses] adding connection to [/han/tts], count 0
[rospy.internal][INFO] 2015-03-03 16:42:29,444: topic[/han/chatbot_responses] adding connection to [/rosbridge_websocket_ssl], count 1
[rospy.internal][INFO] 2015-03-03 16:42:29,583: topic[/rosout] adding connection to [/rosout], count 0
[rospy.core][INFO] 2015-03-03 16:45:53,227: signal_shutdown [signal-2]
[rospy.internal][INFO] 2015-03-03 16:45:53,229: topic[/rosout] removing connection to /rosout
[rospy.internal][INFO] 2015-03-03 16:45:53,229: topic[/han/chatbot_responses] removing connection to /han/tts
[rospy.internal][INFO] 2015-03-03 16:45:53,230: topic[/han/chatbot_responses] removing connection to /rosbridge_websocket_ssl
[rospy.impl.masterslave][INFO] 2015-03-03 16:45:53,230: signal-2
[rospy.core][INFO] 2015-03-03 16:45:53,798: signal_shutdown [signal-2]
[rospy.core][INFO] 2015-03-03 16:45:53,947: signal_shutdown [signal-2]
[rospy.core][INFO] 2015-03-03 16:45:54,097: signal_shutdown [signal-2]
[rospy.core][INFO] 2015-03-03 16:45:54,246: signal_shutdown [signal-2]
[rospy.core][INFO] 2015-03-03 16:45:54,460: signal_shutdown [signal-2]
[rospy.core][INFO] 2015-03-03 16:45:54,716: signal_shutdown [signal-2]
[rospy.core][INFO] 2015-03-03 16:45:54,962: signal_shutdown [signal-2]
[rospy.core][INFO] 2015-03-03 16:45:55,137: signal_shutdown [signal-2]
[rospy.core][INFO] 2015-03-03 16:45:55,308: signal_shutdown [signal-2]
[rospy.core][INFO] 2015-03-03 16:45:55,500: signal_shutdown [signal-2]
[rospy.core][INFO] 2015-03-03 16:45:55,697: signal_shutdown [signal-2]
[rospy.client][INFO] 2015-03-03 16:47:49,067: init_node, name[/ttsprompt], pid[11212]
[xmlrpc][INFO] 2015-03-03 16:47:49,068: XML-RPC server binding to 0.0.0.0:0
[xmlrpc][INFO] 2015-03-03 16:47:49,070: Started XML-RPC server [http://hr2:42284/]
[rospy.init][INFO] 2015-03-03 16:47:49,070: ROS Slave URI: [http://hr2:42284/]
[rospy.impl.masterslave][INFO] 2015-03-03 16:47:49,071: _ready: http://hr2:42284/
[xmlrpc][INFO] 2015-03-03 16:47:49,072: xml rpc node: starting XML-RPC server
[rospy.registration][INFO] 2015-03-03 16:47:49,072: Registering with master node http://localhost:11311
[rospy.init][INFO] 2015-03-03 16:47:49,171: registered with master
[rospy.rosout][INFO] 2015-03-03 16:47:49,172: initializing /rosout core topic
[rospy.rosout][INFO] 2015-03-03 16:47:49,179: connected to core topic /rosout
[rospy.simtime][INFO] 2015-03-03 16:47:49,183: /use_sim_time is not set, will not subscribe to simulated time [/clock] topic
[rospy.internal][INFO] 2015-03-03 16:47:49,277: topic[/han/chatbot_responses] adding connection to [/han/tts], count 0
[rospy.internal][INFO] 2015-03-03 16:47:49,300: topic[/han/chatbot_responses] adding connection to [/rosbridge_websocket_ssl], count 1
[rospy.internal][INFO] 2015-03-03 16:47:49,439: topic[/rosout] adding connection to [/rosout], count 0
[rospy.core][INFO] 2015-03-03 16:49:40,705: signal_shutdown [signal-2]
[rospy.registration][WARNING] 2015-03-03 16:49:40,706: cannot unregister with master due to network issues
[rospy.internal][INFO] 2015-03-03 16:49:40,707: topic[/rosout] removing connection to /rosout
[rospy.internal][INFO] 2015-03-03 16:49:40,707: topic[/han/chatbot_responses] removing connection to /han/tts
[rospy.internal][INFO] 2015-03-03 16:49:40,708: topic[/han/chatbot_responses] removing connection to /rosbridge_websocket_ssl
[rospy.impl.masterslave][INFO] 2015-03-03 16:49:40,708: signal-2
[rospy.core][INFO] 2015-03-03 16:49:41,174: signal_shutdown [signal-2]
[rospy.core][INFO] 2015-03-03 16:49:41,332: signal_shutdown [signal-2]
[rospy.core][INFO] 2015-03-03 16:49:41,497: signal_shutdown [signal-2]
[rospy.core][INFO] 2015-03-03 16:49:41,672: signal_shutdown [signal-2]
[rospy.core][INFO] 2015-03-03 16:50:24,526: signal_shutdown [signal-2]
[rospy.core][INFO] 2015-03-03 16:50:24,772: signal_shutdown [signal-2]
[rospy.core][INFO] 2015-03-03 16:50:25,177: signal_shutdown [signal-2]
[rospy.client][INFO] 2015-03-03 16:54:49,684: init_node, name[/ttsprompt], pid[5124]
[xmlrpc][INFO] 2015-03-03 16:54:49,692: XML-RPC server binding to 0.0.0.0:0
[xmlrpc][INFO] 2015-03-03 16:54:49,693: Started XML-RPC server [http://hr2:41017/]
[rospy.impl.masterslave][INFO] 2015-03-03 16:54:49,693: _ready: http://hr2:41017/
[rospy.init][INFO] 2015-03-03 16:54:49,695: ROS Slave URI: [http://hr2:41017/]
[xmlrpc][INFO] 2015-03-03 16:54:49,695: xml rpc node: starting XML-RPC server
[rospy.registration][INFO] 2015-03-03 16:54:49,696: Registering with master node http://localhost:11311
[rospy.init][INFO] 2015-03-03 16:54:49,796: registered with master
[rospy.rosout][INFO] 2015-03-03 16:54:49,796: initializing /rosout core topic
[rospy.rosout][INFO] 2015-03-03 16:54:49,798: connected to core topic /rosout
[rospy.simtime][INFO] 2015-03-03 16:54:49,799: /use_sim_time is not set, will not subscribe to simulated time [/clock] topic
[rospy.internal][INFO] 2015-03-03 16:54:49,895: topic[/han/chatbot_responses] adding connection to [/rosbridge_websocket], count 0
[rospy.internal][INFO] 2015-03-03 16:54:49,896: topic[/han/chatbot_responses] adding connection to [/han/tts], count 1
[rospy.internal][INFO] 2015-03-03 16:54:50,055: topic[/rosout] adding connection to [/rosout], count 0
[rospy.core][INFO] 2015-03-03 16:56:46,300: signal_shutdown [atexit]
[rospy.internal][INFO] 2015-03-03 16:56:46,302: topic[/rosout] removing connection to /rosout
[rospy.internal][INFO] 2015-03-03 16:56:46,303: topic[/han/chatbot_responses] removing connection to /rosbridge_websocket
[rospy.internal][INFO] 2015-03-03 16:56:46,303: topic[/han/chatbot_responses] removing connection to /han/tts
[rospy.impl.masterslave][INFO] 2015-03-03 16:56:46,303: atexit
[rospy.client][INFO] 2015-03-03 16:56:53,073: init_node, name[/ttsprompt], pid[5737]
[xmlrpc][INFO] 2015-03-03 16:56:53,074: XML-RPC server binding to 0.0.0.0:0
[xmlrpc][INFO] 2015-03-03 16:56:53,074: Started XML-RPC server [http://hr2:54657/]
[rospy.impl.masterslave][INFO] 2015-03-03 16:56:53,074: _ready: http://hr2:54657/
[rospy.init][INFO] 2015-03-03 16:56:53,074: ROS Slave URI: [http://hr2:54657/]
[xmlrpc][INFO] 2015-03-03 16:56:53,075: xml rpc node: starting XML-RPC server
[rospy.registration][INFO] 2015-03-03 16:56:53,075: Registering with master node http://localhost:11311
[rospy.init][INFO] 2015-03-03 16:56:53,175: registered with master
[rospy.rosout][INFO] 2015-03-03 16:56:53,175: initializing /rosout core topic
[rospy.rosout][INFO] 2015-03-03 16:56:53,177: connected to core topic /rosout
[rospy.simtime][INFO] 2015-03-03 16:56:53,178: /use_sim_time is not set, will not subscribe to simulated time [/clock] topic
[rospy.internal][INFO] 2015-03-03 16:56:53,256: topic[/han/chatbot_responses] adding connection to [/han/tts], count 0
[rospy.internal][INFO] 2015-03-03 16:56:53,257: topic[/han/chatbot_responses] adding connection to [/rosbridge_websocket], count 1
[rospy.internal][INFO] 2015-03-03 16:56:53,412: topic[/rosout] adding connection to [/rosout], count 0
[rospy.client][INFO] 2015-03-03 16:58:36,560: init_node, name[/ttsprompt], pid[6180]
[xmlrpc][INFO] 2015-03-03 16:58:36,560: XML-RPC server binding to 0.0.0.0:0
[xmlrpc][INFO] 2015-03-03 16:58:36,561: Started XML-RPC server [http://hr2:59268/]
[rospy.init][INFO] 2015-03-03 16:58:36,561: ROS Slave URI: [http://hr2:59268/]
[rospy.impl.masterslave][INFO] 2015-03-03 16:58:36,561: _ready: http://hr2:59268/
[xmlrpc][INFO] 2015-03-03 16:58:36,561: xml rpc node: starting XML-RPC server
[rospy.registration][INFO] 2015-03-03 16:58:36,562: Registering with master node http://localhost:11311
[rospy.init][INFO] 2015-03-03 16:58:36,661: registered with master
[rospy.rosout][INFO] 2015-03-03 16:58:36,661: initializing /rosout core topic
[rospy.rosout][INFO] 2015-03-03 16:58:36,664: connected to core topic /rosout
[rospy.impl.masterslave][INFO] 2015-03-03 16:58:36,667: external shutdown request from [/master]: new node registered with same name
[rospy.core][INFO] 2015-03-03 16:58:36,668: signal_shutdown [external shutdown request from [/master]: [new node registered with same name]]
[rospy.simtime][INFO] 2015-03-03 16:58:36,668: /use_sim_time is not set, will not subscribe to simulated time [/clock] topic
[rospy.internal][INFO] 2015-03-03 16:58:36,679: topic[/rosout] removing connection to /rosout
[rospy.internal][INFO] 2015-03-03 16:58:36,680: topic[/han/chatbot_responses] removing connection to /han/tts
[rospy.internal][INFO] 2015-03-03 16:58:36,680: topic[/han/chatbot_responses] removing connection to /rosbridge_websocket
[rospy.internal][INFO] 2015-03-03 16:58:36,776: topic[/han/chatbot_responses] adding connection to [/rosbridge_websocket], count 0
[rospy.internal][INFO] 2015-03-03 16:58:36,791: topic[/han/chatbot_responses] adding connection to [/han/tts], count 1
[rospy.internal][INFO] 2015-03-03 16:58:36,961: topic[/rosout] adding connection to [/rosout], count 0
[rospy.core][INFO] 2015-03-03 17:38:17,525: signal_shutdown [atexit]
[rospy.registration][WARNING] 2015-03-03 17:38:17,527: cannot unregister with master due to network issues
[rospy.internal][INFO] 2015-03-03 17:38:17,528: topic[/rosout] removing connection to /rosout
[rospy.internal][INFO] 2015-03-03 17:38:17,528: topic[/han/chatbot_responses] removing connection to /rosbridge_websocket
[rospy.internal][INFO] 2015-03-03 17:38:17,528: topic[/han/chatbot_responses] removing connection to /han/tts
[rospy.impl.masterslave][INFO] 2015-03-03 17:38:17,529: atexit
[rospy.client][INFO] 2015-03-03 17:38:24,089: init_node, name[/ttsprompt], pid[10493]
[xmlrpc][INFO] 2015-03-03 17:38:24,089: XML-RPC server binding to 0.0.0.0:0
[xmlrpc][INFO] 2015-03-03 17:38:24,090: Started XML-RPC server [http://hr2:40829/]
[rospy.impl.masterslave][INFO] 2015-03-03 17:38:24,090: _ready: http://hr2:40829/
[rospy.init][INFO] 2015-03-03 17:38:24,090: ROS Slave URI: [http://hr2:40829/]
[xmlrpc][INFO] 2015-03-03 17:38:24,090: xml rpc node: starting XML-RPC server
[rospy.registration][INFO] 2015-03-03 17:38:24,091: Registering with master node http://localhost:11311
[rospy.init][INFO] 2015-03-03 17:38:24,191: registered with master
[rospy.rosout][INFO] 2015-03-03 17:38:24,191: initializing /rosout core topic
[rospy.registration][ERROR] 2015-03-03 17:38:24,193: [Errno 111] Connection refused
Unable to register with master node [http://localhost:11311]: master may not be running yet. Will keep trying.
[rospy.client][INFO] 2015-03-03 17:38:29,757: init_node, name[/ttsprompt], pid[10498]
[xmlrpc][INFO] 2015-03-03 17:38:29,758: XML-RPC server binding to 0.0.0.0:0
[xmlrpc][INFO] 2015-03-03 17:38:29,758: Started XML-RPC server [http://hr2:60477/]
[rospy.init][INFO] 2015-03-03 17:38:29,758: ROS Slave URI: [http://hr2:60477/]
[rospy.impl.masterslave][INFO] 2015-03-03 17:38:29,758: _ready: http://hr2:60477/
[xmlrpc][INFO] 2015-03-03 17:38:29,759: xml rpc node: starting XML-RPC server
[rospy.registration][INFO] 2015-03-03 17:38:29,759: Registering with master node http://localhost:11311
[rospy.init][INFO] 2015-03-03 17:38:29,859: registered with master
[rospy.rosout][INFO] 2015-03-03 17:38:29,859: initializing /rosout core topic
[rospy.registration][ERROR] 2015-03-03 17:38:29,862: [Errno 111] Connection refused
Unable to register with master node [http://localhost:11311]: master may not be running yet. Will keep trying.
[rospy.core][INFO] 2015-03-03 17:38:44,487: signal_shutdown [signal-2]
[rospy.registration][WARNING] 2015-03-03 17:38:44,489: cannot unregister with master due to network issues
[rospy.impl.masterslave][INFO] 2015-03-03 17:38:44,489: signal-2
[rospy.rosout][INFO] 2015-03-03 17:38:44,622: connected to core topic /rosout
[rospy.simtime][ERROR] 2015-03-03 17:38:44,625: Unable to initialize /clock: [Errno 111] Connection refused
Traceback (most recent call last):
  File "/opt/ros/indigo/lib/python2.7/dist-packages/rospy/impl/simtime.py", line 79, in init_simtime
    if not _is_use_simtime():
  File "/opt/ros/indigo/lib/python2.7/dist-packages/rospy/impl/simtime.py", line 60, in _is_use_simtime
    code, msg, val = m.getParam(rospy.names.get_caller_id(), _USE_SIMTIME)
  File "/usr/lib/python2.7/xmlrpclib.py", line 1224, in __call__
    return self.__send(self.__name, args)
  File "/usr/lib/python2.7/xmlrpclib.py", line 1578, in __request
    verbose=self.__verbose
  File "/usr/lib/python2.7/xmlrpclib.py", line 1264, in request
    return self.single_request(host, handler, request_body, verbose)
  File "/usr/lib/python2.7/xmlrpclib.py", line 1292, in single_request
    self.send_content(h, request_body)
  File "/usr/lib/python2.7/xmlrpclib.py", line 1439, in send_content
    connection.endheaders(request_body)
  File "/usr/lib/python2.7/httplib.py", line 969, in endheaders
    self._send_output(message_body)
  File "/usr/lib/python2.7/httplib.py", line 829, in _send_output
    self.send(msg)
  File "/usr/lib/python2.7/httplib.py", line 791, in send
    self.connect()
  File "/usr/lib/python2.7/httplib.py", line 772, in connect
    self.timeout, self.source_address)
  File "/usr/lib/python2.7/socket.py", line 571, in create_connection
    raise err
error: [Errno 111] Connection refused

[rospy.core][INFO] 2015-03-03 17:38:44,626: signal_shutdown [atexit]
[rospy.core][INFO] 2015-03-03 17:38:46,502: signal_shutdown [signal-2]
[rospy.registration][WARNING] 2015-03-03 17:38:46,502: cannot unregister with master due to network issues
[rospy.impl.masterslave][INFO] 2015-03-03 17:38:46,503: signal-2
[rospy.rosout][INFO] 2015-03-03 17:38:46,635: connected to core topic /rosout
[rospy.simtime][ERROR] 2015-03-03 17:38:46,638: Unable to initialize /clock: [Errno 111] Connection refused
Traceback (most recent call last):
  File "/opt/ros/indigo/lib/python2.7/dist-packages/rospy/impl/simtime.py", line 79, in init_simtime
    if not _is_use_simtime():
  File "/opt/ros/indigo/lib/python2.7/dist-packages/rospy/impl/simtime.py", line 60, in _is_use_simtime
    code, msg, val = m.getParam(rospy.names.get_caller_id(), _USE_SIMTIME)
  File "/usr/lib/python2.7/xmlrpclib.py", line 1224, in __call__
    return self.__send(self.__name, args)
  File "/usr/lib/python2.7/xmlrpclib.py", line 1578, in __request
    verbose=self.__verbose
  File "/usr/lib/python2.7/xmlrpclib.py", line 1264, in request
    return self.single_request(host, handler, request_body, verbose)
  File "/usr/lib/python2.7/xmlrpclib.py", line 1292, in single_request
    self.send_content(h, request_body)
  File "/usr/lib/python2.7/xmlrpclib.py", line 1439, in send_content
    connection.endheaders(request_body)
  File "/usr/lib/python2.7/httplib.py", line 969, in endheaders
    self._send_output(message_body)
  File "/usr/lib/python2.7/httplib.py", line 829, in _send_output
    self.send(msg)
  File "/usr/lib/python2.7/httplib.py", line 791, in send
    self.connect()
  File "/usr/lib/python2.7/httplib.py", line 772, in connect
    self.timeout, self.source_address)
  File "/usr/lib/python2.7/socket.py", line 571, in create_connection
    raise err
error: [Errno 111] Connection refused

[rospy.core][INFO] 2015-03-03 17:38:46,639: signal_shutdown [atexit]
[rospy.core][INFO] 2015-03-03 19:17:19,306: signal_shutdown [signal-2]
[rospy.core][INFO] 2015-03-03 19:17:20,007: signal_shutdown [atexit]
