[rospy.client][INFO] 2015-02-13 22:09:05,697: init_node, name[/rosbridge_websocket], pid[3392]
[xmlrpc][INFO] 2015-02-13 22:09:05,697: XML-RPC server binding to 0.0.0.0:0
[xmlrpc][INFO] 2015-02-13 22:09:05,698: Started XML-RPC server [http://hr2:54137/]
[rospy.init][INFO] 2015-02-13 22:09:05,698: ROS Slave URI: [http://hr2:54137/]
[rospy.impl.masterslave][INFO] 2015-02-13 22:09:05,698: _ready: http://hr2:54137/
[xmlrpc][INFO] 2015-02-13 22:09:05,698: xml rpc node: starting XML-RPC server
[rospy.registration][INFO] 2015-02-13 22:09:05,698: Registering with master node http://localhost:11311
[rospy.init][INFO] 2015-02-13 22:09:05,798: registered with master
[rospy.rosout][INFO] 2015-02-13 22:09:05,798: initializing /rosout core topic
[rospy.rosout][INFO] 2015-02-13 22:09:05,800: connected to core topic /rosout
[rospy.simtime][INFO] 2015-02-13 22:09:05,801: /use_sim_time is not set, will not subscribe to simulated time [/clock] topic
[rosout][INFO] 2015-02-13 22:09:06,122: Rosbridge WebSocket server started on port 9090
[rospy.internal][INFO] 2015-02-13 22:09:06,195: topic[/rosout] adding connection to [/rosout], count 0
