[0m[ INFO] [1425556898.230322187]: advertising[0m
[33m[ WARN] [1425557110.499491866]: the <topic>_select service is deprecated; use mux/select instead[0m
[0m[ INFO] [1425557110.499518834]: trying to switch mux to lipsync_pau[0m
[0m[ INFO] [1425557110.499542053]: mux selected input: [/han/lipsync_pau][0m
[33m[ WARN] [1425557113.910466711]: the <topic>_select service is deprecated; use mux/select instead[0m
[0m[ INFO] [1425557113.910486240]: trying to switch mux to head_pau[0m
[0m[ INFO] [1425557113.910497891]: mux selected input: [/han/head_pau][0m
[33m[ WARN] [1425557116.840668650]: the <topic>_select service is deprecated; use mux/select instead[0m
[0m[ INFO] [1425557116.840687690]: trying to switch mux to lipsync_pau[0m
[0m[ INFO] [1425557116.840701313]: mux selected input: [/han/lipsync_pau][0m
[33m[ WARN] [1425557118.416332078]: the <topic>_select service is deprecated; use mux/select instead[0m
[0m[ INFO] [1425557118.416362300]: trying to switch mux to head_pau[0m
[0m[ INFO] [1425557118.416380974]: mux selected input: [/han/head_pau][0m
[33m[ WARN] [1425557122.724539182]: the <topic>_select service is deprecated; use mux/select instead[0m
[0m[ INFO] [1425557122.724556954]: trying to switch mux to lipsync_pau[0m
[0m[ INFO] [1425557122.724570069]: mux selected input: [/han/lipsync_pau][0m
[33m[ WARN] [1425557125.788201360]: the <topic>_select service is deprecated; use mux/select instead[0m
[0m[ INFO] [1425557125.788224647]: trying to switch mux to head_pau[0m
[0m[ INFO] [1425557125.788235973]: mux selected input: [/han/head_pau][0m
[33m[ WARN] [1425557132.856420079]: the <topic>_select service is deprecated; use mux/select instead[0m
[0m[ INFO] [1425557132.856446289]: trying to switch mux to lipsync_pau[0m
[0m[ INFO] [1425557132.856467097]: mux selected input: [/han/lipsync_pau][0m
[33m[ WARN] [1425557134.136872977]: the <topic>_select service is deprecated; use mux/select instead[0m
[0m[ INFO] [1425557134.136891889]: trying to switch mux to head_pau[0m
[0m[ INFO] [1425557134.136902386]: mux selected input: [/han/head_pau][0m
[33m[ WARN] [1425557150.130828360]: the <topic>_select service is deprecated; use mux/select instead[0m
[0m[ INFO] [1425557150.130855542]: trying to switch mux to lipsync_pau[0m
[0m[ INFO] [1425557150.130879503]: mux selected input: [/han/lipsync_pau][0m
[33m[ WARN] [1425557157.812973302]: the <topic>_select service is deprecated; use mux/select instead[0m
[0m[ INFO] [1425557157.813000920]: trying to switch mux to head_pau[0m
[0m[ INFO] [1425557157.813019198]: mux selected input: [/han/head_pau][0m
[33m[ WARN] [1425557166.633328725]: the <topic>_select service is deprecated; use mux/select instead[0m
[0m[ INFO] [1425557166.633350704]: trying to switch mux to lipsync_pau[0m
[0m[ INFO] [1425557166.633368276]: mux selected input: [/han/lipsync_pau][0m
[33m[ WARN] [1425557168.589996056]: the <topic>_select service is deprecated; use mux/select instead[0m
[0m[ INFO] [1425557168.590016006]: trying to switch mux to head_pau[0m
[0m[ INFO] [1425557168.590028664]: mux selected input: [/han/head_pau][0m
[33m[ WARN] [1425557182.006157830]: the <topic>_select service is deprecated; use mux/select instead[0m
[0m[ INFO] [1425557182.006192625]: trying to switch mux to lipsync_pau[0m
[0m[ INFO] [1425557182.006217790]: mux selected input: [/han/lipsync_pau][0m
[33m[ WARN] [1425557189.024004725]: the <topic>_select service is deprecated; use mux/select instead[0m
[0m[ INFO] [1425557189.024030571]: trying to switch mux to head_pau[0m
[0m[ INFO] [1425557189.024050146]: mux selected input: [/han/head_pau][0m
[33m[ WARN] [1425557638.857754188]: the <topic>_select service is deprecated; use mux/select instead[0m
[0m[ INFO] [1425557638.857780258]: trying to switch mux to lipsync_pau[0m
[0m[ INFO] [1425557638.857803487]: mux selected input: [/han/lipsync_pau][0m
[33m[ WARN] [1425557641.553735428]: the <topic>_select service is deprecated; use mux/select instead[0m
[0m[ INFO] [1425557641.553761713]: trying to switch mux to head_pau[0m
[0m[ INFO] [1425557641.553804481]: mux selected input: [/han/head_pau][0m
[33m[ WARN] [1425557645.731858105]: the <topic>_select service is deprecated; use mux/select instead[0m
[0m[ INFO] [1425557645.731880040]: trying to switch mux to lipsync_pau[0m
[0m[ INFO] [1425557645.731898891]: mux selected input: [/han/lipsync_pau][0m
[33m[ WARN] [1425557648.286700428]: the <topic>_select service is deprecated; use mux/select instead[0m
[0m[ INFO] [1425557648.286728448]: trying to switch mux to head_pau[0m
[0m[ INFO] [1425557648.286753886]: mux selected input: [/han/head_pau][0m
[33m[ WARN] [1425557652.213782353]: the <topic>_select service is deprecated; use mux/select instead[0m
[0m[ INFO] [1425557652.213801404]: trying to switch mux to lipsync_pau[0m
[0m[ INFO] [1425557652.213814674]: mux selected input: [/han/lipsync_pau][0m
[33m[ WARN] [1425557654.095948855]: the <topic>_select service is deprecated; use mux/select instead[0m
[0m[ INFO] [1425557654.095974079]: trying to switch mux to head_pau[0m
[0m[ INFO] [1425557654.095990650]: mux selected input: [/han/head_pau][0m
[33m[ WARN] [1425557657.079268700]: the <topic>_select service is deprecated; use mux/select instead[0m
[0m[ INFO] [1425557657.079285244]: trying to switch mux to lipsync_pau[0m
[0m[ INFO] [1425557657.079298740]: mux selected input: [/han/lipsync_pau][0m
[33m[ WARN] [1425557660.673181393]: the <topic>_select service is deprecated; use mux/select instead[0m
[0m[ INFO] [1425557660.673198377]: trying to switch mux to head_pau[0m
[0m[ INFO] [1425557660.673209083]: mux selected input: [/han/head_pau][0m
[33m[ WARN] [1425557664.197289596]: the <topic>_select service is deprecated; use mux/select instead[0m
[0m[ INFO] [1425557664.197316491]: trying to switch mux to lipsync_pau[0m
[0m[ INFO] [1425557664.197330656]: mux selected input: [/han/lipsync_pau][0m
[33m[ WARN] [1425557665.426432542]: the <topic>_select service is deprecated; use mux/select instead[0m
[0m[ INFO] [1425557665.426460658]: trying to switch mux to head_pau[0m
[0m[ INFO] [1425557665.426483742]: mux selected input: [/han/head_pau][0m
[33m[ WARN] [1425557668.425198405]: the <topic>_select service is deprecated; use mux/select instead[0m
[0m[ INFO] [1425557668.425217240]: trying to switch mux to lipsync_pau[0m
[0m[ INFO] [1425557668.425234767]: mux selected input: [/han/lipsync_pau][0m
[33m[ WARN] [1425557669.310722265]: the <topic>_select service is deprecated; use mux/select instead[0m
[0m[ INFO] [1425557669.310740452]: trying to switch mux to head_pau[0m
[0m[ INFO] [1425557669.310750778]: mux selected input: [/han/head_pau][0m
