[rospy.client][INFO] 2015-02-25 09:04:34,226: init_node, name[/rosbridge_websocket_ssl], pid[25181]
[xmlrpc][INFO] 2015-02-25 09:04:34,227: XML-RPC server binding to 0.0.0.0:0
[xmlrpc][INFO] 2015-02-25 09:04:34,227: Started XML-RPC server [http://hr2:51716/]
[rospy.impl.masterslave][INFO] 2015-02-25 09:04:34,227: _ready: http://hr2:51716/
[rospy.init][INFO] 2015-02-25 09:04:34,227: ROS Slave URI: [http://hr2:51716/]
[xmlrpc][INFO] 2015-02-25 09:04:34,227: xml rpc node: starting XML-RPC server
[rospy.registration][INFO] 2015-02-25 09:04:34,228: Registering with master node http://localhost:11311
[rospy.init][INFO] 2015-02-25 09:04:34,328: registered with master
[rospy.rosout][INFO] 2015-02-25 09:04:34,328: initializing /rosout core topic
[rospy.rosout][INFO] 2015-02-25 09:04:34,331: connected to core topic /rosout
[rospy.simtime][INFO] 2015-02-25 09:04:34,333: /use_sim_time is not set, will not subscribe to simulated time [/clock] topic
[rosout][INFO] 2015-02-25 09:04:34,348: Rosbridge WebSocket server started on port 9094
[rospy.internal][INFO] 2015-02-25 09:04:34,551: topic[/rosout] adding connection to [/rosout], count 0
