[rospy.client][INFO] 2015-02-26 17:37:46,841: init_node, name[/han/basic_head_api], pid[2060]
[xmlrpc][INFO] 2015-02-26 17:37:46,841: XML-RPC server binding to 0.0.0.0:0
[xmlrpc][INFO] 2015-02-26 17:37:46,842: Started XML-RPC server [http://hr2:36885/]
[rospy.init][INFO] 2015-02-26 17:37:46,842: ROS Slave URI: [http://hr2:36885/]
[rospy.impl.masterslave][INFO] 2015-02-26 17:37:46,842: _ready: http://hr2:36885/
[xmlrpc][INFO] 2015-02-26 17:37:46,842: xml rpc node: starting XML-RPC server
[rospy.registration][INFO] 2015-02-26 17:37:46,843: Registering with master node http://localhost:11311
[rospy.init][INFO] 2015-02-26 17:37:46,942: registered with master
[rospy.rosout][INFO] 2015-02-26 17:37:46,942: initializing /rosout core topic
[rospy.rosout][INFO] 2015-02-26 17:37:46,944: connected to core topic /rosout
[rospy.simtime][INFO] 2015-02-26 17:37:46,945: /use_sim_time is not set, will not subscribe to simulated time [/clock] topic
[rosout][INFO] 2015-02-26 17:37:46,975: Started
[rospy.internal][INFO] 2015-02-26 17:37:47,114: topic[/rosout] adding connection to [/rosout], count 0
[rospy.internal][INFO] 2015-02-26 17:37:47,213: topic[/han/cmd_neck_pau] adding connection to [/han/neck_pau], count 0
[rosout][INFO] 2015-02-26 17:41:56,301: Valid face expressions request.
[rospy.internal][INFO] 2015-02-26 17:41:56,356: topic[/han/point_head] adding connection to [http://hr2:43819/], count 0
[rospy.internal][INFO] 2015-02-26 17:41:56,357: topic[/han/make_face_expr] adding connection to [http://hr2:43819/], count 0
[rosout][INFO] 2015-02-26 17:41:56,360: Point head (yaw: 0.0, pitch: 0.0, roll: 0.0)
[rosout][INFO] 2015-02-26 17:41:56,360: Face request: 0.0 of Neutral
[rosout][INFO] 2015-02-26 17:41:56,361: Pub id: right
[rosout][INFO] 2015-02-26 17:41:56,361: Pub id: left
[rosout][INFO] 2015-02-26 17:41:56,361: Pub id: left
[rosout][INFO] 2015-02-26 17:41:56,362: Pub id: right
[rosout][INFO] 2015-02-26 17:41:56,362: Pub id: right
[rosout][INFO] 2015-02-26 17:41:56,362: Pub id: left
[rosout][INFO] 2015-02-26 17:41:56,362: Pub id: right
[rosout][INFO] 2015-02-26 17:41:56,362: Pub id: left
[rosout][INFO] 2015-02-26 17:41:56,362: Pub id: left
[rosout][INFO] 2015-02-26 17:41:56,363: Pub id: middle
[rosout][INFO] 2015-02-26 17:41:56,363: Pub id: left
[rosout][INFO] 2015-02-26 17:41:56,363: Pub id: left
[rosout][INFO] 2015-02-26 17:41:56,363: Pub id: right
[rosout][INFO] 2015-02-26 17:41:56,364: Pub id: right
[rosout][INFO] 2015-02-26 17:41:56,364: Pub id: left
[rosout][INFO] 2015-02-26 17:41:56,364: Pub id: middle
[rosout][INFO] 2015-02-26 17:41:56,364: Pub id: left
[rosout][INFO] 2015-02-26 17:41:56,364: Pub id: middle
[rosout][INFO] 2015-02-26 17:41:56,365: Pub id: left
[rosout][INFO] 2015-02-26 17:41:56,365: Pub id: right
[rosout][INFO] 2015-02-26 17:41:56,365: Pub id: right
[rosout][INFO] 2015-02-26 17:41:56,365: Pub id: left
[rosout][INFO] 2015-02-26 17:41:56,366: Pub id: right
[rosout][INFO] 2015-02-26 17:41:56,366: Pub id: middle
[rosout][INFO] 2015-02-26 17:41:56,366: Pub id: left
[rosout][INFO] 2015-02-26 17:41:56,366: Pub id: right
[rosout][INFO] 2015-02-26 17:41:56,366: Pub id: left
[rosout][INFO] 2015-02-26 17:41:56,367: Pub id: right
[rosout][INFO] 2015-02-26 17:41:56,367: Pub id: right
[rosout][INFO] 2015-02-26 17:41:56,367: Pub id: right
[rosout][INFO] 2015-02-26 17:41:59,524: Face request: 0.0 of Neutral
[rosout][INFO] 2015-02-26 17:41:59,525: Pub id: right
[rosout][INFO] 2015-02-26 17:41:59,525: Pub id: left
[rosout][INFO] 2015-02-26 17:41:59,525: Pub id: left
[rosout][INFO] 2015-02-26 17:41:59,525: Pub id: right
[rosout][INFO] 2015-02-26 17:41:59,526: Pub id: right
[rosout][INFO] 2015-02-26 17:41:59,526: Pub id: left
[rosout][INFO] 2015-02-26 17:41:59,526: Pub id: right
[rosout][INFO] 2015-02-26 17:41:59,526: Pub id: left
[rosout][INFO] 2015-02-26 17:41:59,526: Pub id: left
[rosout][INFO] 2015-02-26 17:41:59,527: Pub id: middle
[rosout][INFO] 2015-02-26 17:41:59,527: Pub id: left
[rosout][INFO] 2015-02-26 17:41:59,527: Pub id: left
[rosout][INFO] 2015-02-26 17:41:59,527: Pub id: right
[rosout][INFO] 2015-02-26 17:41:59,527: Pub id: right
[rosout][INFO] 2015-02-26 17:41:59,528: Pub id: left
[rosout][INFO] 2015-02-26 17:41:59,528: Pub id: middle
[rosout][INFO] 2015-02-26 17:41:59,528: Pub id: left
[rosout][INFO] 2015-02-26 17:41:59,528: Pub id: middle
[rosout][INFO] 2015-02-26 17:41:59,528: Pub id: left
[rosout][INFO] 2015-02-26 17:41:59,529: Pub id: right
[rosout][INFO] 2015-02-26 17:41:59,529: Pub id: right
[rosout][INFO] 2015-02-26 17:41:59,529: Pub id: left
[rosout][INFO] 2015-02-26 17:41:59,529: Pub id: right
[rosout][INFO] 2015-02-26 17:41:59,529: Pub id: middle
[rosout][INFO] 2015-02-26 17:41:59,530: Pub id: left
[rosout][INFO] 2015-02-26 17:41:59,530: Pub id: right
[rosout][INFO] 2015-02-26 17:41:59,530: Pub id: left
[rosout][INFO] 2015-02-26 17:41:59,530: Pub id: right
[rosout][INFO] 2015-02-26 17:41:59,530: Pub id: right
[rosout][INFO] 2015-02-26 17:41:59,531: Pub id: right
[rosout][INFO] 2015-02-26 17:42:40,559: Face request: 0.0 of Neutral
[rosout][INFO] 2015-02-26 17:42:40,559: Pub id: right
[rosout][INFO] 2015-02-26 17:42:40,559: Pub id: left
[rosout][INFO] 2015-02-26 17:42:40,559: Pub id: left
[rosout][INFO] 2015-02-26 17:42:40,560: Pub id: right
[rosout][INFO] 2015-02-26 17:42:40,560: Pub id: right
[rosout][INFO] 2015-02-26 17:42:40,560: Pub id: left
[rosout][INFO] 2015-02-26 17:42:40,560: Pub id: right
[rosout][INFO] 2015-02-26 17:42:40,560: Pub id: left
[rosout][INFO] 2015-02-26 17:42:40,561: Pub id: left
[rosout][INFO] 2015-02-26 17:42:40,561: Pub id: middle
[rosout][INFO] 2015-02-26 17:42:40,561: Pub id: left
[rosout][INFO] 2015-02-26 17:42:40,561: Pub id: left
[rosout][INFO] 2015-02-26 17:42:40,561: Pub id: right
[rosout][INFO] 2015-02-26 17:42:40,561: Pub id: right
[rosout][INFO] 2015-02-26 17:42:40,562: Pub id: left
[rosout][INFO] 2015-02-26 17:42:40,562: Pub id: middle
[rosout][INFO] 2015-02-26 17:42:40,562: Pub id: left
[rosout][INFO] 2015-02-26 17:42:40,562: Pub id: middle
[rosout][INFO] 2015-02-26 17:42:40,562: Pub id: left
[rosout][INFO] 2015-02-26 17:42:40,562: Pub id: right
[rosout][INFO] 2015-02-26 17:42:40,562: Pub id: right
[rosout][INFO] 2015-02-26 17:42:40,563: Pub id: left
[rosout][INFO] 2015-02-26 17:42:40,563: Pub id: right
[rosout][INFO] 2015-02-26 17:42:40,563: Pub id: middle
[rosout][INFO] 2015-02-26 17:42:40,563: Pub id: left
[rosout][INFO] 2015-02-26 17:42:40,563: Pub id: right
[rosout][INFO] 2015-02-26 17:42:40,563: Pub id: left
[rosout][INFO] 2015-02-26 17:42:40,563: Pub id: right
[rosout][INFO] 2015-02-26 17:42:40,564: Pub id: right
[rosout][INFO] 2015-02-26 17:42:40,564: Pub id: right
[rosout][INFO] 2015-02-26 17:42:42,524: Face request: 0.0 of Neutral
[rosout][INFO] 2015-02-26 17:42:42,524: Pub id: right
[rosout][INFO] 2015-02-26 17:42:42,524: Pub id: left
[rosout][INFO] 2015-02-26 17:42:42,524: Pub id: left
[rosout][INFO] 2015-02-26 17:42:42,525: Pub id: right
[rosout][INFO] 2015-02-26 17:42:42,525: Pub id: right
[rosout][INFO] 2015-02-26 17:42:42,525: Pub id: left
[rosout][INFO] 2015-02-26 17:42:42,525: Pub id: right
[rosout][INFO] 2015-02-26 17:42:42,525: Pub id: left
[rosout][INFO] 2015-02-26 17:42:42,525: Pub id: left
[rosout][INFO] 2015-02-26 17:42:42,525: Pub id: middle
[rosout][INFO] 2015-02-26 17:42:42,525: Pub id: left
[rosout][INFO] 2015-02-26 17:42:42,526: Pub id: left
[rosout][INFO] 2015-02-26 17:42:42,526: Pub id: right
[rosout][INFO] 2015-02-26 17:42:42,526: Pub id: right
[rosout][INFO] 2015-02-26 17:42:42,526: Pub id: left
[rosout][INFO] 2015-02-26 17:42:42,526: Pub id: middle
[rosout][INFO] 2015-02-26 17:42:42,526: Pub id: left
[rosout][INFO] 2015-02-26 17:42:42,526: Pub id: middle
[rosout][INFO] 2015-02-26 17:42:42,526: Pub id: left
[rosout][INFO] 2015-02-26 17:42:42,527: Pub id: right
[rosout][INFO] 2015-02-26 17:42:42,527: Pub id: right
[rosout][INFO] 2015-02-26 17:42:42,527: Pub id: left
[rosout][INFO] 2015-02-26 17:42:42,527: Pub id: right
[rosout][INFO] 2015-02-26 17:42:42,527: Pub id: middle
[rosout][INFO] 2015-02-26 17:42:42,527: Point head (yaw: 0.0, pitch: 0.0, roll: 0.0)
[rosout][INFO] 2015-02-26 17:42:42,528: Pub id: left
[rosout][INFO] 2015-02-26 17:42:42,528: Pub id: right
[rosout][INFO] 2015-02-26 17:42:42,528: Pub id: left
[rosout][INFO] 2015-02-26 17:42:42,528: Pub id: right
[rosout][INFO] 2015-02-26 17:42:42,528: Pub id: right
[rosout][INFO] 2015-02-26 17:42:42,529: Pub id: right
[rospy.internal][WARNING] 2015-02-27 11:51:04,145: Unknown error initiating TCP/IP socket to hr2:45024 (http://hr2:43819/): Traceback (most recent call last):
  File "/opt/ros/indigo/lib/python2.7/dist-packages/rospy/impl/tcpros_base.py", line 555, in connect
    self.socket.connect((dest_addr, dest_port))
  File "/usr/lib/python2.7/socket.py", line 224, in meth
    return getattr(self._sock,name)(*args)
error: [Errno 111] Connection refused

[rospy.internal][INFO] 2015-02-27 11:51:04,145: topic[/han/point_head] removing connection to http://hr2:43819/
[rospy.internal][WARNING] 2015-02-27 11:51:04,146: Unknown error initiating TCP/IP socket to hr2:45024 (http://hr2:43819/): Traceback (most recent call last):
  File "/opt/ros/indigo/lib/python2.7/dist-packages/rospy/impl/tcpros_base.py", line 555, in connect
    self.socket.connect((dest_addr, dest_port))
  File "/usr/lib/python2.7/socket.py", line 224, in meth
    return getattr(self._sock,name)(*args)
error: [Errno 111] Connection refused

[rospy.internal][INFO] 2015-02-27 11:51:04,146: topic[/han/make_face_expr] removing connection to http://hr2:43819/
[rospy.core][INFO] 2015-02-27 11:51:04,345: signal_shutdown [signal-2]
[rospy.registration][WARNING] 2015-02-27 11:51:04,402: cannot unregister with master due to network issues
[rospy.internal][INFO] 2015-02-27 11:51:04,402: topic[/rosout] removing connection to /rosout
[rospy.internal][INFO] 2015-02-27 11:51:04,402: topic[/han/cmd_neck_pau] removing connection to /han/neck_pau
[rospy.impl.masterslave][INFO] 2015-02-27 11:51:04,403: signal-2
[rospy.core][INFO] 2015-02-27 11:51:05,022: signal_shutdown [atexit]
