[rospy.client][INFO] 2015-03-03 19:43:45,505: init_node, name[/rosbridge_websocket], pid[4077]
[xmlrpc][INFO] 2015-03-03 19:43:45,505: XML-RPC server binding to 0.0.0.0:0
[xmlrpc][INFO] 2015-03-03 19:43:45,505: Started XML-RPC server [http://hr2:55799/]
[rospy.init][INFO] 2015-03-03 19:43:45,505: ROS Slave URI: [http://hr2:55799/]
[rospy.impl.masterslave][INFO] 2015-03-03 19:43:45,506: _ready: http://hr2:55799/
[xmlrpc][INFO] 2015-03-03 19:43:45,506: xml rpc node: starting XML-RPC server
[rospy.registration][INFO] 2015-03-03 19:43:45,506: Registering with master node http://localhost:11311
[rospy.init][INFO] 2015-03-03 19:43:45,606: registered with master
[rospy.rosout][INFO] 2015-03-03 19:43:45,606: initializing /rosout core topic
[rospy.rosout][INFO] 2015-03-03 19:43:45,608: connected to core topic /rosout
[rospy.simtime][INFO] 2015-03-03 19:43:45,609: /use_sim_time is not set, will not subscribe to simulated time [/clock] topic
[rosout][INFO] 2015-03-03 19:43:45,985: Rosbridge WebSocket server started on port 9090
[rospy.internal][INFO] 2015-03-03 19:43:46,077: topic[/rosout] adding connection to [/rosout], count 0
