[rospy.client][INFO] 2015-02-11 04:07:04,953: init_node, name[/eye_face_tracker], pid[20169]
[xmlrpc][INFO] 2015-02-11 04:07:04,953: XML-RPC server binding to 0.0.0.0:0
[xmlrpc][INFO] 2015-02-11 04:07:04,953: Started XML-RPC server [http://hr2:38372/]
[rospy.init][INFO] 2015-02-11 04:07:04,953: ROS Slave URI: [http://hr2:38372/]
[rospy.impl.masterslave][INFO] 2015-02-11 04:07:04,953: _ready: http://hr2:38372/
[xmlrpc][INFO] 2015-02-11 04:07:04,954: xml rpc node: starting XML-RPC server
[rospy.registration][INFO] 2015-02-11 04:07:04,954: Registering with master node http://localhost:11311
[rospy.init][INFO] 2015-02-11 04:07:05,054: registered with master
[rospy.rosout][INFO] 2015-02-11 04:07:05,054: initializing /rosout core topic
[rospy.rosout][INFO] 2015-02-11 04:07:05,057: connected to core topic /rosout
[rospy.simtime][INFO] 2015-02-11 04:07:05,058: /use_sim_time is not set, will not subscribe to simulated time [/clock] topic
[rosout][INFO] 2015-02-11 04:07:05,098: Starting pi_face_tracker
[rospy.internal][INFO] 2015-02-11 04:07:05,182: topic[/eye_camera/face_locations] adding connection to [/faces_broadcaster], count 0
[rospy.internal][INFO] 2015-02-11 04:07:05,270: topic[/rosout] adding connection to [/rosout], count 0
[rospy.core][INFO] 2015-02-11 04:11:49,555: signal_shutdown [signal-2]
[rospy.internal][INFO] 2015-02-11 04:11:49,572: topic[/eye_camera/face_locations] removing connection to /faces_broadcaster
[rospy.internal][INFO] 2015-02-11 04:11:49,573: topic[/rosout] removing connection to /rosout
[rospy.impl.masterslave][INFO] 2015-02-11 04:11:49,573: signal-2
[rospy.core][INFO] 2015-02-11 04:11:50,188: signal_shutdown [atexit]
