[rospy.client][INFO] 2015-02-11 04:07:04,268: init_node, name[/rosbridge_websocket_ssl], pid[20038]
[xmlrpc][INFO] 2015-02-11 04:07:04,271: XML-RPC server binding to 0.0.0.0:0
[xmlrpc][INFO] 2015-02-11 04:07:04,272: Started XML-RPC server [http://hr2:39280/]
[rospy.init][INFO] 2015-02-11 04:07:04,272: ROS Slave URI: [http://hr2:39280/]
[rospy.impl.masterslave][INFO] 2015-02-11 04:07:04,273: _ready: http://hr2:39280/
[xmlrpc][INFO] 2015-02-11 04:07:04,274: xml rpc node: starting XML-RPC server
[rospy.registration][INFO] 2015-02-11 04:07:04,276: Registering with master node http://localhost:11311
[rospy.init][INFO] 2015-02-11 04:07:04,374: registered with master
[rospy.rosout][INFO] 2015-02-11 04:07:04,374: initializing /rosout core topic
[rospy.rosout][INFO] 2015-02-11 04:07:04,416: connected to core topic /rosout
[rospy.simtime][INFO] 2015-02-11 04:07:04,456: /use_sim_time is not set, will not subscribe to simulated time [/clock] topic
[rospy.internal][INFO] 2015-02-11 04:07:04,570: topic[/rosout] adding connection to [/rosout], count 0
[rosout][INFO] 2015-02-11 04:07:04,620: Rosbridge WebSocket server started on port 9094
