[rospy.client][INFO] 2015-02-06 08:15:56,250: init_node, name[/state_publisher], pid[10935]
[xmlrpc][INFO] 2015-02-06 08:15:56,250: XML-RPC server binding to 0.0.0.0:0
[xmlrpc][INFO] 2015-02-06 08:15:56,251: Started XML-RPC server [http://hr2:50576/]
[rospy.impl.masterslave][INFO] 2015-02-06 08:15:56,251: _ready: http://hr2:50576/
[rospy.init][INFO] 2015-02-06 08:15:56,251: ROS Slave URI: [http://hr2:50576/]
[xmlrpc][INFO] 2015-02-06 08:15:56,251: xml rpc node: starting XML-RPC server
[rospy.registration][INFO] 2015-02-06 08:15:56,252: Registering with master node http://localhost:11311
[rospy.init][INFO] 2015-02-06 08:15:56,352: registered with master
[rospy.rosout][INFO] 2015-02-06 08:15:56,352: initializing /rosout core topic
[rospy.rosout][INFO] 2015-02-06 08:15:56,355: connected to core topic /rosout
[rospy.simtime][INFO] 2015-02-06 08:15:56,356: /use_sim_time is not set, will not subscribe to simulated time [/clock] topic
[rospy.internal][INFO] 2015-02-06 08:15:56,467: topic[/rosout] adding connection to [/rosout], count 0
[rospy.internal][INFO] 2015-02-06 08:15:56,510: topic[/joint_states_combined] adding connection to [/joint_state_publisher], count 0
[rospy.core][INFO] 2015-02-06 08:18:10,376: signal_shutdown [signal-2]
[rospy.internal][INFO] 2015-02-06 08:18:10,383: topic[/joint_states_combined] removing connection to /joint_state_publisher
[rospy.internal][INFO] 2015-02-06 08:18:10,384: topic[/rosout] removing connection to /rosout
[rospy.impl.masterslave][INFO] 2015-02-06 08:18:10,384: signal-2
[rospy.core][INFO] 2015-02-06 08:18:10,518: signal_shutdown [atexit]
