[0m[ INFO] [1425548555.342990177]: Starting 'head_camera' (/dev/v4l/by-id/usb-KYE_Systems_Corp._USB_Camera_200901010001-video-index0) at 640x480 via mmap (yuyv) at 30 FPS[0m
[33m[ WARN] [1425548555.757196642]: unknown control 'focus_auto'
[0m
