[rospy.client][INFO] 2015-03-04 16:05:20,364: init_node, name[/rosbridge_websocket_ssl], pid[28391]
[xmlrpc][INFO] 2015-03-04 16:05:20,365: XML-RPC server binding to 0.0.0.0:0
[xmlrpc][INFO] 2015-03-04 16:05:20,365: Started XML-RPC server [http://hr2:52830/]
[rospy.init][INFO] 2015-03-04 16:05:20,365: ROS Slave URI: [http://hr2:52830/]
[rospy.impl.masterslave][INFO] 2015-03-04 16:05:20,366: _ready: http://hr2:52830/
[rospy.registration][INFO] 2015-03-04 16:05:20,367: Registering with master node http://localhost:11311
[xmlrpc][INFO] 2015-03-04 16:05:20,367: xml rpc node: starting XML-RPC server
[rospy.init][INFO] 2015-03-04 16:05:20,466: registered with master
[rospy.rosout][INFO] 2015-03-04 16:05:20,466: initializing /rosout core topic
[rospy.rosout][INFO] 2015-03-04 16:05:20,468: connected to core topic /rosout
[rospy.simtime][INFO] 2015-03-04 16:05:20,469: /use_sim_time is not set, will not subscribe to simulated time [/clock] topic
[rosout][INFO] 2015-03-04 16:05:20,479: Rosbridge WebSocket server started on port 9094
[rospy.internal][INFO] 2015-03-04 16:05:20,741: topic[/rosout] adding connection to [/rosout], count 0
[rosout][INFO] 2015-03-04 16:07:26,639: Client connected.  1 clients total.
[rospy.internal][INFO] 2015-03-04 16:07:27,613: topic[/behavior_switch] adding connection to [/Eva_Behavior], count 0
[rosout][INFO] 2015-03-04 16:07:27,730: [Client 0] Subscribed to /blender_api/available_gestures
[rosout][INFO] 2015-03-04 16:07:27,740: [Client 0] Subscribed to /blender_api/available_emotion_states
[rosout][INFO] 2015-03-04 16:07:27,750: [Client 0] Subscribed to /han/chatbot_responses
[rospy.internal][INFO] 2015-03-04 16:07:27,756: topic[/han/make_face_expr] adding connection to [/han/basic_head_api], count 0
[rospy.internal][INFO] 2015-03-04 16:07:27,762: topic[/blender_api/available_emotion_states] adding connection to [http://hr2:45843/], count 0
[rospy.internal][INFO] 2015-03-04 16:07:27,763: topic[/blender_api/available_gestures] adding connection to [http://hr2:45843/], count 0
[rospy.internal][INFO] 2015-03-04 16:07:27,765: topic[/han/chatbot_responses] adding connection to [http://hr2:33677/], count 0
[rospy.internal][INFO] 2015-03-04 16:07:28,628: topic[/han/base_right_controller/command] adding connection to [/han/dynamixel_manager], count 0
[rospy.internal][INFO] 2015-03-04 16:07:28,628: topic[/han/base_controller/command] adding connection to [/han/dynamixel_manager], count 0
[rospy.internal][INFO] 2015-03-04 16:07:28,749: topic[/han/neck_right_controller/command] adding connection to [/han/dynamixel_manager], count 0
[rospy.internal][INFO] 2015-03-04 16:07:28,750: topic[/han/neck_left_controller/command] adding connection to [/han/dynamixel_manager], count 0
[rospy.internal][INFO] 2015-03-04 16:07:28,751: topic[/han/base_left_controller/command] adding connection to [/han/dynamixel_manager], count 0
[rospy.internal][INFO] 2015-03-04 16:07:28,917: topic[/han/right/command] adding connection to [/han/right_pololu_node], count 0
[rospy.internal][INFO] 2015-03-04 16:07:29,013: topic[/han/left/command] adding connection to [/han/left_pololu_node], count 0
[rospy.internal][INFO] 2015-03-04 16:07:29,015: topic[/han/middle/command] adding connection to [/han/middle_pololu_node], count 0
[rospy.internal][INFO] 2015-03-04 16:07:31,736: topic[/han/chatbot_speech] adding connection to [/han/chatbot_ai], count 0
[rospy.internal][INFO] 2015-03-04 16:09:09,396: topic[/han/point_head] adding connection to [/han/basic_head_api], count 0
[rospy.internal][INFO] 2015-03-04 16:35:04,978: topic[/blender_api/set_emotion_state] adding connection to [/blender_api], count 0
[rospy.internal][INFO] 2015-03-04 16:35:05,176: topic[/blender_api/set_gesture] adding connection to [/blender_api], count 0
[rospy.internal][INFO] 2015-03-04 17:00:12,758: topic impl's ref count is zero, deleting topic /han/left/command...
[rospy.internal][INFO] 2015-03-04 17:00:12,758: topic[/han/left/command] removing connection to /han/left_pololu_node
[rospy.internal][INFO] 2015-03-04 17:00:12,765: topic impl's ref count is zero, deleting topic /han/neck_right_controller/command...
[rospy.internal][INFO] 2015-03-04 17:00:12,766: topic[/han/neck_right_controller/command] removing connection to /han/dynamixel_manager
[rospy.internal][INFO] 2015-03-04 17:00:12,770: topic impl's ref count is zero, deleting topic /han/base_right_controller/command...
[rospy.internal][INFO] 2015-03-04 17:00:12,770: topic[/han/base_right_controller/command] removing connection to /han/dynamixel_manager
[rospy.internal][INFO] 2015-03-04 17:00:12,772: topic impl's ref count is zero, deleting topic /han/point_head...
[rospy.internal][INFO] 2015-03-04 17:00:12,772: topic[/han/point_head] removing connection to /han/basic_head_api
[rospy.internal][INFO] 2015-03-04 17:00:12,786: topic impl's ref count is zero, deleting topic /han/base_controller/command...
[rospy.internal][INFO] 2015-03-04 17:00:12,786: topic[/han/base_controller/command] removing connection to /han/dynamixel_manager
[rospy.internal][INFO] 2015-03-04 17:00:12,793: topic impl's ref count is zero, deleting topic /han/chatbot_speech...
[rospy.internal][INFO] 2015-03-04 17:00:12,795: topic[/han/chatbot_speech] removing connection to /han/chatbot_ai
[rospy.internal][WARNING] 2015-03-04 17:00:12,793: Unknown error initiating TCP/IP socket to hr2:60441 (http://hr2:45843/): Traceback (most recent call last):
  File "/opt/ros/indigo/lib/python2.7/dist-packages/rospy/impl/tcpros_base.py", line 555, in connect
    self.socket.connect((dest_addr, dest_port))
  File "/usr/lib/python2.7/socket.py", line 224, in meth
    return getattr(self._sock,name)(*args)
error: [Errno 111] Connection refused

[rospy.internal][INFO] 2015-03-04 17:00:12,795: topic[/blender_api/available_emotion_states] removing connection to http://hr2:45843/
[rospy.internal][WARNING] 2015-03-04 17:00:12,793: Unknown error initiating TCP/IP socket to hr2:60441 (http://hr2:45843/): Traceback (most recent call last):
  File "/opt/ros/indigo/lib/python2.7/dist-packages/rospy/impl/tcpros_base.py", line 555, in connect
    self.socket.connect((dest_addr, dest_port))
  File "/usr/lib/python2.7/socket.py", line 224, in meth
    return getattr(self._sock,name)(*args)
error: [Errno 111] Connection refused

[rospy.internal][INFO] 2015-03-04 17:00:12,795: topic[/blender_api/available_gestures] removing connection to http://hr2:45843/
[rospy.internal][INFO] 2015-03-04 17:00:12,796: topic impl's ref count is zero, deleting topic /blender_api/set_emotion_state...
[rospy.internal][INFO] 2015-03-04 17:00:12,797: topic[/blender_api/set_emotion_state] removing connection to /blender_api
[rospy.internal][INFO] 2015-03-04 17:00:12,798: topic impl's ref count is zero, deleting topic /han/base_left_controller/command...
[rospy.internal][INFO] 2015-03-04 17:00:12,799: topic[/han/base_left_controller/command] removing connection to /han/dynamixel_manager
[rospy.internal][INFO] 2015-03-04 17:00:12,800: topic impl's ref count is zero, deleting topic /blender_api/set_gesture...
[rospy.internal][INFO] 2015-03-04 17:00:12,800: topic[/blender_api/set_gesture] removing connection to /blender_api
[rospy.internal][INFO] 2015-03-04 17:00:12,808: topic impl's ref count is zero, deleting topic /han/make_face_expr...
[rospy.internal][INFO] 2015-03-04 17:00:12,809: topic[/han/make_face_expr] removing connection to /han/basic_head_api
[rospy.internal][INFO] 2015-03-04 17:00:12,827: topic impl's ref count is zero, deleting topic /behavior_switch...
[rospy.internal][INFO] 2015-03-04 17:00:12,827: topic[/behavior_switch] removing connection to /Eva_Behavior
[rospy.internal][INFO] 2015-03-04 17:00:12,835: topic impl's ref count is zero, deleting topic /han/neck_left_controller/command...
[rospy.internal][INFO] 2015-03-04 17:00:12,835: topic[/han/neck_left_controller/command] removing connection to /han/dynamixel_manager
