[rospy.client][INFO] 2015-03-06 10:50:19,642: init_node, name[/rosapi], pid[14168]
[xmlrpc][INFO] 2015-03-06 10:50:19,643: XML-RPC server binding to 0.0.0.0:0
[xmlrpc][INFO] 2015-03-06 10:50:19,643: Started XML-RPC server [http://hr2:52318/]
[rospy.init][INFO] 2015-03-06 10:50:19,643: ROS Slave URI: [http://hr2:52318/]
[rospy.impl.masterslave][INFO] 2015-03-06 10:50:19,643: _ready: http://hr2:52318/
[xmlrpc][INFO] 2015-03-06 10:50:19,644: xml rpc node: starting XML-RPC server
[rospy.registration][INFO] 2015-03-06 10:50:19,644: Registering with master node http://localhost:11311
[rospy.init][INFO] 2015-03-06 10:50:19,743: registered with master
[rospy.rosout][INFO] 2015-03-06 10:50:19,744: initializing /rosout core topic
[rospy.rosout][INFO] 2015-03-06 10:50:19,746: connected to core topic /rosout
[rospy.simtime][INFO] 2015-03-06 10:50:19,747: /use_sim_time is not set, will not subscribe to simulated time [/clock] topic
[rosout][INFO] 2015-03-06 10:50:19,777: Rosapi started
[rospy.internal][INFO] 2015-03-06 10:50:19,871: topic[/rosout] adding connection to [/rosout], count 0
[rospy.core][INFO] 2015-03-06 10:50:44,360: signal_shutdown [signal-2]
[rospy.internal][INFO] 2015-03-06 10:50:44,377: topic[/rosout] removing connection to /rosout
[rospy.impl.masterslave][INFO] 2015-03-06 10:50:44,378: signal-2
[rospy.core][INFO] 2015-03-06 10:50:44,993: signal_shutdown [atexit]
