[rospy.client][INFO] 2015-02-07 14:36:15,661: init_node, name[/fritz/dynamixel_manager], pid[13235]
[xmlrpc][INFO] 2015-02-07 14:36:15,661: XML-RPC server binding to 0.0.0.0:0
[xmlrpc][INFO] 2015-02-07 14:36:15,662: Started XML-RPC server [http://hr2:55948/]
[rospy.init][INFO] 2015-02-07 14:36:15,662: ROS Slave URI: [http://hr2:55948/]
[rospy.impl.masterslave][INFO] 2015-02-07 14:36:15,662: _ready: http://hr2:55948/
[xmlrpc][INFO] 2015-02-07 14:36:15,662: xml rpc node: starting XML-RPC server
[rospy.registration][INFO] 2015-02-07 14:36:15,662: Registering with master node http://localhost:11311
[rospy.init][INFO] 2015-02-07 14:36:15,762: registered with master
[rospy.rosout][INFO] 2015-02-07 14:36:15,762: initializing /rosout core topic
[rospy.rosout][INFO] 2015-02-07 14:36:15,764: connected to core topic /rosout
[rospy.simtime][INFO] 2015-02-07 14:36:15,765: /use_sim_time is not set, will not subscribe to simulated time [/clock] topic
[rospy.core][INFO] 2015-02-07 14:36:15,803: signal_shutdown [atexit]
[rospy.impl.masterslave][INFO] 2015-02-07 14:36:15,807: atexit
