[roslaunch][INFO] 2015-02-08 03:30:24,674: Checking log directory for disk usage. This may take awhile.
Press Ctrl-C to interrupt
[roslaunch][ERROR] 2015-02-08 03:30:24,685: WARNING: disk usage in log directory [/home/hr/.ros/log] is over 1GB.
It's recommended that you use the 'rosclean' command.
[roslaunch][INFO] 2015-02-08 03:30:24,686: roslaunch starting with args ['/opt/ros/indigo/bin/roslaunch', 'perception', 'tracker.launch']
[roslaunch][INFO] 2015-02-08 03:30:24,687: roslaunch env is {'INSTANCE': '', 'MANDATORY_PATH': '/usr/share/gconf/ubuntu.mandatory.path', 'ROS_DISTRO': 'indigo', 'ROS_LOG_FILENAME': '/home/hr/.ros/log/688b8d36-af3a-11e4-aeef-dc85debf707f/roslaunch-hr2-7055.log', 'XDG_GREETER_DATA_DIR': '/var/lib/lightdm-data/hr', 'GNOME_DESKTOP_SESSION_ID': 'this-is-deprecated', 'GTK_IM_MODULE': 'ibus', 'XDG_CURRENT_DESKTOP': 'Unity', 'PKG_CONFIG_PATH': '/catkin_ws/devel/lib/pkgconfig:/catkin_ws/devel/lib/x86_64-linux-gnu/pkgconfig:/opt/ros/indigo/lib/x86_64-linux-gnu/pkgconfig:/opt/ros/indigo/lib/pkgconfig', 'ROSLISP_PACKAGE_DIRECTORIES': '/catkin_ws/devel/share/common-lisp', 'CPATH': '/catkin_ws/devel/include:/opt/ros/indigo/include', 'LOGNAME': 'hr', 'USER': 'hr', 'PATH': '/catkin_ws/devel/bin:/opt/ros/indigo/bin:/usr/local/sbin:/usr/local/bin:/usr/sbin:/usr/bin:/sbin:/bin:/usr/games:/usr/local/games', 'XDG_VTNR': '7', 'GNOME_KEYRING_CONTROL': '/run/user/1000/keyring-SsYocn', 'CMAKE_PREFIX_PATH': '/catkin_ws/devel:/opt/ros/indigo', 'LD_LIBRARY_PATH': '/catkin_ws/devel/lib:/catkin_ws/devel/lib/x86_64-linux-gnu:/opt/ros/indigo/lib/x86_64-linux-gnu:/opt/ros/indigo/lib', 'SSH_AGENT_PID': '1742', 'LANG': 'en_HK.UTF-8', 'TERM': 'screen', 'SHELL': '/bin/bash', 'XDG_SESSION_PATH': '/org/freedesktop/DisplayManager/Session0', 'XAUTHORITY': '/home/hr/.Xauthority', 'LANGUAGE': 'en_HK:en', 'SESSION_MANAGER': 'local/hr2:@/tmp/.ICE-unix/1815,unix/hr2:/tmp/.ICE-unix/1815', 'SHLVL': '2', 'ROS_TEST_RESULTS_DIR': '/catkin_ws/build/test_results', 'QT_QPA_PLATFORMTHEME': 'appmenu-qt5', 'JOB': 'dbus', 'TEXTDOMAIN': 'im-config', 'QT4_IM_MODULE': 'xim', 'CLUTTER_IM_MODULE': 'xim', 'WINDOWID': '85983244', 'SESSIONTYPE': 'gnome-session', 'XMODIFIERS': '@im=ibus', 'ROS_ETC_DIR': '/opt/ros/indigo/etc/ros', 'GPG_AGENT_INFO': '/run/user/1000/keyring-SsYocn/gpg:0:1', 'HOME': '/home/hr', 'SELINUX_INIT': 'YES', 'XDG_RUNTIME_DIR': '/run/user/1000', 'CATKIN_TEST_RESULTS_DIR': '/catkin_ws/build/test_results', 'PYTHONPATH': '/catkin_ws/devel/lib/python2.7/dist-packages:/opt/ros/indigo/lib/python2.7/dist-packages', 'COMPIZ_CONFIG_PROFILE': 'ubuntu', 'SSH_AUTH_SOCK': '/run/user/1000/keyring-SsYocn/ssh', 'VTE_VERSION': '3409', 'TMUX': '/tmp/tmux-1000/default,6270,0', 'ROS_ROOT': '/opt/ros/indigo/share/ros', 'GDMSESSION': 'ubuntu', 'IM_CONFIG_PHASE': '1', 'TEXTDOMAINDIR': '/usr/share/locale/', 'XDG_SEAT_PATH': '/org/freedesktop/DisplayManager/Seat0', 'ROS_PACKAGE_PATH': '/catkin_ws/src:/opt/ros/indigo/share:/opt/ros/indigo/stacks', 'XDG_SESSION_ID': 'c1', 'DBUS_SESSION_BUS_ADDRESS': 'unix:abstract=/tmp/dbus-7hjPNrPx2y', '_': '/opt/ros/indigo/bin/roslaunch', 'DEFAULTS_PATH': '/usr/share/gconf/ubuntu.default.path', 'SESSION': 'ubuntu', 'DESKTOP_SESSION': 'ubuntu', 'UPSTART_SESSION': 'unix:abstract=/com/ubuntu/upstart-session/1000/1675', 'XDG_CONFIG_DIRS': '/etc/xdg/xdg-ubuntu:/usr/share/upstart/xdg:/etc/xdg', 'GTK_MODULES': 'overlay-scrollbar:unity-gtk-module', 'UBUNTU_MENUPROXY': '1', 'GDM_LANG': 'en_US', 'XDG_DATA_DIRS': '/usr/share/ubuntu:/usr/share/gnome:/usr/local/share/:/usr/share/', 'PWD': '/home/hr', 'QT_IM_MODULE': 'ibus', 'ROS_MASTER_URI': 'http://localhost:11311', 'SSH_AGENT_LAUNCHER': 'upstart', 'COLORTERM': 'gnome-terminal', 'DISPLAY': ':0.0', 'XDG_MENU_PREFIX': 'gnome-', 'TMUX_PANE': '%7', 'XDG_SEAT': 'seat0'}
[roslaunch][INFO] 2015-02-08 03:30:24,687: starting in server mode
[roslaunch.parent][INFO] 2015-02-08 03:30:24,688: starting roslaunch parent run
[roslaunch][INFO] 2015-02-08 03:30:24,688: loading roscore config file /opt/ros/indigo/etc/ros/roscore.xml
[roslaunch][INFO] 2015-02-08 03:30:24,960: Added core node of type [rosout/rosout] in namespace [/]
[roslaunch.config][INFO] 2015-02-08 03:30:24,960: loading config file /catkin_ws/src/perception/launch/tracker.launch
[roslaunch][INFO] 2015-02-08 03:30:24,961: Added node of type [usb_cam/usb_cam_node] in namespace [/]
[roslaunch][INFO] 2015-02-08 03:30:24,962: Added node of type [usb_cam/usb_cam_node] in namespace [/]
[roslaunch][INFO] 2015-02-08 03:30:25,052: Added node of type [pi_face_tracker/face_tracker.py] in namespace [/]
[roslaunch][INFO] 2015-02-08 03:30:25,090: Added node of type [pi_face_tracker/face_tracker.py] in namespace [/]
[roslaunch][INFO] 2015-02-08 03:30:25,090: ... selected machine [] for node of type [usb_cam/usb_cam_node]
[roslaunch][INFO] 2015-02-08 03:30:25,090: ... selected machine [] for node of type [usb_cam/usb_cam_node]
[roslaunch][INFO] 2015-02-08 03:30:25,090: ... selected machine [] for node of type [pi_face_tracker/face_tracker.py]
[roslaunch][INFO] 2015-02-08 03:30:25,090: ... selected machine [] for node of type [pi_face_tracker/face_tracker.py]
[roslaunch.pmon][INFO] 2015-02-08 03:30:25,091: start_process_monitor: creating ProcessMonitor
[roslaunch.pmon][INFO] 2015-02-08 03:30:25,091: created process monitor <ProcessMonitor(ProcessMonitor-1, initial daemon)>
[roslaunch.pmon][INFO] 2015-02-08 03:30:25,092: start_process_monitor: ProcessMonitor started
[roslaunch.parent][INFO] 2015-02-08 03:30:25,092: starting parent XML-RPC server
[roslaunch.server][INFO] 2015-02-08 03:30:25,092: starting roslaunch XML-RPC server
[roslaunch.server][INFO] 2015-02-08 03:30:25,092: waiting for roslaunch XML-RPC server to initialize
[xmlrpc][INFO] 2015-02-08 03:30:25,092: XML-RPC server binding to 0.0.0.0:0
[xmlrpc][INFO] 2015-02-08 03:30:25,092: Started XML-RPC server [http://hr2:56837/]
[xmlrpc][INFO] 2015-02-08 03:30:25,093: xml rpc node: starting XML-RPC server
[roslaunch][INFO] 2015-02-08 03:30:25,108: started roslaunch server http://hr2:56837/
[roslaunch.parent][INFO] 2015-02-08 03:30:25,108: ... parent XML-RPC server started
[roslaunch][INFO] 2015-02-08 03:30:25,109: master.is_running[http://localhost:11311]
[roslaunch][INFO] 2015-02-08 03:30:25,110: master.is_running[http://localhost:11311]
[roslaunch][INFO] 2015-02-08 03:30:25,114: ROS_MASTER_URI=http://localhost:11311
[roslaunch][INFO] 2015-02-08 03:30:25,116: setting /roslaunch/uris/host_hr2__56837' to http://hr2:56837/
[roslaunch][INFO] 2015-02-08 03:30:25,118: load_parameters starting ...
[roslaunch][INFO] 2015-02-08 03:30:25,143: ... load_parameters complete
[roslaunch][INFO] 2015-02-08 03:30:25,143: launch_nodes: launching local nodes ...
[roslaunch][INFO] 2015-02-08 03:30:25,143: ... preparing to launch node of type [usb_cam/usb_cam_node]
[roslaunch][INFO] 2015-02-08 03:30:25,144: create_node_process: package[usb_cam] type[usb_cam_node] machine[Machine(name[] env_loader[None] address[localhost] ssh_port[22] user[None] assignable[True] timeout[10.0])] master_uri[http://localhost:11311]
[roslaunch][INFO] 2015-02-08 03:30:25,144: process[camera-1]: env[{'WINDOWID': '85983244', 'QT_QPA_PLATFORMTHEME': 'appmenu-qt5', 'ROS_DISTRO': 'indigo', 'XDG_GREETER_DATA_DIR': '/var/lib/lightdm-data/hr', 'GNOME_DESKTOP_SESSION_ID': 'this-is-deprecated', 'XDG_CURRENT_DESKTOP': 'Unity', 'XDG_SEAT_PATH': '/org/freedesktop/DisplayManager/Seat0', 'ROSLISP_PACKAGE_DIRECTORIES': '/catkin_ws/devel/share/common-lisp', 'CPATH': '/catkin_ws/devel/include:/opt/ros/indigo/include', 'LOGNAME': 'hr', 'USER': 'hr', 'PATH': '/catkin_ws/devel/bin:/opt/ros/indigo/bin:/usr/local/sbin:/usr/local/bin:/usr/sbin:/usr/bin:/sbin:/bin:/usr/games:/usr/local/games', 'XDG_VTNR': '7', 'GNOME_KEYRING_CONTROL': '/run/user/1000/keyring-SsYocn', 'CMAKE_PREFIX_PATH': '/catkin_ws/devel:/opt/ros/indigo', 'LD_LIBRARY_PATH': '/catkin_ws/devel/lib:/catkin_ws/devel/lib/x86_64-linux-gnu:/opt/ros/indigo/lib/x86_64-linux-gnu:/opt/ros/indigo/lib', 'SSH_AGENT_PID': '1742', 'LANG': 'en_HK.UTF-8', 'TERM': 'screen', 'SHELL': '/bin/bash', 'XDG_SESSION_PATH': '/org/freedesktop/DisplayManager/Session0', 'XAUTHORITY': '/home/hr/.Xauthority', 'LANGUAGE': 'en_HK:en', 'SESSION_MANAGER': 'local/hr2:@/tmp/.ICE-unix/1815,unix/hr2:/tmp/.ICE-unix/1815', 'SHLVL': '2', 'XDG_SESSION_ID': 'c1', 'MANDATORY_PATH': '/usr/share/gconf/ubuntu.mandatory.path', 'CLUTTER_IM_MODULE': 'xim', 'ROS_LOG_FILENAME': '/home/hr/.ros/log/688b8d36-af3a-11e4-aeef-dc85debf707f/roslaunch-hr2-7055.log', 'QT4_IM_MODULE': 'xim', 'JOB': 'dbus', 'TEXTDOMAIN': 'im-config', 'SESSIONTYPE': 'gnome-session', 'XMODIFIERS': '@im=ibus', 'ROS_MASTER_URI': 'http://localhost:11311', 'GPG_AGENT_INFO': '/run/user/1000/keyring-SsYocn/gpg:0:1', 'HOME': '/home/hr', 'SELINUX_INIT': 'YES', 'XDG_RUNTIME_DIR': '/run/user/1000', 'CATKIN_TEST_RESULTS_DIR': '/catkin_ws/build/test_results', 'PYTHONPATH': '/catkin_ws/devel/lib/python2.7/dist-packages:/opt/ros/indigo/lib/python2.7/dist-packages', 'COMPIZ_CONFIG_PROFILE': 'ubuntu', 'SSH_AUTH_SOCK': '/run/user/1000/keyring-SsYocn/ssh', 'SESSION': 'ubuntu', 'VTE_VERSION': '3409', 'TMUX': '/tmp/tmux-1000/default,6270,0', 'ROS_ROOT': '/opt/ros/indigo/share/ros', 'GDMSESSION': 'ubuntu', 'IM_CONFIG_PHASE': '1', 'TEXTDOMAINDIR': '/usr/share/locale/', 'XDG_DATA_DIRS': '/usr/share/ubuntu:/usr/share/gnome:/usr/local/share/:/usr/share/', 'PKG_CONFIG_PATH': '/catkin_ws/devel/lib/pkgconfig:/catkin_ws/devel/lib/x86_64-linux-gnu/pkgconfig:/opt/ros/indigo/lib/x86_64-linux-gnu/pkgconfig:/opt/ros/indigo/lib/pkgconfig', 'ROS_PACKAGE_PATH': '/catkin_ws/src:/opt/ros/indigo/share:/opt/ros/indigo/stacks', 'ROS_TEST_RESULTS_DIR': '/catkin_ws/build/test_results', 'DBUS_SESSION_BUS_ADDRESS': 'unix:abstract=/tmp/dbus-7hjPNrPx2y', '_': '/opt/ros/indigo/bin/roslaunch', 'GTK_MODULES': 'overlay-scrollbar:unity-gtk-module', 'GTK_IM_MODULE': 'ibus', 'DESKTOP_SESSION': 'ubuntu', 'UPSTART_SESSION': 'unix:abstract=/com/ubuntu/upstart-session/1000/1675', 'XDG_CONFIG_DIRS': '/etc/xdg/xdg-ubuntu:/usr/share/upstart/xdg:/etc/xdg', 'DEFAULTS_PATH': '/usr/share/gconf/ubuntu.default.path', 'UBUNTU_MENUPROXY': '1', 'GDM_LANG': 'en_US', 'INSTANCE': '', 'PWD': '/home/hr', 'QT_IM_MODULE': 'ibus', 'ROS_ETC_DIR': '/opt/ros/indigo/etc/ros', 'SSH_AGENT_LAUNCHER': 'upstart', 'COLORTERM': 'gnome-terminal', 'DISPLAY': ':0.0', 'XDG_MENU_PREFIX': 'gnome-', 'TMUX_PANE': '%7', 'XDG_SEAT': 'seat0'}]
[roslaunch][INFO] 2015-02-08 03:30:25,187: process[camera-1]: args[[u'/opt/ros/indigo/lib/usb_cam/usb_cam_node', u'__name:=camera']]
[roslaunch][INFO] 2015-02-08 03:30:25,187: ... created process [camera-1]
[roslaunch.pmon][INFO] 2015-02-08 03:30:25,187: ProcessMonitor.register[camera-1]
[roslaunch.pmon][INFO] 2015-02-08 03:30:25,187: ProcessMonitor.register[camera-1] complete
[roslaunch][INFO] 2015-02-08 03:30:25,187: ... registered process [camera-1]
[roslaunch][INFO] 2015-02-08 03:30:25,187: process[camera-1]: starting os process
[roslaunch][INFO] 2015-02-08 03:30:25,188: process[camera-1]: start w/ args [[u'/opt/ros/indigo/lib/usb_cam/usb_cam_node', u'__name:=camera', u'__log:=/home/hr/.ros/log/688b8d36-af3a-11e4-aeef-dc85debf707f/camera-1.log']]
[roslaunch][INFO] 2015-02-08 03:30:25,188: process[camera-1]: cwd will be [/home/hr/.ros]
[roslaunch][INFO] 2015-02-08 03:30:25,191: process[camera-1]: started with pid [7266]
[roslaunch][INFO] 2015-02-08 03:30:25,192: ... successfully launched [camera-1]
[roslaunch][INFO] 2015-02-08 03:30:25,192: ... preparing to launch node of type [usb_cam/usb_cam_node]
[roslaunch][INFO] 2015-02-08 03:30:25,192: create_node_process: package[usb_cam] type[usb_cam_node] machine[Machine(name[] env_loader[None] address[localhost] ssh_port[22] user[None] assignable[True] timeout[10.0])] master_uri[http://localhost:11311]
[roslaunch][INFO] 2015-02-08 03:30:25,192: process[eye_camera-2]: env[{'WINDOWID': '85983244', 'QT_QPA_PLATFORMTHEME': 'appmenu-qt5', 'ROS_DISTRO': 'indigo', 'XDG_GREETER_DATA_DIR': '/var/lib/lightdm-data/hr', 'GNOME_DESKTOP_SESSION_ID': 'this-is-deprecated', 'XDG_CURRENT_DESKTOP': 'Unity', 'XDG_SEAT_PATH': '/org/freedesktop/DisplayManager/Seat0', 'ROSLISP_PACKAGE_DIRECTORIES': '/catkin_ws/devel/share/common-lisp', 'CPATH': '/catkin_ws/devel/include:/opt/ros/indigo/include', 'LOGNAME': 'hr', 'USER': 'hr', 'PATH': '/catkin_ws/devel/bin:/opt/ros/indigo/bin:/usr/local/sbin:/usr/local/bin:/usr/sbin:/usr/bin:/sbin:/bin:/usr/games:/usr/local/games', 'XDG_VTNR': '7', 'GNOME_KEYRING_CONTROL': '/run/user/1000/keyring-SsYocn', 'CMAKE_PREFIX_PATH': '/catkin_ws/devel:/opt/ros/indigo', 'LD_LIBRARY_PATH': '/catkin_ws/devel/lib:/catkin_ws/devel/lib/x86_64-linux-gnu:/opt/ros/indigo/lib/x86_64-linux-gnu:/opt/ros/indigo/lib', 'SSH_AGENT_PID': '1742', 'LANG': 'en_HK.UTF-8', 'TERM': 'screen', 'SHELL': '/bin/bash', 'XDG_SESSION_PATH': '/org/freedesktop/DisplayManager/Session0', 'XAUTHORITY': '/home/hr/.Xauthority', 'LANGUAGE': 'en_HK:en', 'SESSION_MANAGER': 'local/hr2:@/tmp/.ICE-unix/1815,unix/hr2:/tmp/.ICE-unix/1815', 'SHLVL': '2', 'XDG_SESSION_ID': 'c1', 'MANDATORY_PATH': '/usr/share/gconf/ubuntu.mandatory.path', 'CLUTTER_IM_MODULE': 'xim', 'ROS_LOG_FILENAME': '/home/hr/.ros/log/688b8d36-af3a-11e4-aeef-dc85debf707f/roslaunch-hr2-7055.log', 'QT4_IM_MODULE': 'xim', 'JOB': 'dbus', 'TEXTDOMAIN': 'im-config', 'SESSIONTYPE': 'gnome-session', 'XMODIFIERS': '@im=ibus', 'ROS_MASTER_URI': 'http://localhost:11311', 'GPG_AGENT_INFO': '/run/user/1000/keyring-SsYocn/gpg:0:1', 'HOME': '/home/hr', 'SELINUX_INIT': 'YES', 'XDG_RUNTIME_DIR': '/run/user/1000', 'CATKIN_TEST_RESULTS_DIR': '/catkin_ws/build/test_results', 'PYTHONPATH': '/catkin_ws/devel/lib/python2.7/dist-packages:/opt/ros/indigo/lib/python2.7/dist-packages', 'COMPIZ_CONFIG_PROFILE': 'ubuntu', 'SSH_AUTH_SOCK': '/run/user/1000/keyring-SsYocn/ssh', 'SESSION': 'ubuntu', 'VTE_VERSION': '3409', 'TMUX': '/tmp/tmux-1000/default,6270,0', 'ROS_ROOT': '/opt/ros/indigo/share/ros', 'GDMSESSION': 'ubuntu', 'IM_CONFIG_PHASE': '1', 'TEXTDOMAINDIR': '/usr/share/locale/', 'XDG_DATA_DIRS': '/usr/share/ubuntu:/usr/share/gnome:/usr/local/share/:/usr/share/', 'PKG_CONFIG_PATH': '/catkin_ws/devel/lib/pkgconfig:/catkin_ws/devel/lib/x86_64-linux-gnu/pkgconfig:/opt/ros/indigo/lib/x86_64-linux-gnu/pkgconfig:/opt/ros/indigo/lib/pkgconfig', 'ROS_PACKAGE_PATH': '/catkin_ws/src:/opt/ros/indigo/share:/opt/ros/indigo/stacks', 'ROS_TEST_RESULTS_DIR': '/catkin_ws/build/test_results', 'DBUS_SESSION_BUS_ADDRESS': 'unix:abstract=/tmp/dbus-7hjPNrPx2y', '_': '/opt/ros/indigo/bin/roslaunch', 'GTK_MODULES': 'overlay-scrollbar:unity-gtk-module', 'GTK_IM_MODULE': 'ibus', 'DESKTOP_SESSION': 'ubuntu', 'UPSTART_SESSION': 'unix:abstract=/com/ubuntu/upstart-session/1000/1675', 'XDG_CONFIG_DIRS': '/etc/xdg/xdg-ubuntu:/usr/share/upstart/xdg:/etc/xdg', 'DEFAULTS_PATH': '/usr/share/gconf/ubuntu.default.path', 'UBUNTU_MENUPROXY': '1', 'GDM_LANG': 'en_US', 'INSTANCE': '', 'PWD': '/home/hr', 'QT_IM_MODULE': 'ibus', 'ROS_ETC_DIR': '/opt/ros/indigo/etc/ros', 'SSH_AGENT_LAUNCHER': 'upstart', 'COLORTERM': 'gnome-terminal', 'DISPLAY': ':0.0', 'XDG_MENU_PREFIX': 'gnome-', 'TMUX_PANE': '%7', 'XDG_SEAT': 'seat0'}]
[roslaunch][INFO] 2015-02-08 03:30:25,259: process[eye_camera-2]: args[[u'/opt/ros/indigo/lib/usb_cam/usb_cam_node', u'__name:=eye_camera']]
[roslaunch][INFO] 2015-02-08 03:30:25,259: ... created process [eye_camera-2]
[roslaunch.pmon][INFO] 2015-02-08 03:30:25,259: ProcessMonitor.register[eye_camera-2]
[roslaunch.pmon][INFO] 2015-02-08 03:30:25,259: ProcessMonitor.register[eye_camera-2] complete
[roslaunch][INFO] 2015-02-08 03:30:25,259: ... registered process [eye_camera-2]
[roslaunch][INFO] 2015-02-08 03:30:25,259: process[eye_camera-2]: starting os process
[roslaunch][INFO] 2015-02-08 03:30:25,259: process[eye_camera-2]: start w/ args [[u'/opt/ros/indigo/lib/usb_cam/usb_cam_node', u'__name:=eye_camera', u'__log:=/home/hr/.ros/log/688b8d36-af3a-11e4-aeef-dc85debf707f/eye_camera-2.log']]
[roslaunch][INFO] 2015-02-08 03:30:25,259: process[eye_camera-2]: cwd will be [/home/hr/.ros]
[roslaunch][INFO] 2015-02-08 03:30:25,281: process[eye_camera-2]: started with pid [7292]
[roslaunch][INFO] 2015-02-08 03:30:25,281: ... successfully launched [eye_camera-2]
[roslaunch][INFO] 2015-02-08 03:30:25,282: ... preparing to launch node of type [pi_face_tracker/face_tracker.py]
[roslaunch][INFO] 2015-02-08 03:30:25,282: create_node_process: package[pi_face_tracker] type[face_tracker.py] machine[Machine(name[] env_loader[None] address[localhost] ssh_port[22] user[None] assignable[True] timeout[10.0])] master_uri[http://localhost:11311]
[roslaunch][INFO] 2015-02-08 03:30:25,282: process[body_face_tracker-3]: env[{'WINDOWID': '85983244', 'QT_QPA_PLATFORMTHEME': 'appmenu-qt5', 'ROS_DISTRO': 'indigo', 'XDG_GREETER_DATA_DIR': '/var/lib/lightdm-data/hr', 'GNOME_DESKTOP_SESSION_ID': 'this-is-deprecated', 'XDG_CURRENT_DESKTOP': 'Unity', 'XDG_SEAT_PATH': '/org/freedesktop/DisplayManager/Seat0', 'ROSLISP_PACKAGE_DIRECTORIES': '/catkin_ws/devel/share/common-lisp', 'CPATH': '/catkin_ws/devel/include:/opt/ros/indigo/include', 'LOGNAME': 'hr', 'USER': 'hr', 'PATH': '/catkin_ws/devel/bin:/opt/ros/indigo/bin:/usr/local/sbin:/usr/local/bin:/usr/sbin:/usr/bin:/sbin:/bin:/usr/games:/usr/local/games', 'XDG_VTNR': '7', 'GNOME_KEYRING_CONTROL': '/run/user/1000/keyring-SsYocn', 'CMAKE_PREFIX_PATH': '/catkin_ws/devel:/opt/ros/indigo', 'LD_LIBRARY_PATH': '/catkin_ws/devel/lib:/catkin_ws/devel/lib/x86_64-linux-gnu:/opt/ros/indigo/lib/x86_64-linux-gnu:/opt/ros/indigo/lib', 'SSH_AGENT_PID': '1742', 'LANG': 'en_HK.UTF-8', 'TERM': 'screen', 'SHELL': '/bin/bash', 'XDG_SESSION_PATH': '/org/freedesktop/DisplayManager/Session0', 'XAUTHORITY': '/home/hr/.Xauthority', 'LANGUAGE': 'en_HK:en', 'SESSION_MANAGER': 'local/hr2:@/tmp/.ICE-unix/1815,unix/hr2:/tmp/.ICE-unix/1815', 'SHLVL': '2', 'XDG_SESSION_ID': 'c1', 'MANDATORY_PATH': '/usr/share/gconf/ubuntu.mandatory.path', 'CLUTTER_IM_MODULE': 'xim', 'ROS_LOG_FILENAME': '/home/hr/.ros/log/688b8d36-af3a-11e4-aeef-dc85debf707f/roslaunch-hr2-7055.log', 'QT4_IM_MODULE': 'xim', 'JOB': 'dbus', 'TEXTDOMAIN': 'im-config', 'SESSIONTYPE': 'gnome-session', 'XMODIFIERS': '@im=ibus', 'ROS_MASTER_URI': 'http://localhost:11311', 'GPG_AGENT_INFO': '/run/user/1000/keyring-SsYocn/gpg:0:1', 'HOME': '/home/hr', 'SELINUX_INIT': 'YES', 'XDG_RUNTIME_DIR': '/run/user/1000', 'CATKIN_TEST_RESULTS_DIR': '/catkin_ws/build/test_results', 'PYTHONPATH': '/catkin_ws/devel/lib/python2.7/dist-packages:/opt/ros/indigo/lib/python2.7/dist-packages', 'COMPIZ_CONFIG_PROFILE': 'ubuntu', 'SSH_AUTH_SOCK': '/run/user/1000/keyring-SsYocn/ssh', 'SESSION': 'ubuntu', 'VTE_VERSION': '3409', 'TMUX': '/tmp/tmux-1000/default,6270,0', 'ROS_ROOT': '/opt/ros/indigo/share/ros', 'GDMSESSION': 'ubuntu', 'IM_CONFIG_PHASE': '1', 'TEXTDOMAINDIR': '/usr/share/locale/', 'XDG_DATA_DIRS': '/usr/share/ubuntu:/usr/share/gnome:/usr/local/share/:/usr/share/', 'PKG_CONFIG_PATH': '/catkin_ws/devel/lib/pkgconfig:/catkin_ws/devel/lib/x86_64-linux-gnu/pkgconfig:/opt/ros/indigo/lib/x86_64-linux-gnu/pkgconfig:/opt/ros/indigo/lib/pkgconfig', 'ROS_PACKAGE_PATH': '/catkin_ws/src:/opt/ros/indigo/share:/opt/ros/indigo/stacks', 'ROS_TEST_RESULTS_DIR': '/catkin_ws/build/test_results', 'DBUS_SESSION_BUS_ADDRESS': 'unix:abstract=/tmp/dbus-7hjPNrPx2y', '_': '/opt/ros/indigo/bin/roslaunch', 'GTK_MODULES': 'overlay-scrollbar:unity-gtk-module', 'GTK_IM_MODULE': 'ibus', 'DESKTOP_SESSION': 'ubuntu', 'UPSTART_SESSION': 'unix:abstract=/com/ubuntu/upstart-session/1000/1675', 'XDG_CONFIG_DIRS': '/etc/xdg/xdg-ubuntu:/usr/share/upstart/xdg:/etc/xdg', 'DEFAULTS_PATH': '/usr/share/gconf/ubuntu.default.path', 'UBUNTU_MENUPROXY': '1', 'GDM_LANG': 'en_US', 'INSTANCE': '', 'PWD': '/home/hr', 'QT_IM_MODULE': 'ibus', 'ROS_ETC_DIR': '/opt/ros/indigo/etc/ros', 'SSH_AGENT_LAUNCHER': 'upstart', 'COLORTERM': 'gnome-terminal', 'DISPLAY': ':0.0', 'XDG_MENU_PREFIX': 'gnome-', 'TMUX_PANE': '%7', 'XDG_SEAT': 'seat0'}]
[roslaunch][INFO] 2015-02-08 03:30:25,350: process[body_face_tracker-3]: args[[u'/catkin_ws/src/pi_vision/pi_face_tracker/nodes/face_tracker.py', u'input_rgb_image:=camera/image_raw', u'output_image:=camera/pi_face_tracker/image', u'__name:=body_face_tracker']]
[roslaunch][INFO] 2015-02-08 03:30:25,350: ... created process [body_face_tracker-3]
[roslaunch.pmon][INFO] 2015-02-08 03:30:25,350: ProcessMonitor.register[body_face_tracker-3]
[roslaunch.pmon][INFO] 2015-02-08 03:30:25,350: ProcessMonitor.register[body_face_tracker-3] complete
[roslaunch][INFO] 2015-02-08 03:30:25,350: ... registered process [body_face_tracker-3]
[roslaunch][INFO] 2015-02-08 03:30:25,350: process[body_face_tracker-3]: starting os process
[roslaunch][INFO] 2015-02-08 03:30:25,350: process[body_face_tracker-3]: start w/ args [[u'/catkin_ws/src/pi_vision/pi_face_tracker/nodes/face_tracker.py', u'input_rgb_image:=camera/image_raw', u'output_image:=camera/pi_face_tracker/image', u'__name:=body_face_tracker', u'__log:=/home/hr/.ros/log/688b8d36-af3a-11e4-aeef-dc85debf707f/body_face_tracker-3.log']]
[roslaunch][INFO] 2015-02-08 03:30:25,350: process[body_face_tracker-3]: cwd will be [/home/hr/.ros]
[roslaunch][INFO] 2015-02-08 03:30:25,353: process[body_face_tracker-3]: started with pid [7326]
[roslaunch][INFO] 2015-02-08 03:30:25,354: ... successfully launched [body_face_tracker-3]
[roslaunch][INFO] 2015-02-08 03:30:25,354: ... preparing to launch node of type [pi_face_tracker/face_tracker.py]
[roslaunch][INFO] 2015-02-08 03:30:25,354: create_node_process: package[pi_face_tracker] type[face_tracker.py] machine[Machine(name[] env_loader[None] address[localhost] ssh_port[22] user[None] assignable[True] timeout[10.0])] master_uri[http://localhost:11311]
[roslaunch][INFO] 2015-02-08 03:30:25,354: process[eye_face_tracker-4]: env[{'WINDOWID': '85983244', 'QT_QPA_PLATFORMTHEME': 'appmenu-qt5', 'ROS_DISTRO': 'indigo', 'XDG_GREETER_DATA_DIR': '/var/lib/lightdm-data/hr', 'GNOME_DESKTOP_SESSION_ID': 'this-is-deprecated', 'XDG_CURRENT_DESKTOP': 'Unity', 'XDG_SEAT_PATH': '/org/freedesktop/DisplayManager/Seat0', 'ROSLISP_PACKAGE_DIRECTORIES': '/catkin_ws/devel/share/common-lisp', 'CPATH': '/catkin_ws/devel/include:/opt/ros/indigo/include', 'LOGNAME': 'hr', 'USER': 'hr', 'PATH': '/catkin_ws/devel/bin:/opt/ros/indigo/bin:/usr/local/sbin:/usr/local/bin:/usr/sbin:/usr/bin:/sbin:/bin:/usr/games:/usr/local/games', 'XDG_VTNR': '7', 'GNOME_KEYRING_CONTROL': '/run/user/1000/keyring-SsYocn', 'CMAKE_PREFIX_PATH': '/catkin_ws/devel:/opt/ros/indigo', 'LD_LIBRARY_PATH': '/catkin_ws/devel/lib:/catkin_ws/devel/lib/x86_64-linux-gnu:/opt/ros/indigo/lib/x86_64-linux-gnu:/opt/ros/indigo/lib', 'SSH_AGENT_PID': '1742', 'LANG': 'en_HK.UTF-8', 'TERM': 'screen', 'SHELL': '/bin/bash', 'XDG_SESSION_PATH': '/org/freedesktop/DisplayManager/Session0', 'XAUTHORITY': '/home/hr/.Xauthority', 'LANGUAGE': 'en_HK:en', 'SESSION_MANAGER': 'local/hr2:@/tmp/.ICE-unix/1815,unix/hr2:/tmp/.ICE-unix/1815', 'SHLVL': '2', 'XDG_SESSION_ID': 'c1', 'MANDATORY_PATH': '/usr/share/gconf/ubuntu.mandatory.path', 'CLUTTER_IM_MODULE': 'xim', 'ROS_LOG_FILENAME': '/home/hr/.ros/log/688b8d36-af3a-11e4-aeef-dc85debf707f/roslaunch-hr2-7055.log', 'QT4_IM_MODULE': 'xim', 'JOB': 'dbus', 'TEXTDOMAIN': 'im-config', 'SESSIONTYPE': 'gnome-session', 'XMODIFIERS': '@im=ibus', 'ROS_MASTER_URI': 'http://localhost:11311', 'GPG_AGENT_INFO': '/run/user/1000/keyring-SsYocn/gpg:0:1', 'HOME': '/home/hr', 'SELINUX_INIT': 'YES', 'XDG_RUNTIME_DIR': '/run/user/1000', 'CATKIN_TEST_RESULTS_DIR': '/catkin_ws/build/test_results', 'PYTHONPATH': '/catkin_ws/devel/lib/python2.7/dist-packages:/opt/ros/indigo/lib/python2.7/dist-packages', 'COMPIZ_CONFIG_PROFILE': 'ubuntu', 'SSH_AUTH_SOCK': '/run/user/1000/keyring-SsYocn/ssh', 'SESSION': 'ubuntu', 'VTE_VERSION': '3409', 'TMUX': '/tmp/tmux-1000/default,6270,0', 'ROS_ROOT': '/opt/ros/indigo/share/ros', 'GDMSESSION': 'ubuntu', 'IM_CONFIG_PHASE': '1', 'TEXTDOMAINDIR': '/usr/share/locale/', 'XDG_DATA_DIRS': '/usr/share/ubuntu:/usr/share/gnome:/usr/local/share/:/usr/share/', 'PKG_CONFIG_PATH': '/catkin_ws/devel/lib/pkgconfig:/catkin_ws/devel/lib/x86_64-linux-gnu/pkgconfig:/opt/ros/indigo/lib/x86_64-linux-gnu/pkgconfig:/opt/ros/indigo/lib/pkgconfig', 'ROS_PACKAGE_PATH': '/catkin_ws/src:/opt/ros/indigo/share:/opt/ros/indigo/stacks', 'ROS_TEST_RESULTS_DIR': '/catkin_ws/build/test_results', 'DBUS_SESSION_BUS_ADDRESS': 'unix:abstract=/tmp/dbus-7hjPNrPx2y', '_': '/opt/ros/indigo/bin/roslaunch', 'GTK_MODULES': 'overlay-scrollbar:unity-gtk-module', 'GTK_IM_MODULE': 'ibus', 'DESKTOP_SESSION': 'ubuntu', 'UPSTART_SESSION': 'unix:abstract=/com/ubuntu/upstart-session/1000/1675', 'XDG_CONFIG_DIRS': '/etc/xdg/xdg-ubuntu:/usr/share/upstart/xdg:/etc/xdg', 'DEFAULTS_PATH': '/usr/share/gconf/ubuntu.default.path', 'UBUNTU_MENUPROXY': '1', 'GDM_LANG': 'en_US', 'INSTANCE': '', 'PWD': '/home/hr', 'QT_IM_MODULE': 'ibus', 'ROS_ETC_DIR': '/opt/ros/indigo/etc/ros', 'SSH_AGENT_LAUNCHER': 'upstart', 'COLORTERM': 'gnome-terminal', 'DISPLAY': ':0.0', 'XDG_MENU_PREFIX': 'gnome-', 'TMUX_PANE': '%7', 'XDG_SEAT': 'seat0'}]
[roslaunch][INFO] 2015-02-08 03:30:25,426: process[eye_face_tracker-4]: args[[u'/catkin_ws/src/pi_vision/pi_face_tracker/nodes/face_tracker.py', u'input_rgb_image:=eye_camera/image_raw', u'output_image:=eye_camera/pi_face_tracker/image', u'__name:=eye_face_tracker']]
[roslaunch][INFO] 2015-02-08 03:30:25,426: ... created process [eye_face_tracker-4]
[roslaunch.pmon][INFO] 2015-02-08 03:30:25,427: ProcessMonitor.register[eye_face_tracker-4]
[roslaunch.pmon][INFO] 2015-02-08 03:30:25,427: ProcessMonitor.register[eye_face_tracker-4] complete
[roslaunch][INFO] 2015-02-08 03:30:25,427: ... registered process [eye_face_tracker-4]
[roslaunch][INFO] 2015-02-08 03:30:25,427: process[eye_face_tracker-4]: starting os process
[roslaunch][INFO] 2015-02-08 03:30:25,427: process[eye_face_tracker-4]: start w/ args [[u'/catkin_ws/src/pi_vision/pi_face_tracker/nodes/face_tracker.py', u'input_rgb_image:=eye_camera/image_raw', u'output_image:=eye_camera/pi_face_tracker/image', u'__name:=eye_face_tracker', u'__log:=/home/hr/.ros/log/688b8d36-af3a-11e4-aeef-dc85debf707f/eye_face_tracker-4.log']]
[roslaunch][INFO] 2015-02-08 03:30:25,427: process[eye_face_tracker-4]: cwd will be [/home/hr/.ros]
[roslaunch][INFO] 2015-02-08 03:30:25,446: process[eye_face_tracker-4]: started with pid [7338]
[roslaunch][INFO] 2015-02-08 03:30:25,446: ... successfully launched [eye_face_tracker-4]
[roslaunch][INFO] 2015-02-08 03:30:25,447: ... launch_nodes complete
[roslaunch.pmon][INFO] 2015-02-08 03:30:25,447: registrations completed <ProcessMonitor(ProcessMonitor-1, started daemon 140549841745664)>
[roslaunch.parent][INFO] 2015-02-08 03:30:25,447: ... roslaunch parent running, waiting for process exit
[roslaunch][INFO] 2015-02-08 03:30:25,447: spin
[roslaunch.pmon][INFO] 2015-02-08 03:45:38,985: ProcessMonitor.shutdown <ProcessMonitor(ProcessMonitor-1, started daemon 140549841745664)>
[roslaunch.pmon][INFO] 2015-02-08 03:45:39,080: ProcessMonitor._post_run <ProcessMonitor(ProcessMonitor-1, started daemon 140549841745664)>
[roslaunch.pmon][INFO] 2015-02-08 03:45:39,081: ProcessMonitor._post_run <ProcessMonitor(ProcessMonitor-1, started daemon 140549841745664)>: remaining procs are [<roslaunch.nodeprocess.LocalProcess object at 0x7fd44fc4dc50>, <roslaunch.nodeprocess.LocalProcess object at 0x7fd44fbe98d0>, <roslaunch.nodeprocess.LocalProcess object at 0x7fd44fc4d610>, <roslaunch.nodeprocess.LocalProcess object at 0x7fd44fb906d0>]
[roslaunch.pmon][INFO] 2015-02-08 03:45:39,081: ProcessMonitor exit: killing eye_face_tracker-4
[roslaunch][INFO] 2015-02-08 03:45:39,081: [eye_face_tracker-4] killing on exit
[roslaunch][INFO] 2015-02-08 03:45:39,081: process[eye_face_tracker-4]: killing os process with pid[7338] pgid[7338]
[roslaunch][INFO] 2015-02-08 03:45:39,081: [eye_face_tracker-4] sending SIGINT to pgid [7338]
[roslaunch][INFO] 2015-02-08 03:45:39,081: [eye_face_tracker-4] sent SIGINT to pgid [7338]
[roslaunch.pmon][INFO] 2015-02-08 03:45:39,083: ProcessMonitor exit: killing body_face_tracker-3
[roslaunch][INFO] 2015-02-08 03:45:39,083: [body_face_tracker-3] killing on exit
[roslaunch][INFO] 2015-02-08 03:45:39,083: process[body_face_tracker-3]: killing os process with pid[7326] pgid[7326]
[roslaunch][INFO] 2015-02-08 03:45:39,083: [body_face_tracker-3] sending SIGINT to pgid [7326]
[roslaunch][INFO] 2015-02-08 03:45:39,084: [body_face_tracker-3] sent SIGINT to pgid [7326]
[roslaunch.pmon][INFO] 2015-02-08 03:45:39,084: ProcessMonitor exit: killing eye_camera-2
[roslaunch][INFO] 2015-02-08 03:45:39,084: [eye_camera-2] killing on exit
[roslaunch][INFO] 2015-02-08 03:45:39,084: process[eye_camera-2]: killing os process with pid[7292] pgid[7292]
[roslaunch][INFO] 2015-02-08 03:45:39,084: [eye_camera-2] sending SIGINT to pgid [7292]
[roslaunch][INFO] 2015-02-08 03:45:39,085: [eye_camera-2] sent SIGINT to pgid [7292]
[roslaunch.pmon][INFO] 2015-02-08 03:45:39,085: ProcessMonitor exit: killing camera-1
[roslaunch][INFO] 2015-02-08 03:45:39,086: [camera-1] killing on exit
[roslaunch][INFO] 2015-02-08 03:45:39,086: process[camera-1]: killing os process with pid[7266] pgid[7266]
[roslaunch][INFO] 2015-02-08 03:45:39,086: [camera-1] sending SIGINT to pgid [7266]
[roslaunch][INFO] 2015-02-08 03:45:39,087: [camera-1] sent SIGINT to pgid [7266]
[roslaunch][INFO] 2015-02-08 03:45:39,382: process[eye_face_tracker-4]: SIGINT killed with return value 0
[roslaunch][INFO] 2015-02-08 03:45:39,387: process[camera-1]: SIGINT killed with return value -11
[roslaunch][INFO] 2015-02-08 03:45:39,486: process[eye_camera-2]: SIGINT killed with return value -11
[roslaunch][INFO] 2015-02-08 03:45:39,885: process[body_face_tracker-3]: SIGINT killed with return value 0
[roslaunch.pmon][INFO] 2015-02-08 03:45:39,885: ProcessMonitor exit: cleaning up data structures and signals
[roslaunch.pmon][INFO] 2015-02-08 03:45:39,885: ProcessMonitor exit: pmon has shutdown
[roslaunch][INFO] 2015-02-08 03:45:39,900: process monitor is done spinning, initiating full shutdown
[roslaunch][INFO] 2015-02-08 03:45:39,900: runner.stop()
[roslaunch][INFO] 2015-02-08 03:45:39,900: shutting down processing monitor...
[roslaunch][INFO] 2015-02-08 03:45:39,901: shutting down processing monitor <ProcessMonitor(ProcessMonitor-1, stopped daemon 140549841745664)>
[roslaunch.pmon][INFO] 2015-02-08 03:45:39,901: ProcessMonitor.shutdown <ProcessMonitor(ProcessMonitor-1, stopped daemon 140549841745664)>
[roslaunch][INFO] 2015-02-08 03:45:39,901: ... shutting down processing monitor complete
[roslaunch][INFO] 2015-02-08 03:45:39,901: done
[roslaunch.pmon][INFO] 2015-02-08 03:45:39,901: ProcessMonitor.shutdown <ProcessMonitor(ProcessMonitor-1, stopped daemon 140549841745664)>
[rospy.core][INFO] 2015-02-08 03:45:39,901: signal_shutdown [atexit]
