[roslaunch][INFO] 2015-02-09 02:04:53,683: Checking log directory for disk usage. This may take awhile.
Press Ctrl-C to interrupt
[roslaunch][ERROR] 2015-02-09 02:04:53,691: WARNING: disk usage in log directory [/home/hr/.ros/log] is over 1GB.
It's recommended that you use the 'rosclean' command.
[roslaunch][INFO] 2015-02-09 02:04:53,691: roslaunch starting with args ['/opt/ros/indigo/bin/roslaunch', 'robots_config', 'fritz.launch']
[roslaunch][INFO] 2015-02-09 02:04:53,691: roslaunch env is {'INSTANCE': '', 'MANDATORY_PATH': '/usr/share/gconf/ubuntu.mandatory.path', 'ROS_DISTRO': 'indigo', 'ROS_LOG_FILENAME': '/home/hr/.ros/log/f73245de-afbc-11e4-9d81-dc85debf707f/roslaunch-hr2-3028.log', 'XDG_GREETER_DATA_DIR': '/var/lib/lightdm-data/hr', 'GNOME_DESKTOP_SESSION_ID': 'this-is-deprecated', 'GTK_IM_MODULE': 'ibus', 'XDG_CURRENT_DESKTOP': 'Unity', 'PKG_CONFIG_PATH': '/catkin_ws/devel/lib/pkgconfig:/catkin_ws/devel/lib/x86_64-linux-gnu/pkgconfig:/opt/ros/indigo/lib/x86_64-linux-gnu/pkgconfig:/opt/ros/indigo/lib/pkgconfig', 'ROSLISP_PACKAGE_DIRECTORIES': '/catkin_ws/devel/share/common-lisp', 'CPATH': '/catkin_ws/devel/include:/opt/ros/indigo/include', 'LOGNAME': 'hr', 'USER': 'hr', 'PATH': '/catkin_ws/devel/bin:/opt/ros/indigo/bin:/usr/local/sbin:/usr/local/bin:/usr/sbin:/usr/bin:/sbin:/bin:/usr/games:/usr/local/games', 'XDG_VTNR': '7', 'GNOME_KEYRING_CONTROL': '/run/user/1000/keyring-yosRyz', 'CMAKE_PREFIX_PATH': '/catkin_ws/devel:/opt/ros/indigo', 'LD_LIBRARY_PATH': '/catkin_ws/devel/lib:/catkin_ws/devel/lib/x86_64-linux-gnu:/opt/ros/indigo/lib/x86_64-linux-gnu:/opt/ros/indigo/lib', 'SSH_AGENT_PID': '1736', 'LANG': 'en_HK.UTF-8', 'TERM': 'screen', 'SHELL': '/bin/bash', 'XDG_SESSION_PATH': '/org/freedesktop/DisplayManager/Session0', 'XAUTHORITY': '/home/hr/.Xauthority', 'LANGUAGE': 'en_HK:en', 'SESSION_MANAGER': 'local/hr2:@/tmp/.ICE-unix/1814,unix/hr2:/tmp/.ICE-unix/1814', 'SHLVL': '2', 'ROS_TEST_RESULTS_DIR': '/catkin_ws/build/test_results', 'QT_QPA_PLATFORMTHEME': 'appmenu-qt5', 'JOB': 'dbus', 'TEXTDOMAIN': 'im-config', 'QT4_IM_MODULE': 'xim', 'CLUTTER_IM_MODULE': 'xim', 'WINDOWID': '71303180', 'SESSIONTYPE': 'gnome-session', 'XMODIFIERS': '@im=ibus', 'ROS_ETC_DIR': '/opt/ros/indigo/etc/ros', 'GPG_AGENT_INFO': '/run/user/1000/keyring-yosRyz/gpg:0:1', 'HOME': '/home/hr', 'SELINUX_INIT': 'YES', 'XDG_RUNTIME_DIR': '/run/user/1000', 'CATKIN_TEST_RESULTS_DIR': '/catkin_ws/build/test_results', 'PYTHONPATH': '/catkin_ws/devel/lib/python2.7/dist-packages:/opt/ros/indigo/lib/python2.7/dist-packages', 'COMPIZ_CONFIG_PROFILE': 'ubuntu', 'SSH_AUTH_SOCK': '/run/user/1000/keyring-yosRyz/ssh', 'VTE_VERSION': '3409', 'TMUX': '/tmp/tmux-1000/default,2980,0', 'ROS_ROOT': '/opt/ros/indigo/share/ros', 'GDMSESSION': 'ubuntu', 'IM_CONFIG_PHASE': '1', 'TEXTDOMAINDIR': '/usr/share/locale/', 'XDG_SEAT_PATH': '/org/freedesktop/DisplayManager/Seat0', 'ROS_PACKAGE_PATH': '/catkin_ws/src:/opt/ros/indigo/share:/opt/ros/indigo/stacks', 'XDG_SESSION_ID': 'c1', 'DBUS_SESSION_BUS_ADDRESS': 'unix:abstract=/tmp/dbus-hg8703FJxM', '_': '/opt/ros/indigo/bin/roslaunch', 'DEFAULTS_PATH': '/usr/share/gconf/ubuntu.default.path', 'SESSION': 'ubuntu', 'DESKTOP_SESSION': 'ubuntu', 'UPSTART_SESSION': 'unix:abstract=/com/ubuntu/upstart-session/1000/1668', 'XDG_CONFIG_DIRS': '/etc/xdg/xdg-ubuntu:/usr/share/upstart/xdg:/etc/xdg', 'GTK_MODULES': 'overlay-scrollbar:unity-gtk-module', 'UBUNTU_MENUPROXY': '1', 'GDM_LANG': 'en_US', 'XDG_DATA_DIRS': '/usr/share/ubuntu:/usr/share/gnome:/usr/local/share/:/usr/share/', 'PWD': '/home/hr', 'QT_IM_MODULE': 'ibus', 'ROS_MASTER_URI': 'http://localhost:11311', 'SSH_AGENT_LAUNCHER': 'upstart', 'COLORTERM': 'gnome-terminal', 'DISPLAY': ':0.0', 'XDG_MENU_PREFIX': 'gnome-', 'TMUX_PANE': '%1', 'XDG_SEAT': 'seat0'}
[roslaunch][INFO] 2015-02-09 02:04:53,691: starting in server mode
[roslaunch.parent][INFO] 2015-02-09 02:04:53,691: starting roslaunch parent run
[roslaunch][INFO] 2015-02-09 02:04:53,691: loading roscore config file /opt/ros/indigo/etc/ros/roscore.xml
[roslaunch][INFO] 2015-02-09 02:04:53,837: Added core node of type [rosout/rosout] in namespace [/]
[roslaunch.config][INFO] 2015-02-09 02:04:53,837: loading config file /catkin_ws/src/robots_config/fritz.launch
[roslaunch][INFO] 2015-02-09 02:04:53,995: Added node of type [dynamixel_controllers/controller_manager.py] in namespace [/fritz/]
[roslaunch][INFO] 2015-02-09 02:04:53,995: Added node of type [dynamixel_controllers/controller_spawner.py] in namespace [/fritz/]
[roslaunch][INFO] 2015-02-09 02:04:53,996: Added node of type [pau2motors/pau2motors_node.py] in namespace [/fritz/]
[roslaunch][INFO] 2015-02-09 02:04:53,996: Added node of type [basic_head_api/head_ctrl.py] in namespace [/fritz/]
[roslaunch][INFO] 2015-02-09 02:04:54,012: Added node of type [ros_pololu_servo/ros_pololu_servo_node] in namespace [/fritz/]
[roslaunch][INFO] 2015-02-09 02:04:54,027: Added node of type [ros_pololu_servo/ros_pololu_servo_node] in namespace [/fritz/]
[roslaunch][INFO] 2015-02-09 02:04:54,043: Added node of type [ros_pololu_servo/ros_pololu_servo_node] in namespace [/fritz/]
[roslaunch][INFO] 2015-02-09 02:04:54,043: Added node of type [topic_tools/mux] in namespace [/fritz/]
[roslaunch][INFO] 2015-02-09 02:04:54,044: Added node of type [topic_tools/mux] in namespace [/fritz/]
[roslaunch][INFO] 2015-02-09 02:04:54,044: Added node of type [chatbot/ai.py] in namespace [/fritz/]
[roslaunch][INFO] 2015-02-09 02:04:54,044: Added node of type [tts/tts_talker.py] in namespace [/fritz/]
[roslaunch][INFO] 2015-02-09 02:04:54,044: ... selected machine [] for node of type [dynamixel_controllers/controller_manager.py]
[roslaunch][INFO] 2015-02-09 02:04:54,044: ... selected machine [] for node of type [dynamixel_controllers/controller_spawner.py]
[roslaunch][INFO] 2015-02-09 02:04:54,044: ... selected machine [] for node of type [pau2motors/pau2motors_node.py]
[roslaunch][INFO] 2015-02-09 02:04:54,044: ... selected machine [] for node of type [basic_head_api/head_ctrl.py]
[roslaunch][INFO] 2015-02-09 02:04:54,044: ... selected machine [] for node of type [ros_pololu_servo/ros_pololu_servo_node]
[roslaunch][INFO] 2015-02-09 02:04:54,044: ... selected machine [] for node of type [ros_pololu_servo/ros_pololu_servo_node]
[roslaunch][INFO] 2015-02-09 02:04:54,044: ... selected machine [] for node of type [ros_pololu_servo/ros_pololu_servo_node]
[roslaunch][INFO] 2015-02-09 02:04:54,044: ... selected machine [] for node of type [topic_tools/mux]
[roslaunch][INFO] 2015-02-09 02:04:54,044: ... selected machine [] for node of type [topic_tools/mux]
[roslaunch][INFO] 2015-02-09 02:04:54,044: ... selected machine [] for node of type [chatbot/ai.py]
[roslaunch][INFO] 2015-02-09 02:04:54,044: ... selected machine [] for node of type [tts/tts_talker.py]
[roslaunch.pmon][INFO] 2015-02-09 02:04:54,045: start_process_monitor: creating ProcessMonitor
[roslaunch.pmon][INFO] 2015-02-09 02:04:54,045: created process monitor <ProcessMonitor(ProcessMonitor-1, initial daemon)>
[roslaunch.pmon][INFO] 2015-02-09 02:04:54,045: start_process_monitor: ProcessMonitor started
[roslaunch.parent][INFO] 2015-02-09 02:04:54,045: starting parent XML-RPC server
[roslaunch.server][INFO] 2015-02-09 02:04:54,046: starting roslaunch XML-RPC server
[roslaunch.server][INFO] 2015-02-09 02:04:54,046: waiting for roslaunch XML-RPC server to initialize
[xmlrpc][INFO] 2015-02-09 02:04:54,046: XML-RPC server binding to 0.0.0.0:0
[xmlrpc][INFO] 2015-02-09 02:04:54,046: Started XML-RPC server [http://hr2:57795/]
[xmlrpc][INFO] 2015-02-09 02:04:54,046: xml rpc node: starting XML-RPC server
[roslaunch][INFO] 2015-02-09 02:04:54,057: started roslaunch server http://hr2:57795/
[roslaunch.parent][INFO] 2015-02-09 02:04:54,057: ... parent XML-RPC server started
[roslaunch][INFO] 2015-02-09 02:04:54,061: master.is_running[http://localhost:11311]
[roslaunch][INFO] 2015-02-09 02:04:54,064: master.is_running[http://localhost:11311]
[roslaunch][INFO] 2015-02-09 02:04:54,066: ROS_MASTER_URI=http://localhost:11311
[roslaunch][INFO] 2015-02-09 02:04:54,069: setting /roslaunch/uris/host_hr2__57795' to http://hr2:57795/
[roslaunch][INFO] 2015-02-09 02:04:54,071: load_parameters starting ...
[roslaunch][INFO] 2015-02-09 02:04:54,136: ... load_parameters complete
[roslaunch][INFO] 2015-02-09 02:04:54,136: launch_nodes: launching local nodes ...
[roslaunch][INFO] 2015-02-09 02:04:54,136: ... preparing to launch node of type [dynamixel_controllers/controller_manager.py]
[roslaunch][INFO] 2015-02-09 02:04:54,137: create_node_process: package[dynamixel_controllers] type[controller_manager.py] machine[Machine(name[] env_loader[None] address[localhost] ssh_port[22] user[None] assignable[True] timeout[10.0])] master_uri[http://localhost:11311]
[roslaunch][INFO] 2015-02-09 02:04:54,137: process[fritz/dynamixel_manager-1]: env[{'WINDOWID': '71303180', 'QT_QPA_PLATFORMTHEME': 'appmenu-qt5', 'ROS_DISTRO': 'indigo', 'XDG_GREETER_DATA_DIR': '/var/lib/lightdm-data/hr', 'GNOME_DESKTOP_SESSION_ID': 'this-is-deprecated', 'ROS_NAMESPACE': u'/fritz', 'XDG_CURRENT_DESKTOP': 'Unity', 'XDG_SEAT_PATH': '/org/freedesktop/DisplayManager/Seat0', 'ROSLISP_PACKAGE_DIRECTORIES': '/catkin_ws/devel/share/common-lisp', 'CPATH': '/catkin_ws/devel/include:/opt/ros/indigo/include', 'LOGNAME': 'hr', 'USER': 'hr', 'PATH': '/catkin_ws/devel/bin:/opt/ros/indigo/bin:/usr/local/sbin:/usr/local/bin:/usr/sbin:/usr/bin:/sbin:/bin:/usr/games:/usr/local/games', 'XDG_VTNR': '7', 'GNOME_KEYRING_CONTROL': '/run/user/1000/keyring-yosRyz', 'CMAKE_PREFIX_PATH': '/catkin_ws/devel:/opt/ros/indigo', 'LD_LIBRARY_PATH': '/catkin_ws/devel/lib:/catkin_ws/devel/lib/x86_64-linux-gnu:/opt/ros/indigo/lib/x86_64-linux-gnu:/opt/ros/indigo/lib', 'SSH_AGENT_PID': '1736', 'LANG': 'en_HK.UTF-8', 'TERM': 'screen', 'SHELL': '/bin/bash', 'XDG_SESSION_PATH': '/org/freedesktop/DisplayManager/Session0', 'XAUTHORITY': '/home/hr/.Xauthority', 'LANGUAGE': 'en_HK:en', 'SESSION_MANAGER': 'local/hr2:@/tmp/.ICE-unix/1814,unix/hr2:/tmp/.ICE-unix/1814', 'SHLVL': '2', 'XDG_SESSION_ID': 'c1', 'MANDATORY_PATH': '/usr/share/gconf/ubuntu.mandatory.path', 'CLUTTER_IM_MODULE': 'xim', 'ROS_LOG_FILENAME': '/home/hr/.ros/log/f73245de-afbc-11e4-9d81-dc85debf707f/roslaunch-hr2-3028.log', 'QT4_IM_MODULE': 'xim', 'JOB': 'dbus', 'TEXTDOMAIN': 'im-config', 'SESSIONTYPE': 'gnome-session', 'XMODIFIERS': '@im=ibus', 'ROS_MASTER_URI': 'http://localhost:11311', 'GPG_AGENT_INFO': '/run/user/1000/keyring-yosRyz/gpg:0:1', 'HOME': '/home/hr', 'SELINUX_INIT': 'YES', 'XDG_RUNTIME_DIR': '/run/user/1000', 'CATKIN_TEST_RESULTS_DIR': '/catkin_ws/build/test_results', 'PYTHONPATH': '/catkin_ws/devel/lib/python2.7/dist-packages:/opt/ros/indigo/lib/python2.7/dist-packages', 'COMPIZ_CONFIG_PROFILE': 'ubuntu', 'SSH_AUTH_SOCK': '/run/user/1000/keyring-yosRyz/ssh', 'SESSION': 'ubuntu', 'VTE_VERSION': '3409', 'TMUX': '/tmp/tmux-1000/default,2980,0', 'ROS_ROOT': '/opt/ros/indigo/share/ros', 'GDMSESSION': 'ubuntu', 'IM_CONFIG_PHASE': '1', 'TEXTDOMAINDIR': '/usr/share/locale/', 'XDG_DATA_DIRS': '/usr/share/ubuntu:/usr/share/gnome:/usr/local/share/:/usr/share/', 'PKG_CONFIG_PATH': '/catkin_ws/devel/lib/pkgconfig:/catkin_ws/devel/lib/x86_64-linux-gnu/pkgconfig:/opt/ros/indigo/lib/x86_64-linux-gnu/pkgconfig:/opt/ros/indigo/lib/pkgconfig', 'ROS_PACKAGE_PATH': '/catkin_ws/src:/opt/ros/indigo/share:/opt/ros/indigo/stacks', 'ROS_TEST_RESULTS_DIR': '/catkin_ws/build/test_results', 'DBUS_SESSION_BUS_ADDRESS': 'unix:abstract=/tmp/dbus-hg8703FJxM', '_': '/opt/ros/indigo/bin/roslaunch', 'GTK_MODULES': 'overlay-scrollbar:unity-gtk-module', 'GTK_IM_MODULE': 'ibus', 'DESKTOP_SESSION': 'ubuntu', 'UPSTART_SESSION': 'unix:abstract=/com/ubuntu/upstart-session/1000/1668', 'XDG_CONFIG_DIRS': '/etc/xdg/xdg-ubuntu:/usr/share/upstart/xdg:/etc/xdg', 'DEFAULTS_PATH': '/usr/share/gconf/ubuntu.default.path', 'UBUNTU_MENUPROXY': '1', 'GDM_LANG': 'en_US', 'INSTANCE': '', 'PWD': '/home/hr', 'QT_IM_MODULE': 'ibus', 'ROS_ETC_DIR': '/opt/ros/indigo/etc/ros', 'SSH_AGENT_LAUNCHER': 'upstart', 'COLORTERM': 'gnome-terminal', 'DISPLAY': ':0.0', 'XDG_MENU_PREFIX': 'gnome-', 'TMUX_PANE': '%1', 'XDG_SEAT': 'seat0'}]
[roslaunch][INFO] 2015-02-09 02:04:54,200: process[fritz/dynamixel_manager-1]: args[[u'/catkin_ws/src/dynamixel_motor/dynamixel_controllers/nodes/controller_manager.py', u'__name:=dynamixel_manager']]
[roslaunch][INFO] 2015-02-09 02:04:54,200: ... created process [fritz/dynamixel_manager-1]
[roslaunch.pmon][INFO] 2015-02-09 02:04:54,200: ProcessMonitor.register[fritz/dynamixel_manager-1]
[roslaunch.pmon][INFO] 2015-02-09 02:04:54,200: ProcessMonitor.register[fritz/dynamixel_manager-1] complete
[roslaunch][INFO] 2015-02-09 02:04:54,200: ... registered process [fritz/dynamixel_manager-1]
[roslaunch][INFO] 2015-02-09 02:04:54,200: process[fritz/dynamixel_manager-1]: starting os process
[roslaunch][INFO] 2015-02-09 02:04:54,200: process[fritz/dynamixel_manager-1]: start w/ args [[u'/catkin_ws/src/dynamixel_motor/dynamixel_controllers/nodes/controller_manager.py', u'__name:=dynamixel_manager', u'__log:=/home/hr/.ros/log/f73245de-afbc-11e4-9d81-dc85debf707f/fritz-dynamixel_manager-1.log']]
[roslaunch][INFO] 2015-02-09 02:04:54,200: process[fritz/dynamixel_manager-1]: cwd will be [/home/hr/.ros]
[roslaunch][INFO] 2015-02-09 02:04:54,208: process[fritz/dynamixel_manager-1]: started with pid [3046]
[roslaunch][INFO] 2015-02-09 02:04:54,208: ... successfully launched [fritz/dynamixel_manager-1]
[roslaunch][INFO] 2015-02-09 02:04:54,208: ... preparing to launch node of type [dynamixel_controllers/controller_spawner.py]
[roslaunch][INFO] 2015-02-09 02:04:54,209: create_node_process: package[dynamixel_controllers] type[controller_spawner.py] machine[Machine(name[] env_loader[None] address[localhost] ssh_port[22] user[None] assignable[True] timeout[10.0])] master_uri[http://localhost:11311]
[roslaunch][INFO] 2015-02-09 02:04:54,209: process[fritz/neck_controller_spawner-2]: env[{'WINDOWID': '71303180', 'QT_QPA_PLATFORMTHEME': 'appmenu-qt5', 'ROS_DISTRO': 'indigo', 'XDG_GREETER_DATA_DIR': '/var/lib/lightdm-data/hr', 'GNOME_DESKTOP_SESSION_ID': 'this-is-deprecated', 'ROS_NAMESPACE': u'/fritz', 'XDG_CURRENT_DESKTOP': 'Unity', 'XDG_SEAT_PATH': '/org/freedesktop/DisplayManager/Seat0', 'ROSLISP_PACKAGE_DIRECTORIES': '/catkin_ws/devel/share/common-lisp', 'CPATH': '/catkin_ws/devel/include:/opt/ros/indigo/include', 'LOGNAME': 'hr', 'USER': 'hr', 'PATH': '/catkin_ws/devel/bin:/opt/ros/indigo/bin:/usr/local/sbin:/usr/local/bin:/usr/sbin:/usr/bin:/sbin:/bin:/usr/games:/usr/local/games', 'XDG_VTNR': '7', 'GNOME_KEYRING_CONTROL': '/run/user/1000/keyring-yosRyz', 'CMAKE_PREFIX_PATH': '/catkin_ws/devel:/opt/ros/indigo', 'LD_LIBRARY_PATH': '/catkin_ws/devel/lib:/catkin_ws/devel/lib/x86_64-linux-gnu:/opt/ros/indigo/lib/x86_64-linux-gnu:/opt/ros/indigo/lib', 'SSH_AGENT_PID': '1736', 'LANG': 'en_HK.UTF-8', 'TERM': 'screen', 'SHELL': '/bin/bash', 'XDG_SESSION_PATH': '/org/freedesktop/DisplayManager/Session0', 'XAUTHORITY': '/home/hr/.Xauthority', 'LANGUAGE': 'en_HK:en', 'SESSION_MANAGER': 'local/hr2:@/tmp/.ICE-unix/1814,unix/hr2:/tmp/.ICE-unix/1814', 'SHLVL': '2', 'XDG_SESSION_ID': 'c1', 'MANDATORY_PATH': '/usr/share/gconf/ubuntu.mandatory.path', 'CLUTTER_IM_MODULE': 'xim', 'ROS_LOG_FILENAME': '/home/hr/.ros/log/f73245de-afbc-11e4-9d81-dc85debf707f/roslaunch-hr2-3028.log', 'QT4_IM_MODULE': 'xim', 'JOB': 'dbus', 'TEXTDOMAIN': 'im-config', 'SESSIONTYPE': 'gnome-session', 'XMODIFIERS': '@im=ibus', 'ROS_MASTER_URI': 'http://localhost:11311', 'GPG_AGENT_INFO': '/run/user/1000/keyring-yosRyz/gpg:0:1', 'HOME': '/home/hr', 'SELINUX_INIT': 'YES', 'XDG_RUNTIME_DIR': '/run/user/1000', 'CATKIN_TEST_RESULTS_DIR': '/catkin_ws/build/test_results', 'PYTHONPATH': '/catkin_ws/devel/lib/python2.7/dist-packages:/opt/ros/indigo/lib/python2.7/dist-packages', 'COMPIZ_CONFIG_PROFILE': 'ubuntu', 'SSH_AUTH_SOCK': '/run/user/1000/keyring-yosRyz/ssh', 'SESSION': 'ubuntu', 'VTE_VERSION': '3409', 'TMUX': '/tmp/tmux-1000/default,2980,0', 'ROS_ROOT': '/opt/ros/indigo/share/ros', 'GDMSESSION': 'ubuntu', 'IM_CONFIG_PHASE': '1', 'TEXTDOMAINDIR': '/usr/share/locale/', 'XDG_DATA_DIRS': '/usr/share/ubuntu:/usr/share/gnome:/usr/local/share/:/usr/share/', 'PKG_CONFIG_PATH': '/catkin_ws/devel/lib/pkgconfig:/catkin_ws/devel/lib/x86_64-linux-gnu/pkgconfig:/opt/ros/indigo/lib/x86_64-linux-gnu/pkgconfig:/opt/ros/indigo/lib/pkgconfig', 'ROS_PACKAGE_PATH': '/catkin_ws/src:/opt/ros/indigo/share:/opt/ros/indigo/stacks', 'ROS_TEST_RESULTS_DIR': '/catkin_ws/build/test_results', 'DBUS_SESSION_BUS_ADDRESS': 'unix:abstract=/tmp/dbus-hg8703FJxM', '_': '/opt/ros/indigo/bin/roslaunch', 'GTK_MODULES': 'overlay-scrollbar:unity-gtk-module', 'GTK_IM_MODULE': 'ibus', 'DESKTOP_SESSION': 'ubuntu', 'UPSTART_SESSION': 'unix:abstract=/com/ubuntu/upstart-session/1000/1668', 'XDG_CONFIG_DIRS': '/etc/xdg/xdg-ubuntu:/usr/share/upstart/xdg:/etc/xdg', 'DEFAULTS_PATH': '/usr/share/gconf/ubuntu.default.path', 'UBUNTU_MENUPROXY': '1', 'GDM_LANG': 'en_US', 'INSTANCE': '', 'PWD': '/home/hr', 'QT_IM_MODULE': 'ibus', 'ROS_ETC_DIR': '/opt/ros/indigo/etc/ros', 'SSH_AGENT_LAUNCHER': 'upstart', 'COLORTERM': 'gnome-terminal', 'DISPLAY': ':0.0', 'XDG_MENU_PREFIX': 'gnome-', 'TMUX_PANE': '%1', 'XDG_SEAT': 'seat0'}]
[roslaunch][INFO] 2015-02-09 02:04:54,253: process[fritz/neck_controller_spawner-2]: args[[u'/catkin_ws/src/dynamixel_motor/dynamixel_controllers/nodes/controller_spawner.py', '--manager=dxl_manager', '--port', 'pan_tilt_port', 'base_controller', 'base_right_controller', 'base_left_controller', 'neck_right_controller', 'neck_left_controller', u'__name:=neck_controller_spawner']]
[roslaunch][INFO] 2015-02-09 02:04:54,253: ... created process [fritz/neck_controller_spawner-2]
[roslaunch.pmon][INFO] 2015-02-09 02:04:54,253: ProcessMonitor.register[fritz/neck_controller_spawner-2]
[roslaunch.pmon][INFO] 2015-02-09 02:04:54,253: ProcessMonitor.register[fritz/neck_controller_spawner-2] complete
[roslaunch][INFO] 2015-02-09 02:04:54,253: ... registered process [fritz/neck_controller_spawner-2]
[roslaunch][INFO] 2015-02-09 02:04:54,253: process[fritz/neck_controller_spawner-2]: starting os process
[roslaunch][INFO] 2015-02-09 02:04:54,254: process[fritz/neck_controller_spawner-2]: start w/ args [[u'/catkin_ws/src/dynamixel_motor/dynamixel_controllers/nodes/controller_spawner.py', '--manager=dxl_manager', '--port', 'pan_tilt_port', 'base_controller', 'base_right_controller', 'base_left_controller', 'neck_right_controller', 'neck_left_controller', u'__name:=neck_controller_spawner', u'__log:=/home/hr/.ros/log/f73245de-afbc-11e4-9d81-dc85debf707f/fritz-neck_controller_spawner-2.log']]
[roslaunch][INFO] 2015-02-09 02:04:54,254: process[fritz/neck_controller_spawner-2]: cwd will be [/home/hr/.ros]
[roslaunch][INFO] 2015-02-09 02:04:54,256: process[fritz/neck_controller_spawner-2]: started with pid [3047]
[roslaunch][INFO] 2015-02-09 02:04:54,256: ... successfully launched [fritz/neck_controller_spawner-2]
[roslaunch][INFO] 2015-02-09 02:04:54,256: ... preparing to launch node of type [pau2motors/pau2motors_node.py]
[roslaunch][INFO] 2015-02-09 02:04:54,256: create_node_process: package[pau2motors] type[pau2motors_node.py] machine[Machine(name[] env_loader[None] address[localhost] ssh_port[22] user[None] assignable[True] timeout[10.0])] master_uri[http://localhost:11311]
[roslaunch][INFO] 2015-02-09 02:04:54,256: process[fritz/pau2motors-3]: env[{'WINDOWID': '71303180', 'QT_QPA_PLATFORMTHEME': 'appmenu-qt5', 'ROS_DISTRO': 'indigo', 'XDG_GREETER_DATA_DIR': '/var/lib/lightdm-data/hr', 'GNOME_DESKTOP_SESSION_ID': 'this-is-deprecated', 'ROS_NAMESPACE': u'/fritz', 'XDG_CURRENT_DESKTOP': 'Unity', 'XDG_SEAT_PATH': '/org/freedesktop/DisplayManager/Seat0', 'ROSLISP_PACKAGE_DIRECTORIES': '/catkin_ws/devel/share/common-lisp', 'CPATH': '/catkin_ws/devel/include:/opt/ros/indigo/include', 'LOGNAME': 'hr', 'USER': 'hr', 'PATH': '/catkin_ws/devel/bin:/opt/ros/indigo/bin:/usr/local/sbin:/usr/local/bin:/usr/sbin:/usr/bin:/sbin:/bin:/usr/games:/usr/local/games', 'XDG_VTNR': '7', 'GNOME_KEYRING_CONTROL': '/run/user/1000/keyring-yosRyz', 'CMAKE_PREFIX_PATH': '/catkin_ws/devel:/opt/ros/indigo', 'LD_LIBRARY_PATH': '/catkin_ws/devel/lib:/catkin_ws/devel/lib/x86_64-linux-gnu:/opt/ros/indigo/lib/x86_64-linux-gnu:/opt/ros/indigo/lib', 'SSH_AGENT_PID': '1736', 'LANG': 'en_HK.UTF-8', 'TERM': 'screen', 'SHELL': '/bin/bash', 'XDG_SESSION_PATH': '/org/freedesktop/DisplayManager/Session0', 'XAUTHORITY': '/home/hr/.Xauthority', 'LANGUAGE': 'en_HK:en', 'SESSION_MANAGER': 'local/hr2:@/tmp/.ICE-unix/1814,unix/hr2:/tmp/.ICE-unix/1814', 'SHLVL': '2', 'XDG_SESSION_ID': 'c1', 'MANDATORY_PATH': '/usr/share/gconf/ubuntu.mandatory.path', 'CLUTTER_IM_MODULE': 'xim', 'ROS_LOG_FILENAME': '/home/hr/.ros/log/f73245de-afbc-11e4-9d81-dc85debf707f/roslaunch-hr2-3028.log', 'QT4_IM_MODULE': 'xim', 'JOB': 'dbus', 'TEXTDOMAIN': 'im-config', 'SESSIONTYPE': 'gnome-session', 'XMODIFIERS': '@im=ibus', 'ROS_MASTER_URI': 'http://localhost:11311', 'GPG_AGENT_INFO': '/run/user/1000/keyring-yosRyz/gpg:0:1', 'HOME': '/home/hr', 'SELINUX_INIT': 'YES', 'XDG_RUNTIME_DIR': '/run/user/1000', 'CATKIN_TEST_RESULTS_DIR': '/catkin_ws/build/test_results', 'PYTHONPATH': '/catkin_ws/devel/lib/python2.7/dist-packages:/opt/ros/indigo/lib/python2.7/dist-packages', 'COMPIZ_CONFIG_PROFILE': 'ubuntu', 'SSH_AUTH_SOCK': '/run/user/1000/keyring-yosRyz/ssh', 'SESSION': 'ubuntu', 'VTE_VERSION': '3409', 'TMUX': '/tmp/tmux-1000/default,2980,0', 'ROS_ROOT': '/opt/ros/indigo/share/ros', 'GDMSESSION': 'ubuntu', 'IM_CONFIG_PHASE': '1', 'TEXTDOMAINDIR': '/usr/share/locale/', 'XDG_DATA_DIRS': '/usr/share/ubuntu:/usr/share/gnome:/usr/local/share/:/usr/share/', 'PKG_CONFIG_PATH': '/catkin_ws/devel/lib/pkgconfig:/catkin_ws/devel/lib/x86_64-linux-gnu/pkgconfig:/opt/ros/indigo/lib/x86_64-linux-gnu/pkgconfig:/opt/ros/indigo/lib/pkgconfig', 'ROS_PACKAGE_PATH': '/catkin_ws/src:/opt/ros/indigo/share:/opt/ros/indigo/stacks', 'ROS_TEST_RESULTS_DIR': '/catkin_ws/build/test_results', 'DBUS_SESSION_BUS_ADDRESS': 'unix:abstract=/tmp/dbus-hg8703FJxM', '_': '/opt/ros/indigo/bin/roslaunch', 'GTK_MODULES': 'overlay-scrollbar:unity-gtk-module', 'GTK_IM_MODULE': 'ibus', 'DESKTOP_SESSION': 'ubuntu', 'UPSTART_SESSION': 'unix:abstract=/com/ubuntu/upstart-session/1000/1668', 'XDG_CONFIG_DIRS': '/etc/xdg/xdg-ubuntu:/usr/share/upstart/xdg:/etc/xdg', 'DEFAULTS_PATH': '/usr/share/gconf/ubuntu.default.path', 'UBUNTU_MENUPROXY': '1', 'GDM_LANG': 'en_US', 'INSTANCE': '', 'PWD': '/home/hr', 'QT_IM_MODULE': 'ibus', 'ROS_ETC_DIR': '/opt/ros/indigo/etc/ros', 'SSH_AGENT_LAUNCHER': 'upstart', 'COLORTERM': 'gnome-terminal', 'DISPLAY': ':0.0', 'XDG_MENU_PREFIX': 'gnome-', 'TMUX_PANE': '%1', 'XDG_SEAT': 'seat0'}]
[roslaunch][INFO] 2015-02-09 02:04:54,352: process[fritz/pau2motors-3]: args[[u'/catkin_ws/src/pau2motors/src/pau2motors_node.py', u'__name:=pau2motors']]
[roslaunch][INFO] 2015-02-09 02:04:54,353: ... created process [fritz/pau2motors-3]
[roslaunch.pmon][INFO] 2015-02-09 02:04:54,353: ProcessMonitor.register[fritz/pau2motors-3]
[roslaunch.pmon][INFO] 2015-02-09 02:04:54,353: ProcessMonitor.register[fritz/pau2motors-3] complete
[roslaunch][INFO] 2015-02-09 02:04:54,353: ... registered process [fritz/pau2motors-3]
[roslaunch][INFO] 2015-02-09 02:04:54,353: process[fritz/pau2motors-3]: starting os process
[roslaunch][INFO] 2015-02-09 02:04:54,353: process[fritz/pau2motors-3]: start w/ args [[u'/catkin_ws/src/pau2motors/src/pau2motors_node.py', u'__name:=pau2motors', u'__log:=/home/hr/.ros/log/f73245de-afbc-11e4-9d81-dc85debf707f/fritz-pau2motors-3.log']]
[roslaunch][INFO] 2015-02-09 02:04:54,353: process[fritz/pau2motors-3]: cwd will be [/home/hr/.ros]
[roslaunch][INFO] 2015-02-09 02:04:54,362: process[fritz/pau2motors-3]: started with pid [3052]
[roslaunch][INFO] 2015-02-09 02:04:54,363: ... successfully launched [fritz/pau2motors-3]
[roslaunch][INFO] 2015-02-09 02:04:54,363: ... preparing to launch node of type [basic_head_api/head_ctrl.py]
[roslaunch][INFO] 2015-02-09 02:04:54,363: create_node_process: package[basic_head_api] type[head_ctrl.py] machine[Machine(name[] env_loader[None] address[localhost] ssh_port[22] user[None] assignable[True] timeout[10.0])] master_uri[http://localhost:11311]
[roslaunch][INFO] 2015-02-09 02:04:54,363: process[fritz/basic_head_api-4]: env[{'WINDOWID': '71303180', 'QT_QPA_PLATFORMTHEME': 'appmenu-qt5', 'ROS_DISTRO': 'indigo', 'XDG_GREETER_DATA_DIR': '/var/lib/lightdm-data/hr', 'GNOME_DESKTOP_SESSION_ID': 'this-is-deprecated', 'ROS_NAMESPACE': u'/fritz', 'XDG_CURRENT_DESKTOP': 'Unity', 'XDG_SEAT_PATH': '/org/freedesktop/DisplayManager/Seat0', 'ROSLISP_PACKAGE_DIRECTORIES': '/catkin_ws/devel/share/common-lisp', 'CPATH': '/catkin_ws/devel/include:/opt/ros/indigo/include', 'LOGNAME': 'hr', 'USER': 'hr', 'PATH': '/catkin_ws/devel/bin:/opt/ros/indigo/bin:/usr/local/sbin:/usr/local/bin:/usr/sbin:/usr/bin:/sbin:/bin:/usr/games:/usr/local/games', 'XDG_VTNR': '7', 'GNOME_KEYRING_CONTROL': '/run/user/1000/keyring-yosRyz', 'CMAKE_PREFIX_PATH': '/catkin_ws/devel:/opt/ros/indigo', 'LD_LIBRARY_PATH': '/catkin_ws/devel/lib:/catkin_ws/devel/lib/x86_64-linux-gnu:/opt/ros/indigo/lib/x86_64-linux-gnu:/opt/ros/indigo/lib', 'SSH_AGENT_PID': '1736', 'LANG': 'en_HK.UTF-8', 'TERM': 'screen', 'SHELL': '/bin/bash', 'XDG_SESSION_PATH': '/org/freedesktop/DisplayManager/Session0', 'XAUTHORITY': '/home/hr/.Xauthority', 'LANGUAGE': 'en_HK:en', 'SESSION_MANAGER': 'local/hr2:@/tmp/.ICE-unix/1814,unix/hr2:/tmp/.ICE-unix/1814', 'SHLVL': '2', 'XDG_SESSION_ID': 'c1', 'MANDATORY_PATH': '/usr/share/gconf/ubuntu.mandatory.path', 'CLUTTER_IM_MODULE': 'xim', 'ROS_LOG_FILENAME': '/home/hr/.ros/log/f73245de-afbc-11e4-9d81-dc85debf707f/roslaunch-hr2-3028.log', 'QT4_IM_MODULE': 'xim', 'JOB': 'dbus', 'TEXTDOMAIN': 'im-config', 'SESSIONTYPE': 'gnome-session', 'XMODIFIERS': '@im=ibus', 'ROS_MASTER_URI': 'http://localhost:11311', 'GPG_AGENT_INFO': '/run/user/1000/keyring-yosRyz/gpg:0:1', 'HOME': '/home/hr', 'SELINUX_INIT': 'YES', 'XDG_RUNTIME_DIR': '/run/user/1000', 'CATKIN_TEST_RESULTS_DIR': '/catkin_ws/build/test_results', 'PYTHONPATH': '/catkin_ws/devel/lib/python2.7/dist-packages:/opt/ros/indigo/lib/python2.7/dist-packages', 'COMPIZ_CONFIG_PROFILE': 'ubuntu', 'SSH_AUTH_SOCK': '/run/user/1000/keyring-yosRyz/ssh', 'SESSION': 'ubuntu', 'VTE_VERSION': '3409', 'TMUX': '/tmp/tmux-1000/default,2980,0', 'ROS_ROOT': '/opt/ros/indigo/share/ros', 'GDMSESSION': 'ubuntu', 'IM_CONFIG_PHASE': '1', 'TEXTDOMAINDIR': '/usr/share/locale/', 'XDG_DATA_DIRS': '/usr/share/ubuntu:/usr/share/gnome:/usr/local/share/:/usr/share/', 'PKG_CONFIG_PATH': '/catkin_ws/devel/lib/pkgconfig:/catkin_ws/devel/lib/x86_64-linux-gnu/pkgconfig:/opt/ros/indigo/lib/x86_64-linux-gnu/pkgconfig:/opt/ros/indigo/lib/pkgconfig', 'ROS_PACKAGE_PATH': '/catkin_ws/src:/opt/ros/indigo/share:/opt/ros/indigo/stacks', 'ROS_TEST_RESULTS_DIR': '/catkin_ws/build/test_results', 'DBUS_SESSION_BUS_ADDRESS': 'unix:abstract=/tmp/dbus-hg8703FJxM', '_': '/opt/ros/indigo/bin/roslaunch', 'GTK_MODULES': 'overlay-scrollbar:unity-gtk-module', 'GTK_IM_MODULE': 'ibus', 'DESKTOP_SESSION': 'ubuntu', 'UPSTART_SESSION': 'unix:abstract=/com/ubuntu/upstart-session/1000/1668', 'XDG_CONFIG_DIRS': '/etc/xdg/xdg-ubuntu:/usr/share/upstart/xdg:/etc/xdg', 'DEFAULTS_PATH': '/usr/share/gconf/ubuntu.default.path', 'UBUNTU_MENUPROXY': '1', 'GDM_LANG': 'en_US', 'INSTANCE': '', 'PWD': '/home/hr', 'QT_IM_MODULE': 'ibus', 'ROS_ETC_DIR': '/opt/ros/indigo/etc/ros', 'SSH_AGENT_LAUNCHER': 'upstart', 'COLORTERM': 'gnome-terminal', 'DISPLAY': ':0.0', 'XDG_MENU_PREFIX': 'gnome-', 'TMUX_PANE': '%1', 'XDG_SEAT': 'seat0'}]
[roslaunch][INFO] 2015-02-09 02:04:54,416: process[fritz/basic_head_api-4]: args[[u'/catkin_ws/src/basic_head_api/src/head_ctrl.py', u'__name:=basic_head_api']]
[roslaunch][INFO] 2015-02-09 02:04:54,416: ... created process [fritz/basic_head_api-4]
[roslaunch.pmon][INFO] 2015-02-09 02:04:54,416: ProcessMonitor.register[fritz/basic_head_api-4]
[roslaunch.pmon][INFO] 2015-02-09 02:04:54,416: ProcessMonitor.register[fritz/basic_head_api-4] complete
[roslaunch][INFO] 2015-02-09 02:04:54,417: ... registered process [fritz/basic_head_api-4]
[roslaunch][INFO] 2015-02-09 02:04:54,417: process[fritz/basic_head_api-4]: starting os process
[roslaunch][INFO] 2015-02-09 02:04:54,417: process[fritz/basic_head_api-4]: start w/ args [[u'/catkin_ws/src/basic_head_api/src/head_ctrl.py', u'__name:=basic_head_api', u'__log:=/home/hr/.ros/log/f73245de-afbc-11e4-9d81-dc85debf707f/fritz-basic_head_api-4.log']]
[roslaunch][INFO] 2015-02-09 02:04:54,417: process[fritz/basic_head_api-4]: cwd will be [/home/hr/.ros]
[roslaunch][INFO] 2015-02-09 02:04:54,432: process[fritz/basic_head_api-4]: started with pid [3057]
[roslaunch][INFO] 2015-02-09 02:04:54,432: ... successfully launched [fritz/basic_head_api-4]
[roslaunch][INFO] 2015-02-09 02:04:54,432: ... preparing to launch node of type [ros_pololu_servo/ros_pololu_servo_node]
[roslaunch][INFO] 2015-02-09 02:04:54,432: create_node_process: package[ros_pololu_servo] type[ros_pololu_servo_node] machine[Machine(name[] env_loader[None] address[localhost] ssh_port[22] user[None] assignable[True] timeout[10.0])] master_uri[http://localhost:11311]
[roslaunch][INFO] 2015-02-09 02:04:54,433: process[fritz/left_pololu_node-5]: env[{'WINDOWID': '71303180', 'QT_QPA_PLATFORMTHEME': 'appmenu-qt5', 'ROS_DISTRO': 'indigo', 'XDG_GREETER_DATA_DIR': '/var/lib/lightdm-data/hr', 'GNOME_DESKTOP_SESSION_ID': 'this-is-deprecated', 'ROS_NAMESPACE': u'/fritz', 'XDG_CURRENT_DESKTOP': 'Unity', 'XDG_SEAT_PATH': '/org/freedesktop/DisplayManager/Seat0', 'ROSLISP_PACKAGE_DIRECTORIES': '/catkin_ws/devel/share/common-lisp', 'CPATH': '/catkin_ws/devel/include:/opt/ros/indigo/include', 'LOGNAME': 'hr', 'USER': 'hr', 'PATH': '/catkin_ws/devel/bin:/opt/ros/indigo/bin:/usr/local/sbin:/usr/local/bin:/usr/sbin:/usr/bin:/sbin:/bin:/usr/games:/usr/local/games', 'XDG_VTNR': '7', 'GNOME_KEYRING_CONTROL': '/run/user/1000/keyring-yosRyz', 'CMAKE_PREFIX_PATH': '/catkin_ws/devel:/opt/ros/indigo', 'LD_LIBRARY_PATH': '/catkin_ws/devel/lib:/catkin_ws/devel/lib/x86_64-linux-gnu:/opt/ros/indigo/lib/x86_64-linux-gnu:/opt/ros/indigo/lib', 'SSH_AGENT_PID': '1736', 'LANG': 'en_HK.UTF-8', 'TERM': 'screen', 'SHELL': '/bin/bash', 'XDG_SESSION_PATH': '/org/freedesktop/DisplayManager/Session0', 'XAUTHORITY': '/home/hr/.Xauthority', 'LANGUAGE': 'en_HK:en', 'SESSION_MANAGER': 'local/hr2:@/tmp/.ICE-unix/1814,unix/hr2:/tmp/.ICE-unix/1814', 'SHLVL': '2', 'XDG_SESSION_ID': 'c1', 'MANDATORY_PATH': '/usr/share/gconf/ubuntu.mandatory.path', 'CLUTTER_IM_MODULE': 'xim', 'ROS_LOG_FILENAME': '/home/hr/.ros/log/f73245de-afbc-11e4-9d81-dc85debf707f/roslaunch-hr2-3028.log', 'QT4_IM_MODULE': 'xim', 'JOB': 'dbus', 'TEXTDOMAIN': 'im-config', 'SESSIONTYPE': 'gnome-session', 'XMODIFIERS': '@im=ibus', 'ROS_MASTER_URI': 'http://localhost:11311', 'GPG_AGENT_INFO': '/run/user/1000/keyring-yosRyz/gpg:0:1', 'HOME': '/home/hr', 'SELINUX_INIT': 'YES', 'XDG_RUNTIME_DIR': '/run/user/1000', 'CATKIN_TEST_RESULTS_DIR': '/catkin_ws/build/test_results', 'PYTHONPATH': '/catkin_ws/devel/lib/python2.7/dist-packages:/opt/ros/indigo/lib/python2.7/dist-packages', 'COMPIZ_CONFIG_PROFILE': 'ubuntu', 'SSH_AUTH_SOCK': '/run/user/1000/keyring-yosRyz/ssh', 'SESSION': 'ubuntu', 'VTE_VERSION': '3409', 'TMUX': '/tmp/tmux-1000/default,2980,0', 'ROS_ROOT': '/opt/ros/indigo/share/ros', 'GDMSESSION': 'ubuntu', 'IM_CONFIG_PHASE': '1', 'TEXTDOMAINDIR': '/usr/share/locale/', 'XDG_DATA_DIRS': '/usr/share/ubuntu:/usr/share/gnome:/usr/local/share/:/usr/share/', 'PKG_CONFIG_PATH': '/catkin_ws/devel/lib/pkgconfig:/catkin_ws/devel/lib/x86_64-linux-gnu/pkgconfig:/opt/ros/indigo/lib/x86_64-linux-gnu/pkgconfig:/opt/ros/indigo/lib/pkgconfig', 'ROS_PACKAGE_PATH': '/catkin_ws/src:/opt/ros/indigo/share:/opt/ros/indigo/stacks', 'ROS_TEST_RESULTS_DIR': '/catkin_ws/build/test_results', 'DBUS_SESSION_BUS_ADDRESS': 'unix:abstract=/tmp/dbus-hg8703FJxM', '_': '/opt/ros/indigo/bin/roslaunch', 'GTK_MODULES': 'overlay-scrollbar:unity-gtk-module', 'GTK_IM_MODULE': 'ibus', 'DESKTOP_SESSION': 'ubuntu', 'UPSTART_SESSION': 'unix:abstract=/com/ubuntu/upstart-session/1000/1668', 'XDG_CONFIG_DIRS': '/etc/xdg/xdg-ubuntu:/usr/share/upstart/xdg:/etc/xdg', 'DEFAULTS_PATH': '/usr/share/gconf/ubuntu.default.path', 'UBUNTU_MENUPROXY': '1', 'GDM_LANG': 'en_US', 'INSTANCE': '', 'PWD': '/home/hr', 'QT_IM_MODULE': 'ibus', 'ROS_ETC_DIR': '/opt/ros/indigo/etc/ros', 'SSH_AGENT_LAUNCHER': 'upstart', 'COLORTERM': 'gnome-terminal', 'DISPLAY': ':0.0', 'XDG_MENU_PREFIX': 'gnome-', 'TMUX_PANE': '%1', 'XDG_SEAT': 'seat0'}]
[roslaunch][INFO] 2015-02-09 02:04:54,578: process[fritz/left_pololu_node-5]: args[[u'/catkin_ws/devel/lib/ros_pololu_servo/ros_pololu_servo_node', u'__name:=left_pololu_node']]
[roslaunch][INFO] 2015-02-09 02:04:54,578: ... created process [fritz/left_pololu_node-5]
[roslaunch.pmon][INFO] 2015-02-09 02:04:54,579: ProcessMonitor.register[fritz/left_pololu_node-5]
[roslaunch.pmon][INFO] 2015-02-09 02:04:54,579: ProcessMonitor.register[fritz/left_pololu_node-5] complete
[roslaunch][INFO] 2015-02-09 02:04:54,579: ... registered process [fritz/left_pololu_node-5]
[roslaunch][INFO] 2015-02-09 02:04:54,579: process[fritz/left_pololu_node-5]: starting os process
[roslaunch][INFO] 2015-02-09 02:04:54,579: process[fritz/left_pololu_node-5]: start w/ args [[u'/catkin_ws/devel/lib/ros_pololu_servo/ros_pololu_servo_node', u'__name:=left_pololu_node', u'__log:=/home/hr/.ros/log/f73245de-afbc-11e4-9d81-dc85debf707f/fritz-left_pololu_node-5.log']]
[roslaunch][INFO] 2015-02-09 02:04:54,579: process[fritz/left_pololu_node-5]: cwd will be [/home/hr/.ros]
[roslaunch][INFO] 2015-02-09 02:04:54,582: process[fritz/left_pololu_node-5]: started with pid [3066]
[roslaunch][INFO] 2015-02-09 02:04:54,582: ... successfully launched [fritz/left_pololu_node-5]
[roslaunch][INFO] 2015-02-09 02:04:54,582: ... preparing to launch node of type [ros_pololu_servo/ros_pololu_servo_node]
[roslaunch][INFO] 2015-02-09 02:04:54,582: create_node_process: package[ros_pololu_servo] type[ros_pololu_servo_node] machine[Machine(name[] env_loader[None] address[localhost] ssh_port[22] user[None] assignable[True] timeout[10.0])] master_uri[http://localhost:11311]
[roslaunch][INFO] 2015-02-09 02:04:54,582: process[fritz/right_pololu_node-6]: env[{'WINDOWID': '71303180', 'QT_QPA_PLATFORMTHEME': 'appmenu-qt5', 'ROS_DISTRO': 'indigo', 'XDG_GREETER_DATA_DIR': '/var/lib/lightdm-data/hr', 'GNOME_DESKTOP_SESSION_ID': 'this-is-deprecated', 'ROS_NAMESPACE': u'/fritz', 'XDG_CURRENT_DESKTOP': 'Unity', 'XDG_SEAT_PATH': '/org/freedesktop/DisplayManager/Seat0', 'ROSLISP_PACKAGE_DIRECTORIES': '/catkin_ws/devel/share/common-lisp', 'CPATH': '/catkin_ws/devel/include:/opt/ros/indigo/include', 'LOGNAME': 'hr', 'USER': 'hr', 'PATH': '/catkin_ws/devel/bin:/opt/ros/indigo/bin:/usr/local/sbin:/usr/local/bin:/usr/sbin:/usr/bin:/sbin:/bin:/usr/games:/usr/local/games', 'XDG_VTNR': '7', 'GNOME_KEYRING_CONTROL': '/run/user/1000/keyring-yosRyz', 'CMAKE_PREFIX_PATH': '/catkin_ws/devel:/opt/ros/indigo', 'LD_LIBRARY_PATH': '/catkin_ws/devel/lib:/catkin_ws/devel/lib/x86_64-linux-gnu:/opt/ros/indigo/lib/x86_64-linux-gnu:/opt/ros/indigo/lib', 'SSH_AGENT_PID': '1736', 'LANG': 'en_HK.UTF-8', 'TERM': 'screen', 'SHELL': '/bin/bash', 'XDG_SESSION_PATH': '/org/freedesktop/DisplayManager/Session0', 'XAUTHORITY': '/home/hr/.Xauthority', 'LANGUAGE': 'en_HK:en', 'SESSION_MANAGER': 'local/hr2:@/tmp/.ICE-unix/1814,unix/hr2:/tmp/.ICE-unix/1814', 'SHLVL': '2', 'XDG_SESSION_ID': 'c1', 'MANDATORY_PATH': '/usr/share/gconf/ubuntu.mandatory.path', 'CLUTTER_IM_MODULE': 'xim', 'ROS_LOG_FILENAME': '/home/hr/.ros/log/f73245de-afbc-11e4-9d81-dc85debf707f/roslaunch-hr2-3028.log', 'QT4_IM_MODULE': 'xim', 'JOB': 'dbus', 'TEXTDOMAIN': 'im-config', 'SESSIONTYPE': 'gnome-session', 'XMODIFIERS': '@im=ibus', 'ROS_MASTER_URI': 'http://localhost:11311', 'GPG_AGENT_INFO': '/run/user/1000/keyring-yosRyz/gpg:0:1', 'HOME': '/home/hr', 'SELINUX_INIT': 'YES', 'XDG_RUNTIME_DIR': '/run/user/1000', 'CATKIN_TEST_RESULTS_DIR': '/catkin_ws/build/test_results', 'PYTHONPATH': '/catkin_ws/devel/lib/python2.7/dist-packages:/opt/ros/indigo/lib/python2.7/dist-packages', 'COMPIZ_CONFIG_PROFILE': 'ubuntu', 'SSH_AUTH_SOCK': '/run/user/1000/keyring-yosRyz/ssh', 'SESSION': 'ubuntu', 'VTE_VERSION': '3409', 'TMUX': '/tmp/tmux-1000/default,2980,0', 'ROS_ROOT': '/opt/ros/indigo/share/ros', 'GDMSESSION': 'ubuntu', 'IM_CONFIG_PHASE': '1', 'TEXTDOMAINDIR': '/usr/share/locale/', 'XDG_DATA_DIRS': '/usr/share/ubuntu:/usr/share/gnome:/usr/local/share/:/usr/share/', 'PKG_CONFIG_PATH': '/catkin_ws/devel/lib/pkgconfig:/catkin_ws/devel/lib/x86_64-linux-gnu/pkgconfig:/opt/ros/indigo/lib/x86_64-linux-gnu/pkgconfig:/opt/ros/indigo/lib/pkgconfig', 'ROS_PACKAGE_PATH': '/catkin_ws/src:/opt/ros/indigo/share:/opt/ros/indigo/stacks', 'ROS_TEST_RESULTS_DIR': '/catkin_ws/build/test_results', 'DBUS_SESSION_BUS_ADDRESS': 'unix:abstract=/tmp/dbus-hg8703FJxM', '_': '/opt/ros/indigo/bin/roslaunch', 'GTK_MODULES': 'overlay-scrollbar:unity-gtk-module', 'GTK_IM_MODULE': 'ibus', 'DESKTOP_SESSION': 'ubuntu', 'UPSTART_SESSION': 'unix:abstract=/com/ubuntu/upstart-session/1000/1668', 'XDG_CONFIG_DIRS': '/etc/xdg/xdg-ubuntu:/usr/share/upstart/xdg:/etc/xdg', 'DEFAULTS_PATH': '/usr/share/gconf/ubuntu.default.path', 'UBUNTU_MENUPROXY': '1', 'GDM_LANG': 'en_US', 'INSTANCE': '', 'PWD': '/home/hr', 'QT_IM_MODULE': 'ibus', 'ROS_ETC_DIR': '/opt/ros/indigo/etc/ros', 'SSH_AGENT_LAUNCHER': 'upstart', 'COLORTERM': 'gnome-terminal', 'DISPLAY': ':0.0', 'XDG_MENU_PREFIX': 'gnome-', 'TMUX_PANE': '%1', 'XDG_SEAT': 'seat0'}]
[roslaunch][INFO] 2015-02-09 02:04:54,618: process[fritz/right_pololu_node-6]: args[[u'/catkin_ws/devel/lib/ros_pololu_servo/ros_pololu_servo_node', u'__name:=right_pololu_node']]
[roslaunch][INFO] 2015-02-09 02:04:54,618: ... created process [fritz/right_pololu_node-6]
[roslaunch.pmon][INFO] 2015-02-09 02:04:54,618: ProcessMonitor.register[fritz/right_pololu_node-6]
[roslaunch.pmon][INFO] 2015-02-09 02:04:54,618: ProcessMonitor.register[fritz/right_pololu_node-6] complete
[roslaunch][INFO] 2015-02-09 02:04:54,618: ... registered process [fritz/right_pololu_node-6]
[roslaunch][INFO] 2015-02-09 02:04:54,618: process[fritz/right_pololu_node-6]: starting os process
[roslaunch][INFO] 2015-02-09 02:04:54,618: process[fritz/right_pololu_node-6]: start w/ args [[u'/catkin_ws/devel/lib/ros_pololu_servo/ros_pololu_servo_node', u'__name:=right_pololu_node', u'__log:=/home/hr/.ros/log/f73245de-afbc-11e4-9d81-dc85debf707f/fritz-right_pololu_node-6.log']]
[roslaunch][INFO] 2015-02-09 02:04:54,618: process[fritz/right_pololu_node-6]: cwd will be [/home/hr/.ros]
[roslaunch][INFO] 2015-02-09 02:04:54,621: process[fritz/right_pololu_node-6]: started with pid [3068]
[roslaunch][INFO] 2015-02-09 02:04:54,621: ... successfully launched [fritz/right_pololu_node-6]
[roslaunch][INFO] 2015-02-09 02:04:54,621: ... preparing to launch node of type [ros_pololu_servo/ros_pololu_servo_node]
[roslaunch][INFO] 2015-02-09 02:04:54,621: create_node_process: package[ros_pololu_servo] type[ros_pololu_servo_node] machine[Machine(name[] env_loader[None] address[localhost] ssh_port[22] user[None] assignable[True] timeout[10.0])] master_uri[http://localhost:11311]
[roslaunch][INFO] 2015-02-09 02:04:54,621: process[fritz/middle_pololu_node-7]: env[{'WINDOWID': '71303180', 'QT_QPA_PLATFORMTHEME': 'appmenu-qt5', 'ROS_DISTRO': 'indigo', 'XDG_GREETER_DATA_DIR': '/var/lib/lightdm-data/hr', 'GNOME_DESKTOP_SESSION_ID': 'this-is-deprecated', 'ROS_NAMESPACE': u'/fritz', 'XDG_CURRENT_DESKTOP': 'Unity', 'XDG_SEAT_PATH': '/org/freedesktop/DisplayManager/Seat0', 'ROSLISP_PACKAGE_DIRECTORIES': '/catkin_ws/devel/share/common-lisp', 'CPATH': '/catkin_ws/devel/include:/opt/ros/indigo/include', 'LOGNAME': 'hr', 'USER': 'hr', 'PATH': '/catkin_ws/devel/bin:/opt/ros/indigo/bin:/usr/local/sbin:/usr/local/bin:/usr/sbin:/usr/bin:/sbin:/bin:/usr/games:/usr/local/games', 'XDG_VTNR': '7', 'GNOME_KEYRING_CONTROL': '/run/user/1000/keyring-yosRyz', 'CMAKE_PREFIX_PATH': '/catkin_ws/devel:/opt/ros/indigo', 'LD_LIBRARY_PATH': '/catkin_ws/devel/lib:/catkin_ws/devel/lib/x86_64-linux-gnu:/opt/ros/indigo/lib/x86_64-linux-gnu:/opt/ros/indigo/lib', 'SSH_AGENT_PID': '1736', 'LANG': 'en_HK.UTF-8', 'TERM': 'screen', 'SHELL': '/bin/bash', 'XDG_SESSION_PATH': '/org/freedesktop/DisplayManager/Session0', 'XAUTHORITY': '/home/hr/.Xauthority', 'LANGUAGE': 'en_HK:en', 'SESSION_MANAGER': 'local/hr2:@/tmp/.ICE-unix/1814,unix/hr2:/tmp/.ICE-unix/1814', 'SHLVL': '2', 'XDG_SESSION_ID': 'c1', 'MANDATORY_PATH': '/usr/share/gconf/ubuntu.mandatory.path', 'CLUTTER_IM_MODULE': 'xim', 'ROS_LOG_FILENAME': '/home/hr/.ros/log/f73245de-afbc-11e4-9d81-dc85debf707f/roslaunch-hr2-3028.log', 'QT4_IM_MODULE': 'xim', 'JOB': 'dbus', 'TEXTDOMAIN': 'im-config', 'SESSIONTYPE': 'gnome-session', 'XMODIFIERS': '@im=ibus', 'ROS_MASTER_URI': 'http://localhost:11311', 'GPG_AGENT_INFO': '/run/user/1000/keyring-yosRyz/gpg:0:1', 'HOME': '/home/hr', 'SELINUX_INIT': 'YES', 'XDG_RUNTIME_DIR': '/run/user/1000', 'CATKIN_TEST_RESULTS_DIR': '/catkin_ws/build/test_results', 'PYTHONPATH': '/catkin_ws/devel/lib/python2.7/dist-packages:/opt/ros/indigo/lib/python2.7/dist-packages', 'COMPIZ_CONFIG_PROFILE': 'ubuntu', 'SSH_AUTH_SOCK': '/run/user/1000/keyring-yosRyz/ssh', 'SESSION': 'ubuntu', 'VTE_VERSION': '3409', 'TMUX': '/tmp/tmux-1000/default,2980,0', 'ROS_ROOT': '/opt/ros/indigo/share/ros', 'GDMSESSION': 'ubuntu', 'IM_CONFIG_PHASE': '1', 'TEXTDOMAINDIR': '/usr/share/locale/', 'XDG_DATA_DIRS': '/usr/share/ubuntu:/usr/share/gnome:/usr/local/share/:/usr/share/', 'PKG_CONFIG_PATH': '/catkin_ws/devel/lib/pkgconfig:/catkin_ws/devel/lib/x86_64-linux-gnu/pkgconfig:/opt/ros/indigo/lib/x86_64-linux-gnu/pkgconfig:/opt/ros/indigo/lib/pkgconfig', 'ROS_PACKAGE_PATH': '/catkin_ws/src:/opt/ros/indigo/share:/opt/ros/indigo/stacks', 'ROS_TEST_RESULTS_DIR': '/catkin_ws/build/test_results', 'DBUS_SESSION_BUS_ADDRESS': 'unix:abstract=/tmp/dbus-hg8703FJxM', '_': '/opt/ros/indigo/bin/roslaunch', 'GTK_MODULES': 'overlay-scrollbar:unity-gtk-module', 'GTK_IM_MODULE': 'ibus', 'DESKTOP_SESSION': 'ubuntu', 'UPSTART_SESSION': 'unix:abstract=/com/ubuntu/upstart-session/1000/1668', 'XDG_CONFIG_DIRS': '/etc/xdg/xdg-ubuntu:/usr/share/upstart/xdg:/etc/xdg', 'DEFAULTS_PATH': '/usr/share/gconf/ubuntu.default.path', 'UBUNTU_MENUPROXY': '1', 'GDM_LANG': 'en_US', 'INSTANCE': '', 'PWD': '/home/hr', 'QT_IM_MODULE': 'ibus', 'ROS_ETC_DIR': '/opt/ros/indigo/etc/ros', 'SSH_AGENT_LAUNCHER': 'upstart', 'COLORTERM': 'gnome-terminal', 'DISPLAY': ':0.0', 'XDG_MENU_PREFIX': 'gnome-', 'TMUX_PANE': '%1', 'XDG_SEAT': 'seat0'}]
[roslaunch][INFO] 2015-02-09 02:04:54,655: process[fritz/middle_pololu_node-7]: args[[u'/catkin_ws/devel/lib/ros_pololu_servo/ros_pololu_servo_node', u'__name:=middle_pololu_node']]
[roslaunch][INFO] 2015-02-09 02:04:54,655: ... created process [fritz/middle_pololu_node-7]
[roslaunch.pmon][INFO] 2015-02-09 02:04:54,655: ProcessMonitor.register[fritz/middle_pololu_node-7]
[roslaunch.pmon][INFO] 2015-02-09 02:04:54,655: ProcessMonitor.register[fritz/middle_pololu_node-7] complete
[roslaunch][INFO] 2015-02-09 02:04:54,655: ... registered process [fritz/middle_pololu_node-7]
[roslaunch][INFO] 2015-02-09 02:04:54,655: process[fritz/middle_pololu_node-7]: starting os process
[roslaunch][INFO] 2015-02-09 02:04:54,655: process[fritz/middle_pololu_node-7]: start w/ args [[u'/catkin_ws/devel/lib/ros_pololu_servo/ros_pololu_servo_node', u'__name:=middle_pololu_node', u'__log:=/home/hr/.ros/log/f73245de-afbc-11e4-9d81-dc85debf707f/fritz-middle_pololu_node-7.log']]
[roslaunch][INFO] 2015-02-09 02:04:54,655: process[fritz/middle_pololu_node-7]: cwd will be [/home/hr/.ros]
[roslaunch][INFO] 2015-02-09 02:04:54,658: process[fritz/middle_pololu_node-7]: started with pid [3069]
[roslaunch][INFO] 2015-02-09 02:04:54,658: ... successfully launched [fritz/middle_pololu_node-7]
[roslaunch][INFO] 2015-02-09 02:04:54,658: ... preparing to launch node of type [topic_tools/mux]
[roslaunch][INFO] 2015-02-09 02:04:54,658: create_node_process: package[topic_tools] type[mux] machine[Machine(name[] env_loader[None] address[localhost] ssh_port[22] user[None] assignable[True] timeout[10.0])] master_uri[http://localhost:11311]
[roslaunch][INFO] 2015-02-09 02:04:54,658: process[fritz/neck_pau-8]: env[{'WINDOWID': '71303180', 'QT_QPA_PLATFORMTHEME': 'appmenu-qt5', 'ROS_DISTRO': 'indigo', 'XDG_GREETER_DATA_DIR': '/var/lib/lightdm-data/hr', 'GNOME_DESKTOP_SESSION_ID': 'this-is-deprecated', 'ROS_NAMESPACE': u'/fritz', 'XDG_CURRENT_DESKTOP': 'Unity', 'XDG_SEAT_PATH': '/org/freedesktop/DisplayManager/Seat0', 'ROSLISP_PACKAGE_DIRECTORIES': '/catkin_ws/devel/share/common-lisp', 'CPATH': '/catkin_ws/devel/include:/opt/ros/indigo/include', 'LOGNAME': 'hr', 'USER': 'hr', 'PATH': '/catkin_ws/devel/bin:/opt/ros/indigo/bin:/usr/local/sbin:/usr/local/bin:/usr/sbin:/usr/bin:/sbin:/bin:/usr/games:/usr/local/games', 'XDG_VTNR': '7', 'GNOME_KEYRING_CONTROL': '/run/user/1000/keyring-yosRyz', 'CMAKE_PREFIX_PATH': '/catkin_ws/devel:/opt/ros/indigo', 'LD_LIBRARY_PATH': '/catkin_ws/devel/lib:/catkin_ws/devel/lib/x86_64-linux-gnu:/opt/ros/indigo/lib/x86_64-linux-gnu:/opt/ros/indigo/lib', 'SSH_AGENT_PID': '1736', 'LANG': 'en_HK.UTF-8', 'TERM': 'screen', 'SHELL': '/bin/bash', 'XDG_SESSION_PATH': '/org/freedesktop/DisplayManager/Session0', 'XAUTHORITY': '/home/hr/.Xauthority', 'LANGUAGE': 'en_HK:en', 'SESSION_MANAGER': 'local/hr2:@/tmp/.ICE-unix/1814,unix/hr2:/tmp/.ICE-unix/1814', 'SHLVL': '2', 'XDG_SESSION_ID': 'c1', 'MANDATORY_PATH': '/usr/share/gconf/ubuntu.mandatory.path', 'CLUTTER_IM_MODULE': 'xim', 'ROS_LOG_FILENAME': '/home/hr/.ros/log/f73245de-afbc-11e4-9d81-dc85debf707f/roslaunch-hr2-3028.log', 'QT4_IM_MODULE': 'xim', 'JOB': 'dbus', 'TEXTDOMAIN': 'im-config', 'SESSIONTYPE': 'gnome-session', 'XMODIFIERS': '@im=ibus', 'ROS_MASTER_URI': 'http://localhost:11311', 'GPG_AGENT_INFO': '/run/user/1000/keyring-yosRyz/gpg:0:1', 'HOME': '/home/hr', 'SELINUX_INIT': 'YES', 'XDG_RUNTIME_DIR': '/run/user/1000', 'CATKIN_TEST_RESULTS_DIR': '/catkin_ws/build/test_results', 'PYTHONPATH': '/catkin_ws/devel/lib/python2.7/dist-packages:/opt/ros/indigo/lib/python2.7/dist-packages', 'COMPIZ_CONFIG_PROFILE': 'ubuntu', 'SSH_AUTH_SOCK': '/run/user/1000/keyring-yosRyz/ssh', 'SESSION': 'ubuntu', 'VTE_VERSION': '3409', 'TMUX': '/tmp/tmux-1000/default,2980,0', 'ROS_ROOT': '/opt/ros/indigo/share/ros', 'GDMSESSION': 'ubuntu', 'IM_CONFIG_PHASE': '1', 'TEXTDOMAINDIR': '/usr/share/locale/', 'XDG_DATA_DIRS': '/usr/share/ubuntu:/usr/share/gnome:/usr/local/share/:/usr/share/', 'PKG_CONFIG_PATH': '/catkin_ws/devel/lib/pkgconfig:/catkin_ws/devel/lib/x86_64-linux-gnu/pkgconfig:/opt/ros/indigo/lib/x86_64-linux-gnu/pkgconfig:/opt/ros/indigo/lib/pkgconfig', 'ROS_PACKAGE_PATH': '/catkin_ws/src:/opt/ros/indigo/share:/opt/ros/indigo/stacks', 'ROS_TEST_RESULTS_DIR': '/catkin_ws/build/test_results', 'DBUS_SESSION_BUS_ADDRESS': 'unix:abstract=/tmp/dbus-hg8703FJxM', '_': '/opt/ros/indigo/bin/roslaunch', 'GTK_MODULES': 'overlay-scrollbar:unity-gtk-module', 'GTK_IM_MODULE': 'ibus', 'DESKTOP_SESSION': 'ubuntu', 'UPSTART_SESSION': 'unix:abstract=/com/ubuntu/upstart-session/1000/1668', 'XDG_CONFIG_DIRS': '/etc/xdg/xdg-ubuntu:/usr/share/upstart/xdg:/etc/xdg', 'DEFAULTS_PATH': '/usr/share/gconf/ubuntu.default.path', 'UBUNTU_MENUPROXY': '1', 'GDM_LANG': 'en_US', 'INSTANCE': '', 'PWD': '/home/hr', 'QT_IM_MODULE': 'ibus', 'ROS_ETC_DIR': '/opt/ros/indigo/etc/ros', 'SSH_AGENT_LAUNCHER': 'upstart', 'COLORTERM': 'gnome-terminal', 'DISPLAY': ':0.0', 'XDG_MENU_PREFIX': 'gnome-', 'TMUX_PANE': '%1', 'XDG_SEAT': 'seat0'}]
[roslaunch][INFO] 2015-02-09 02:04:54,722: process[fritz/neck_pau-8]: args[[u'/opt/ros/indigo/lib/topic_tools/mux', 'neck_pau', 'cmd_neck_pau', '/blender_api/get_pau', 'mux:=neck_pau_mux', u'__name:=neck_pau']]
[roslaunch][INFO] 2015-02-09 02:04:54,723: ... created process [fritz/neck_pau-8]
[roslaunch.pmon][INFO] 2015-02-09 02:04:54,723: ProcessMonitor.register[fritz/neck_pau-8]
[roslaunch.pmon][INFO] 2015-02-09 02:04:54,723: ProcessMonitor.register[fritz/neck_pau-8] complete
[roslaunch][INFO] 2015-02-09 02:04:54,723: ... registered process [fritz/neck_pau-8]
[roslaunch][INFO] 2015-02-09 02:04:54,723: process[fritz/neck_pau-8]: starting os process
[roslaunch][INFO] 2015-02-09 02:04:54,723: process[fritz/neck_pau-8]: start w/ args [[u'/opt/ros/indigo/lib/topic_tools/mux', 'neck_pau', 'cmd_neck_pau', '/blender_api/get_pau', 'mux:=neck_pau_mux', u'__name:=neck_pau', u'__log:=/home/hr/.ros/log/f73245de-afbc-11e4-9d81-dc85debf707f/fritz-neck_pau-8.log']]
[roslaunch][INFO] 2015-02-09 02:04:54,723: process[fritz/neck_pau-8]: cwd will be [/home/hr/.ros]
[roslaunch][INFO] 2015-02-09 02:04:54,825: process[fritz/neck_pau-8]: started with pid [3108]
[roslaunch][INFO] 2015-02-09 02:04:54,826: ... successfully launched [fritz/neck_pau-8]
[roslaunch][INFO] 2015-02-09 02:04:54,826: ... preparing to launch node of type [topic_tools/mux]
[roslaunch][INFO] 2015-02-09 02:04:54,826: create_node_process: package[topic_tools] type[mux] machine[Machine(name[] env_loader[None] address[localhost] ssh_port[22] user[None] assignable[True] timeout[10.0])] master_uri[http://localhost:11311]
[roslaunch][INFO] 2015-02-09 02:04:54,826: process[fritz/head_pau-9]: env[{'WINDOWID': '71303180', 'QT_QPA_PLATFORMTHEME': 'appmenu-qt5', 'ROS_DISTRO': 'indigo', 'XDG_GREETER_DATA_DIR': '/var/lib/lightdm-data/hr', 'GNOME_DESKTOP_SESSION_ID': 'this-is-deprecated', 'ROS_NAMESPACE': u'/fritz', 'XDG_CURRENT_DESKTOP': 'Unity', 'XDG_SEAT_PATH': '/org/freedesktop/DisplayManager/Seat0', 'ROSLISP_PACKAGE_DIRECTORIES': '/catkin_ws/devel/share/common-lisp', 'CPATH': '/catkin_ws/devel/include:/opt/ros/indigo/include', 'LOGNAME': 'hr', 'USER': 'hr', 'PATH': '/catkin_ws/devel/bin:/opt/ros/indigo/bin:/usr/local/sbin:/usr/local/bin:/usr/sbin:/usr/bin:/sbin:/bin:/usr/games:/usr/local/games', 'XDG_VTNR': '7', 'GNOME_KEYRING_CONTROL': '/run/user/1000/keyring-yosRyz', 'CMAKE_PREFIX_PATH': '/catkin_ws/devel:/opt/ros/indigo', 'LD_LIBRARY_PATH': '/catkin_ws/devel/lib:/catkin_ws/devel/lib/x86_64-linux-gnu:/opt/ros/indigo/lib/x86_64-linux-gnu:/opt/ros/indigo/lib', 'SSH_AGENT_PID': '1736', 'LANG': 'en_HK.UTF-8', 'TERM': 'screen', 'SHELL': '/bin/bash', 'XDG_SESSION_PATH': '/org/freedesktop/DisplayManager/Session0', 'XAUTHORITY': '/home/hr/.Xauthority', 'LANGUAGE': 'en_HK:en', 'SESSION_MANAGER': 'local/hr2:@/tmp/.ICE-unix/1814,unix/hr2:/tmp/.ICE-unix/1814', 'SHLVL': '2', 'XDG_SESSION_ID': 'c1', 'MANDATORY_PATH': '/usr/share/gconf/ubuntu.mandatory.path', 'CLUTTER_IM_MODULE': 'xim', 'ROS_LOG_FILENAME': '/home/hr/.ros/log/f73245de-afbc-11e4-9d81-dc85debf707f/roslaunch-hr2-3028.log', 'QT4_IM_MODULE': 'xim', 'JOB': 'dbus', 'TEXTDOMAIN': 'im-config', 'SESSIONTYPE': 'gnome-session', 'XMODIFIERS': '@im=ibus', 'ROS_MASTER_URI': 'http://localhost:11311', 'GPG_AGENT_INFO': '/run/user/1000/keyring-yosRyz/gpg:0:1', 'HOME': '/home/hr', 'SELINUX_INIT': 'YES', 'XDG_RUNTIME_DIR': '/run/user/1000', 'CATKIN_TEST_RESULTS_DIR': '/catkin_ws/build/test_results', 'PYTHONPATH': '/catkin_ws/devel/lib/python2.7/dist-packages:/opt/ros/indigo/lib/python2.7/dist-packages', 'COMPIZ_CONFIG_PROFILE': 'ubuntu', 'SSH_AUTH_SOCK': '/run/user/1000/keyring-yosRyz/ssh', 'SESSION': 'ubuntu', 'VTE_VERSION': '3409', 'TMUX': '/tmp/tmux-1000/default,2980,0', 'ROS_ROOT': '/opt/ros/indigo/share/ros', 'GDMSESSION': 'ubuntu', 'IM_CONFIG_PHASE': '1', 'TEXTDOMAINDIR': '/usr/share/locale/', 'XDG_DATA_DIRS': '/usr/share/ubuntu:/usr/share/gnome:/usr/local/share/:/usr/share/', 'PKG_CONFIG_PATH': '/catkin_ws/devel/lib/pkgconfig:/catkin_ws/devel/lib/x86_64-linux-gnu/pkgconfig:/opt/ros/indigo/lib/x86_64-linux-gnu/pkgconfig:/opt/ros/indigo/lib/pkgconfig', 'ROS_PACKAGE_PATH': '/catkin_ws/src:/opt/ros/indigo/share:/opt/ros/indigo/stacks', 'ROS_TEST_RESULTS_DIR': '/catkin_ws/build/test_results', 'DBUS_SESSION_BUS_ADDRESS': 'unix:abstract=/tmp/dbus-hg8703FJxM', '_': '/opt/ros/indigo/bin/roslaunch', 'GTK_MODULES': 'overlay-scrollbar:unity-gtk-module', 'GTK_IM_MODULE': 'ibus', 'DESKTOP_SESSION': 'ubuntu', 'UPSTART_SESSION': 'unix:abstract=/com/ubuntu/upstart-session/1000/1668', 'XDG_CONFIG_DIRS': '/etc/xdg/xdg-ubuntu:/usr/share/upstart/xdg:/etc/xdg', 'DEFAULTS_PATH': '/usr/share/gconf/ubuntu.default.path', 'UBUNTU_MENUPROXY': '1', 'GDM_LANG': 'en_US', 'INSTANCE': '', 'PWD': '/home/hr', 'QT_IM_MODULE': 'ibus', 'ROS_ETC_DIR': '/opt/ros/indigo/etc/ros', 'SSH_AGENT_LAUNCHER': 'upstart', 'COLORTERM': 'gnome-terminal', 'DISPLAY': ':0.0', 'XDG_MENU_PREFIX': 'gnome-', 'TMUX_PANE': '%1', 'XDG_SEAT': 'seat0'}]
[roslaunch][INFO] 2015-02-09 02:04:54,861: process[fritz/head_pau-9]: args[[u'/opt/ros/indigo/lib/topic_tools/mux', 'head_pau', 'no_pau', '/blender_api/get_pau', 'mux:=head_pau_mux', u'__name:=head_pau']]
[roslaunch][INFO] 2015-02-09 02:04:54,861: ... created process [fritz/head_pau-9]
[roslaunch.pmon][INFO] 2015-02-09 02:04:54,861: ProcessMonitor.register[fritz/head_pau-9]
[roslaunch.pmon][INFO] 2015-02-09 02:04:54,861: ProcessMonitor.register[fritz/head_pau-9] complete
[roslaunch][INFO] 2015-02-09 02:04:54,861: ... registered process [fritz/head_pau-9]
[roslaunch][INFO] 2015-02-09 02:04:54,861: process[fritz/head_pau-9]: starting os process
[roslaunch][INFO] 2015-02-09 02:04:54,862: process[fritz/head_pau-9]: start w/ args [[u'/opt/ros/indigo/lib/topic_tools/mux', 'head_pau', 'no_pau', '/blender_api/get_pau', 'mux:=head_pau_mux', u'__name:=head_pau', u'__log:=/home/hr/.ros/log/f73245de-afbc-11e4-9d81-dc85debf707f/fritz-head_pau-9.log']]
[roslaunch][INFO] 2015-02-09 02:04:54,862: process[fritz/head_pau-9]: cwd will be [/home/hr/.ros]
[roslaunch][INFO] 2015-02-09 02:04:54,864: process[fritz/head_pau-9]: started with pid [3234]
[roslaunch][INFO] 2015-02-09 02:04:54,864: ... successfully launched [fritz/head_pau-9]
[roslaunch][INFO] 2015-02-09 02:04:54,864: ... preparing to launch node of type [chatbot/ai.py]
[roslaunch][INFO] 2015-02-09 02:04:54,864: create_node_process: package[chatbot] type[ai.py] machine[Machine(name[] env_loader[None] address[localhost] ssh_port[22] user[None] assignable[True] timeout[10.0])] master_uri[http://localhost:11311]
[roslaunch][INFO] 2015-02-09 02:04:54,864: process[fritz/chatbot_ai-10]: env[{'WINDOWID': '71303180', 'QT_QPA_PLATFORMTHEME': 'appmenu-qt5', 'ROS_DISTRO': 'indigo', 'XDG_GREETER_DATA_DIR': '/var/lib/lightdm-data/hr', 'GNOME_DESKTOP_SESSION_ID': 'this-is-deprecated', 'ROS_NAMESPACE': u'/fritz', 'XDG_CURRENT_DESKTOP': 'Unity', 'XDG_SEAT_PATH': '/org/freedesktop/DisplayManager/Seat0', 'ROSLISP_PACKAGE_DIRECTORIES': '/catkin_ws/devel/share/common-lisp', 'CPATH': '/catkin_ws/devel/include:/opt/ros/indigo/include', 'LOGNAME': 'hr', 'USER': 'hr', 'PATH': '/catkin_ws/devel/bin:/opt/ros/indigo/bin:/usr/local/sbin:/usr/local/bin:/usr/sbin:/usr/bin:/sbin:/bin:/usr/games:/usr/local/games', 'XDG_VTNR': '7', 'GNOME_KEYRING_CONTROL': '/run/user/1000/keyring-yosRyz', 'CMAKE_PREFIX_PATH': '/catkin_ws/devel:/opt/ros/indigo', 'LD_LIBRARY_PATH': '/catkin_ws/devel/lib:/catkin_ws/devel/lib/x86_64-linux-gnu:/opt/ros/indigo/lib/x86_64-linux-gnu:/opt/ros/indigo/lib', 'SSH_AGENT_PID': '1736', 'LANG': 'en_HK.UTF-8', 'TERM': 'screen', 'SHELL': '/bin/bash', 'XDG_SESSION_PATH': '/org/freedesktop/DisplayManager/Session0', 'XAUTHORITY': '/home/hr/.Xauthority', 'LANGUAGE': 'en_HK:en', 'SESSION_MANAGER': 'local/hr2:@/tmp/.ICE-unix/1814,unix/hr2:/tmp/.ICE-unix/1814', 'SHLVL': '2', 'XDG_SESSION_ID': 'c1', 'MANDATORY_PATH': '/usr/share/gconf/ubuntu.mandatory.path', 'CLUTTER_IM_MODULE': 'xim', 'ROS_LOG_FILENAME': '/home/hr/.ros/log/f73245de-afbc-11e4-9d81-dc85debf707f/roslaunch-hr2-3028.log', 'QT4_IM_MODULE': 'xim', 'JOB': 'dbus', 'TEXTDOMAIN': 'im-config', 'SESSIONTYPE': 'gnome-session', 'XMODIFIERS': '@im=ibus', 'ROS_MASTER_URI': 'http://localhost:11311', 'GPG_AGENT_INFO': '/run/user/1000/keyring-yosRyz/gpg:0:1', 'HOME': '/home/hr', 'SELINUX_INIT': 'YES', 'XDG_RUNTIME_DIR': '/run/user/1000', 'CATKIN_TEST_RESULTS_DIR': '/catkin_ws/build/test_results', 'PYTHONPATH': '/catkin_ws/devel/lib/python2.7/dist-packages:/opt/ros/indigo/lib/python2.7/dist-packages', 'COMPIZ_CONFIG_PROFILE': 'ubuntu', 'SSH_AUTH_SOCK': '/run/user/1000/keyring-yosRyz/ssh', 'SESSION': 'ubuntu', 'VTE_VERSION': '3409', 'TMUX': '/tmp/tmux-1000/default,2980,0', 'ROS_ROOT': '/opt/ros/indigo/share/ros', 'GDMSESSION': 'ubuntu', 'IM_CONFIG_PHASE': '1', 'TEXTDOMAINDIR': '/usr/share/locale/', 'XDG_DATA_DIRS': '/usr/share/ubuntu:/usr/share/gnome:/usr/local/share/:/usr/share/', 'PKG_CONFIG_PATH': '/catkin_ws/devel/lib/pkgconfig:/catkin_ws/devel/lib/x86_64-linux-gnu/pkgconfig:/opt/ros/indigo/lib/x86_64-linux-gnu/pkgconfig:/opt/ros/indigo/lib/pkgconfig', 'ROS_PACKAGE_PATH': '/catkin_ws/src:/opt/ros/indigo/share:/opt/ros/indigo/stacks', 'ROS_TEST_RESULTS_DIR': '/catkin_ws/build/test_results', 'DBUS_SESSION_BUS_ADDRESS': 'unix:abstract=/tmp/dbus-hg8703FJxM', '_': '/opt/ros/indigo/bin/roslaunch', 'GTK_MODULES': 'overlay-scrollbar:unity-gtk-module', 'GTK_IM_MODULE': 'ibus', 'DESKTOP_SESSION': 'ubuntu', 'UPSTART_SESSION': 'unix:abstract=/com/ubuntu/upstart-session/1000/1668', 'XDG_CONFIG_DIRS': '/etc/xdg/xdg-ubuntu:/usr/share/upstart/xdg:/etc/xdg', 'DEFAULTS_PATH': '/usr/share/gconf/ubuntu.default.path', 'UBUNTU_MENUPROXY': '1', 'GDM_LANG': 'en_US', 'INSTANCE': '', 'PWD': '/home/hr', 'QT_IM_MODULE': 'ibus', 'ROS_ETC_DIR': '/opt/ros/indigo/etc/ros', 'SSH_AGENT_LAUNCHER': 'upstart', 'COLORTERM': 'gnome-terminal', 'DISPLAY': ':0.0', 'XDG_MENU_PREFIX': 'gnome-', 'TMUX_PANE': '%1', 'XDG_SEAT': 'seat0'}]
[roslaunch][INFO] 2015-02-09 02:04:54,941: process[fritz/chatbot_ai-10]: args[[u'/catkin_ws/src/chatbot/scripts/ai.py', '/catkin_ws/src/chatbot/aiml/', u'__name:=chatbot_ai']]
[roslaunch][INFO] 2015-02-09 02:04:54,941: ... created process [fritz/chatbot_ai-10]
[roslaunch.pmon][INFO] 2015-02-09 02:04:54,942: ProcessMonitor.register[fritz/chatbot_ai-10]
[roslaunch.pmon][INFO] 2015-02-09 02:04:54,942: ProcessMonitor.register[fritz/chatbot_ai-10] complete
[roslaunch][INFO] 2015-02-09 02:04:54,942: ... registered process [fritz/chatbot_ai-10]
[roslaunch][INFO] 2015-02-09 02:04:54,942: process[fritz/chatbot_ai-10]: starting os process
[roslaunch][INFO] 2015-02-09 02:04:54,942: process[fritz/chatbot_ai-10]: start w/ args [[u'/catkin_ws/src/chatbot/scripts/ai.py', '/catkin_ws/src/chatbot/aiml/', u'__name:=chatbot_ai', u'__log:=/home/hr/.ros/log/f73245de-afbc-11e4-9d81-dc85debf707f/fritz-chatbot_ai-10.log']]
[roslaunch][INFO] 2015-02-09 02:04:54,942: process[fritz/chatbot_ai-10]: cwd will be [/home/hr/.ros]
[roslaunch][INFO] 2015-02-09 02:04:54,985: process[fritz/chatbot_ai-10]: started with pid [3300]
[roslaunch][INFO] 2015-02-09 02:04:54,985: ... successfully launched [fritz/chatbot_ai-10]
[roslaunch][INFO] 2015-02-09 02:04:54,985: ... preparing to launch node of type [tts/tts_talker.py]
[roslaunch][INFO] 2015-02-09 02:04:54,986: create_node_process: package[tts] type[tts_talker.py] machine[Machine(name[] env_loader[None] address[localhost] ssh_port[22] user[None] assignable[True] timeout[10.0])] master_uri[http://localhost:11311]
[roslaunch][INFO] 2015-02-09 02:04:54,986: process[fritz/tts-11]: env[{'WINDOWID': '71303180', 'QT_QPA_PLATFORMTHEME': 'appmenu-qt5', 'ROS_DISTRO': 'indigo', 'XDG_GREETER_DATA_DIR': '/var/lib/lightdm-data/hr', 'GNOME_DESKTOP_SESSION_ID': 'this-is-deprecated', 'ROS_NAMESPACE': u'/fritz', 'XDG_CURRENT_DESKTOP': 'Unity', 'XDG_SEAT_PATH': '/org/freedesktop/DisplayManager/Seat0', 'ROSLISP_PACKAGE_DIRECTORIES': '/catkin_ws/devel/share/common-lisp', 'CPATH': '/catkin_ws/devel/include:/opt/ros/indigo/include', 'LOGNAME': 'hr', 'USER': 'hr', 'PATH': '/catkin_ws/devel/bin:/opt/ros/indigo/bin:/usr/local/sbin:/usr/local/bin:/usr/sbin:/usr/bin:/sbin:/bin:/usr/games:/usr/local/games', 'XDG_VTNR': '7', 'GNOME_KEYRING_CONTROL': '/run/user/1000/keyring-yosRyz', 'CMAKE_PREFIX_PATH': '/catkin_ws/devel:/opt/ros/indigo', 'LD_LIBRARY_PATH': '/catkin_ws/devel/lib:/catkin_ws/devel/lib/x86_64-linux-gnu:/opt/ros/indigo/lib/x86_64-linux-gnu:/opt/ros/indigo/lib', 'SSH_AGENT_PID': '1736', 'LANG': 'en_HK.UTF-8', 'TERM': 'screen', 'SHELL': '/bin/bash', 'XDG_SESSION_PATH': '/org/freedesktop/DisplayManager/Session0', 'XAUTHORITY': '/home/hr/.Xauthority', 'LANGUAGE': 'en_HK:en', 'SESSION_MANAGER': 'local/hr2:@/tmp/.ICE-unix/1814,unix/hr2:/tmp/.ICE-unix/1814', 'SHLVL': '2', 'XDG_SESSION_ID': 'c1', 'MANDATORY_PATH': '/usr/share/gconf/ubuntu.mandatory.path', 'CLUTTER_IM_MODULE': 'xim', 'ROS_LOG_FILENAME': '/home/hr/.ros/log/f73245de-afbc-11e4-9d81-dc85debf707f/roslaunch-hr2-3028.log', 'QT4_IM_MODULE': 'xim', 'JOB': 'dbus', 'TEXTDOMAIN': 'im-config', 'SESSIONTYPE': 'gnome-session', 'XMODIFIERS': '@im=ibus', 'ROS_MASTER_URI': 'http://localhost:11311', 'GPG_AGENT_INFO': '/run/user/1000/keyring-yosRyz/gpg:0:1', 'HOME': '/home/hr', 'SELINUX_INIT': 'YES', 'XDG_RUNTIME_DIR': '/run/user/1000', 'CATKIN_TEST_RESULTS_DIR': '/catkin_ws/build/test_results', 'PYTHONPATH': '/catkin_ws/devel/lib/python2.7/dist-packages:/opt/ros/indigo/lib/python2.7/dist-packages', 'COMPIZ_CONFIG_PROFILE': 'ubuntu', 'SSH_AUTH_SOCK': '/run/user/1000/keyring-yosRyz/ssh', 'SESSION': 'ubuntu', 'VTE_VERSION': '3409', 'TMUX': '/tmp/tmux-1000/default,2980,0', 'ROS_ROOT': '/opt/ros/indigo/share/ros', 'GDMSESSION': 'ubuntu', 'IM_CONFIG_PHASE': '1', 'TEXTDOMAINDIR': '/usr/share/locale/', 'XDG_DATA_DIRS': '/usr/share/ubuntu:/usr/share/gnome:/usr/local/share/:/usr/share/', 'PKG_CONFIG_PATH': '/catkin_ws/devel/lib/pkgconfig:/catkin_ws/devel/lib/x86_64-linux-gnu/pkgconfig:/opt/ros/indigo/lib/x86_64-linux-gnu/pkgconfig:/opt/ros/indigo/lib/pkgconfig', 'ROS_PACKAGE_PATH': '/catkin_ws/src:/opt/ros/indigo/share:/opt/ros/indigo/stacks', 'ROS_TEST_RESULTS_DIR': '/catkin_ws/build/test_results', 'DBUS_SESSION_BUS_ADDRESS': 'unix:abstract=/tmp/dbus-hg8703FJxM', '_': '/opt/ros/indigo/bin/roslaunch', 'GTK_MODULES': 'overlay-scrollbar:unity-gtk-module', 'GTK_IM_MODULE': 'ibus', 'DESKTOP_SESSION': 'ubuntu', 'UPSTART_SESSION': 'unix:abstract=/com/ubuntu/upstart-session/1000/1668', 'XDG_CONFIG_DIRS': '/etc/xdg/xdg-ubuntu:/usr/share/upstart/xdg:/etc/xdg', 'DEFAULTS_PATH': '/usr/share/gconf/ubuntu.default.path', 'UBUNTU_MENUPROXY': '1', 'GDM_LANG': 'en_US', 'INSTANCE': '', 'PWD': '/home/hr', 'QT_IM_MODULE': 'ibus', 'ROS_ETC_DIR': '/opt/ros/indigo/etc/ros', 'SSH_AGENT_LAUNCHER': 'upstart', 'COLORTERM': 'gnome-terminal', 'DISPLAY': ':0.0', 'XDG_MENU_PREFIX': 'gnome-', 'TMUX_PANE': '%1', 'XDG_SEAT': 'seat0'}]
[roslaunch][INFO] 2015-02-09 02:04:55,084: process[fritz/tts-11]: args[[u'/catkin_ws/src/tts/scripts/tts_talker.py', u'__name:=tts']]
[roslaunch][INFO] 2015-02-09 02:04:55,085: ... created process [fritz/tts-11]
[roslaunch.pmon][INFO] 2015-02-09 02:04:55,085: ProcessMonitor.register[fritz/tts-11]
[roslaunch.pmon][INFO] 2015-02-09 02:04:55,085: ProcessMonitor.register[fritz/tts-11] complete
[roslaunch][INFO] 2015-02-09 02:04:55,085: ... registered process [fritz/tts-11]
[roslaunch][INFO] 2015-02-09 02:04:55,085: process[fritz/tts-11]: starting os process
[roslaunch][INFO] 2015-02-09 02:04:55,085: process[fritz/tts-11]: start w/ args [[u'/catkin_ws/src/tts/scripts/tts_talker.py', u'__name:=tts', u'__log:=/home/hr/.ros/log/f73245de-afbc-11e4-9d81-dc85debf707f/fritz-tts-11.log']]
[roslaunch][INFO] 2015-02-09 02:04:55,085: process[fritz/tts-11]: cwd will be [/home/hr/.ros]
[roslaunch][INFO] 2015-02-09 02:04:55,104: process[fritz/tts-11]: started with pid [3304]
[roslaunch][INFO] 2015-02-09 02:04:55,104: ... successfully launched [fritz/tts-11]
[roslaunch][INFO] 2015-02-09 02:04:55,104: ... launch_nodes complete
[roslaunch.pmon][INFO] 2015-02-09 02:04:55,104: registrations completed <ProcessMonitor(ProcessMonitor-1, started daemon 139835210057472)>
[roslaunch.parent][INFO] 2015-02-09 02:04:55,104: ... roslaunch parent running, waiting for process exit
[roslaunch][INFO] 2015-02-09 02:04:55,104: spin
[roslaunch][INFO] 2015-02-09 02:04:55,850: [fritz/neck_controller_spawner-2] process has finished cleanly
log file: /home/hr/.ros/log/f73245de-afbc-11e4-9d81-dc85debf707f/fritz-neck_controller_spawner-2*.log
[roslaunch.pmon][INFO] 2015-02-09 02:04:55,850: ProcessMonitor.unregister[fritz/neck_controller_spawner-2] starting
[roslaunch.pmon][INFO] 2015-02-09 02:04:55,850: ProcessMonitor.unregister[fritz/neck_controller_spawner-2] complete
[roslaunch.pmon][INFO] 2015-02-09 02:10:32,334: ProcessMonitor.shutdown <ProcessMonitor(ProcessMonitor-1, started daemon 139835210057472)>
[roslaunch.pmon][INFO] 2015-02-09 02:10:32,374: ProcessMonitor._post_run <ProcessMonitor(ProcessMonitor-1, started daemon 139835210057472)>
[roslaunch.pmon][INFO] 2015-02-09 02:10:32,374: ProcessMonitor._post_run <ProcessMonitor(ProcessMonitor-1, started daemon 139835210057472)>: remaining procs are [<roslaunch.nodeprocess.LocalProcess object at 0x7f2dec265d10>, <roslaunch.nodeprocess.LocalProcess object at 0x7f2dec265790>, <roslaunch.nodeprocess.LocalProcess object at 0x7f2dec6aaf50>, <roslaunch.nodeprocess.LocalProcess object at 0x7f2dec265e50>, <roslaunch.nodeprocess.LocalProcess object at 0x7f2dec6aa610>, <roslaunch.nodeprocess.LocalProcess object at 0x7f2dec265950>, <roslaunch.nodeprocess.LocalProcess object at 0x7f2dec72ae90>, <roslaunch.nodeprocess.LocalProcess object at 0x7f2dec6aa710>, <roslaunch.nodeprocess.LocalProcess object at 0x7f2dec265f10>, <roslaunch.nodeprocess.LocalProcess object at 0x7f2dec294e50>]
[roslaunch.pmon][INFO] 2015-02-09 02:10:32,374: ProcessMonitor exit: killing fritz/tts-11
[roslaunch.pmon][INFO] 2015-02-09 02:10:32,374: ProcessMonitor exit: killing fritz/chatbot_ai-10
[roslaunch][INFO] 2015-02-09 02:10:32,374: [fritz/tts-11] killing on exit
[roslaunch.pmon][INFO] 2015-02-09 02:10:32,375: ProcessMonitor exit: killing fritz/head_pau-9
[roslaunch][INFO] 2015-02-09 02:10:32,375: [fritz/chatbot_ai-10] killing on exit
[roslaunch][INFO] 2015-02-09 02:10:32,375: process[fritz/tts-11]: killing os process with pid[3304] pgid[3304]
[roslaunch][INFO] 2015-02-09 02:10:32,376: [fritz/tts-11] sending SIGINT to pgid [3304]
[roslaunch][INFO] 2015-02-09 02:10:32,376: [fritz/tts-11] sent SIGINT to pgid [3304]
[roslaunch.pmon][INFO] 2015-02-09 02:10:32,375: ProcessMonitor exit: killing fritz/middle_pololu_node-7
[roslaunch.pmon][INFO] 2015-02-09 02:10:32,376: ProcessMonitor exit: killing fritz/right_pololu_node-6
[roslaunch][INFO] 2015-02-09 02:10:32,376: process[fritz/chatbot_ai-10]: killing os process with pid[3300] pgid[3300]
[roslaunch][INFO] 2015-02-09 02:10:32,375: [fritz/head_pau-9] killing on exit
[roslaunch.pmon][INFO] 2015-02-09 02:10:32,375: ProcessMonitor exit: killing fritz/neck_pau-8
[roslaunch.pmon][INFO] 2015-02-09 02:10:32,376: ProcessMonitor exit: killing fritz/left_pololu_node-5
[roslaunch][INFO] 2015-02-09 02:10:32,378: [fritz/left_pololu_node-5] killing on exit
[roslaunch][INFO] 2015-02-09 02:10:32,377: [fritz/right_pololu_node-6] killing on exit
[roslaunch.pmon][INFO] 2015-02-09 02:10:32,377: ProcessMonitor exit: killing fritz/basic_head_api-4
[roslaunch][INFO] 2015-02-09 02:10:32,378: [fritz/basic_head_api-4] killing on exit
[roslaunch][INFO] 2015-02-09 02:10:32,378: process[fritz/basic_head_api-4]: killing os process with pid[3057] pgid[3057]
[roslaunch][INFO] 2015-02-09 02:10:32,377: process[fritz/head_pau-9]: killing os process with pid[3234] pgid[3234]
[roslaunch][INFO] 2015-02-09 02:10:32,378: [fritz/neck_pau-8] killing on exit
[roslaunch][INFO] 2015-02-09 02:10:32,377: [fritz/middle_pololu_node-7] killing on exit
[roslaunch.pmon][INFO] 2015-02-09 02:10:32,378: ProcessMonitor exit: killing fritz/dynamixel_manager-1
[roslaunch][INFO] 2015-02-09 02:10:32,378: process[fritz/left_pololu_node-5]: killing os process with pid[3066] pgid[3066]
[roslaunch][INFO] 2015-02-09 02:10:32,378: process[fritz/right_pololu_node-6]: killing os process with pid[3068] pgid[3068]
[roslaunch][INFO] 2015-02-09 02:10:32,378: [fritz/basic_head_api-4] sending SIGINT to pgid [3057]
[roslaunch][INFO] 2015-02-09 02:10:32,379: [fritz/basic_head_api-4] sent SIGINT to pgid [3057]
[roslaunch][INFO] 2015-02-09 02:10:32,377: [fritz/chatbot_ai-10] sending SIGINT to pgid [3300]
[roslaunch][INFO] 2015-02-09 02:10:32,379: [fritz/head_pau-9] sending SIGINT to pgid [3234]
[roslaunch][INFO] 2015-02-09 02:10:32,379: process[fritz/neck_pau-8]: killing os process with pid[3108] pgid[3108]
[roslaunch][INFO] 2015-02-09 02:10:32,380: [fritz/neck_pau-8] sending SIGINT to pgid [3108]
[roslaunch][INFO] 2015-02-09 02:10:32,379: process[fritz/middle_pololu_node-7]: killing os process with pid[3069] pgid[3069]
[roslaunch][INFO] 2015-02-09 02:10:32,379: [fritz/dynamixel_manager-1] killing on exit
[roslaunch][INFO] 2015-02-09 02:10:32,379: [fritz/right_pololu_node-6] sending SIGINT to pgid [3068]
[roslaunch][INFO] 2015-02-09 02:10:32,380: [fritz/chatbot_ai-10] sent SIGINT to pgid [3300]
[roslaunch.pmon][INFO] 2015-02-09 02:10:32,377: ProcessMonitor exit: killing fritz/pau2motors-3
[roslaunch][INFO] 2015-02-09 02:10:32,380: [fritz/head_pau-9] sent SIGINT to pgid [3234]
[roslaunch][INFO] 2015-02-09 02:10:32,380: [fritz/neck_pau-8] sent SIGINT to pgid [3108]
[roslaunch][INFO] 2015-02-09 02:10:32,379: [fritz/left_pololu_node-5] sending SIGINT to pgid [3066]
[roslaunch][INFO] 2015-02-09 02:10:32,380: [fritz/middle_pololu_node-7] sending SIGINT to pgid [3069]
[roslaunch][INFO] 2015-02-09 02:10:32,380: [fritz/right_pololu_node-6] sent SIGINT to pgid [3068]
[roslaunch][INFO] 2015-02-09 02:10:32,380: process[fritz/dynamixel_manager-1]: killing os process with pid[3046] pgid[3046]
[roslaunch][INFO] 2015-02-09 02:10:32,381: [fritz/pau2motors-3] killing on exit
[roslaunch][INFO] 2015-02-09 02:10:32,381: [fritz/left_pololu_node-5] sent SIGINT to pgid [3066]
[roslaunch][INFO] 2015-02-09 02:10:32,381: [fritz/middle_pololu_node-7] sent SIGINT to pgid [3069]
[roslaunch][INFO] 2015-02-09 02:10:32,381: [fritz/dynamixel_manager-1] sending SIGINT to pgid [3046]
[roslaunch][INFO] 2015-02-09 02:10:32,381: process[fritz/pau2motors-3]: killing os process with pid[3052] pgid[3052]
[roslaunch][INFO] 2015-02-09 02:10:32,382: [fritz/dynamixel_manager-1] sent SIGINT to pgid [3046]
[roslaunch][INFO] 2015-02-09 02:10:32,382: [fritz/pau2motors-3] sending SIGINT to pgid [3052]
[roslaunch][INFO] 2015-02-09 02:10:32,382: [fritz/pau2motors-3] sent SIGINT to pgid [3052]
[roslaunch][INFO] 2015-02-09 02:10:32,581: process[fritz/head_pau-9]: SIGINT killed with return value 0
[roslaunch][INFO] 2015-02-09 02:10:32,681: process[fritz/neck_pau-8]: SIGINT killed with return value 0
[roslaunch][INFO] 2015-02-09 02:10:32,782: process[fritz/right_pololu_node-6]: SIGINT killed with return value 0
[roslaunch][INFO] 2015-02-09 02:10:32,782: process[fritz/left_pololu_node-5]: SIGINT killed with return value 0
[roslaunch][INFO] 2015-02-09 02:10:32,782: process[fritz/middle_pololu_node-7]: SIGINT killed with return value 0
[roslaunch][INFO] 2015-02-09 02:10:33,077: process[fritz/tts-11]: SIGINT killed with return value 0
[roslaunch][INFO] 2015-02-09 02:10:33,081: process[fritz/basic_head_api-4]: SIGINT killed with return value 0
[roslaunch][INFO] 2015-02-09 02:10:33,081: process[fritz/chatbot_ai-10]: SIGINT killed with return value 0
[roslaunch][INFO] 2015-02-09 02:10:33,083: process[fritz/pau2motors-3]: SIGINT killed with return value 0
[roslaunch][INFO] 2015-02-09 02:10:33,484: process[fritz/dynamixel_manager-1]: SIGINT killed with return value 0
[roslaunch.pmon][INFO] 2015-02-09 02:10:33,484: ProcessMonitor exit: cleaning up data structures and signals
[roslaunch.pmon][INFO] 2015-02-09 02:10:33,485: ProcessMonitor exit: pmon has shutdown
[roslaunch][INFO] 2015-02-09 02:10:33,502: process monitor is done spinning, initiating full shutdown
[roslaunch][INFO] 2015-02-09 02:10:33,503: runner.stop()
[roslaunch][INFO] 2015-02-09 02:10:33,503: shutting down processing monitor...
[roslaunch][INFO] 2015-02-09 02:10:33,503: shutting down processing monitor <ProcessMonitor(ProcessMonitor-1, stopped daemon 139835210057472)>
[roslaunch.pmon][INFO] 2015-02-09 02:10:33,503: ProcessMonitor.shutdown <ProcessMonitor(ProcessMonitor-1, stopped daemon 139835210057472)>
[roslaunch][INFO] 2015-02-09 02:10:33,503: ... shutting down processing monitor complete
[roslaunch][INFO] 2015-02-09 02:10:33,504: done
[roslaunch.pmon][INFO] 2015-02-09 02:10:33,504: ProcessMonitor.shutdown <ProcessMonitor(ProcessMonitor-1, stopped daemon 139835210057472)>
[rospy.core][INFO] 2015-02-09 02:10:33,505: signal_shutdown [atexit]
