[roslaunch][INFO] 2015-02-08 23:23:07,170: Checking log directory for disk usage. This may take awhile.
Press Ctrl-C to interrupt
[roslaunch][ERROR] 2015-02-08 23:23:07,179: WARNING: disk usage in log directory [/home/hr/.ros/log] is over 1GB.
It's recommended that you use the 'rosclean' command.
[roslaunch][INFO] 2015-02-08 23:23:07,179: roslaunch starting with args ['roscore', '--core']
[roslaunch][INFO] 2015-02-08 23:23:07,180: roslaunch env is {'INSTANCE': '', 'MANDATORY_PATH': '/usr/share/gconf/ubuntu.mandatory.path', 'ROS_DISTRO': 'indigo', 'ROS_LOG_FILENAME': '/home/hr/.ros/log/61fe25a2-afa6-11e4-a87b-dc85debf707f/roslaunch-hr2-10497.log', 'XDG_GREETER_DATA_DIR': '/var/lib/lightdm-data/hr', 'GNOME_DESKTOP_SESSION_ID': 'this-is-deprecated', 'GTK_IM_MODULE': 'ibus', 'XDG_CURRENT_DESKTOP': 'Unity', 'PKG_CONFIG_PATH': '/catkin_ws/devel/lib/pkgconfig:/catkin_ws/devel/lib/x86_64-linux-gnu/pkgconfig:/opt/ros/indigo/lib/x86_64-linux-gnu/pkgconfig:/opt/ros/indigo/lib/pkgconfig', 'ROSLISP_PACKAGE_DIRECTORIES': '/catkin_ws/devel/share/common-lisp', 'CPATH': '/catkin_ws/devel/include:/opt/ros/indigo/include', 'LOGNAME': 'hr', 'USER': 'hr', 'PATH': '/catkin_ws/devel/bin:/opt/ros/indigo/bin:/usr/local/sbin:/usr/local/bin:/usr/sbin:/usr/bin:/sbin:/bin:/usr/games:/usr/local/games', 'XDG_VTNR': '7', 'GNOME_KEYRING_CONTROL': '/run/user/1000/keyring-vgbpkC', 'CMAKE_PREFIX_PATH': '/catkin_ws/devel:/opt/ros/indigo', 'LD_LIBRARY_PATH': '/catkin_ws/devel/lib:/catkin_ws/devel/lib/x86_64-linux-gnu:/opt/ros/indigo/lib/x86_64-linux-gnu:/opt/ros/indigo/lib', 'SSH_AGENT_PID': '1740', 'LANG': 'en_HK.UTF-8', 'TERM': 'screen', 'SHELL': '/bin/bash', 'XDG_SESSION_PATH': '/org/freedesktop/DisplayManager/Session0', 'XAUTHORITY': '/home/hr/.Xauthority', 'LANGUAGE': 'en_HK:en', 'SESSION_MANAGER': 'local/hr2:@/tmp/.ICE-unix/1809,unix/hr2:/tmp/.ICE-unix/1809', 'SHLVL': '2', 'ROS_TEST_RESULTS_DIR': '/catkin_ws/build/test_results', 'QT_QPA_PLATFORMTHEME': 'appmenu-qt5', 'JOB': 'dbus', 'TEXTDOMAIN': 'im-config', 'QT4_IM_MODULE': 'xim', 'CLUTTER_IM_MODULE': 'xim', 'WINDOWID': '71303180', 'SESSIONTYPE': 'gnome-session', 'XMODIFIERS': '@im=ibus', 'ROS_ETC_DIR': '/opt/ros/indigo/etc/ros', 'GPG_AGENT_INFO': '/run/user/1000/keyring-vgbpkC/gpg:0:1', 'HOME': '/home/hr', 'SELINUX_INIT': 'YES', 'XDG_RUNTIME_DIR': '/run/user/1000', 'CATKIN_TEST_RESULTS_DIR': '/catkin_ws/build/test_results', 'PYTHONPATH': '/catkin_ws/devel/lib/python2.7/dist-packages:/opt/ros/indigo/lib/python2.7/dist-packages', 'COMPIZ_CONFIG_PROFILE': 'ubuntu', 'SSH_AUTH_SOCK': '/run/user/1000/keyring-vgbpkC/ssh', 'VTE_VERSION': '3409', 'TMUX': '/tmp/tmux-1000/default,10494,0', 'ROS_ROOT': '/opt/ros/indigo/share/ros', 'GDMSESSION': 'ubuntu', 'IM_CONFIG_PHASE': '1', 'TEXTDOMAINDIR': '/usr/share/locale/', 'XDG_SEAT_PATH': '/org/freedesktop/DisplayManager/Seat0', 'ROS_PACKAGE_PATH': '/catkin_ws/src:/opt/ros/indigo/share:/opt/ros/indigo/stacks', 'XDG_SESSION_ID': 'c1', 'DBUS_SESSION_BUS_ADDRESS': 'unix:abstract=/tmp/dbus-vu2qBfsrl9', '_': '/opt/ros/indigo/bin/roscore', 'DEFAULTS_PATH': '/usr/share/gconf/ubuntu.default.path', 'SESSION': 'ubuntu', 'DESKTOP_SESSION': 'ubuntu', 'UPSTART_SESSION': 'unix:abstract=/com/ubuntu/upstart-session/1000/1666', 'XDG_CONFIG_DIRS': '/etc/xdg/xdg-ubuntu:/usr/share/upstart/xdg:/etc/xdg', 'GTK_MODULES': 'overlay-scrollbar:unity-gtk-module', 'UBUNTU_MENUPROXY': '1', 'GDM_LANG': 'en_US', 'XDG_DATA_DIRS': '/usr/share/ubuntu:/usr/share/gnome:/usr/local/share/:/usr/share/', 'PWD': '/home/hr', 'QT_IM_MODULE': 'ibus', 'ROS_MASTER_URI': 'http://localhost:11311', 'SSH_AGENT_LAUNCHER': 'upstart', 'COLORTERM': 'gnome-terminal', 'DISPLAY': ':0.0', 'XDG_MENU_PREFIX': 'gnome-', 'TMUX_PANE': '%0', 'XDG_SEAT': 'seat0'}
[roslaunch][INFO] 2015-02-08 23:23:07,180: starting in server mode
[roslaunch.parent][INFO] 2015-02-08 23:23:07,180: starting roslaunch parent run
[roslaunch][INFO] 2015-02-08 23:23:07,180: loading roscore config file /opt/ros/indigo/etc/ros/roscore.xml
[roslaunch][INFO] 2015-02-08 23:23:07,337: Added core node of type [rosout/rosout] in namespace [/]
[roslaunch.pmon][INFO] 2015-02-08 23:23:07,337: start_process_monitor: creating ProcessMonitor
[roslaunch.pmon][INFO] 2015-02-08 23:23:07,337: created process monitor <ProcessMonitor(ProcessMonitor-1, initial daemon)>
[roslaunch.pmon][INFO] 2015-02-08 23:23:07,337: start_process_monitor: ProcessMonitor started
[roslaunch.parent][INFO] 2015-02-08 23:23:07,338: starting parent XML-RPC server
[roslaunch.server][INFO] 2015-02-08 23:23:07,338: starting roslaunch XML-RPC server
[roslaunch.server][INFO] 2015-02-08 23:23:07,338: waiting for roslaunch XML-RPC server to initialize
[xmlrpc][INFO] 2015-02-08 23:23:07,338: XML-RPC server binding to 0.0.0.0:0
[xmlrpc][INFO] 2015-02-08 23:23:07,338: Started XML-RPC server [http://hr2:45387/]
[xmlrpc][INFO] 2015-02-08 23:23:07,338: xml rpc node: starting XML-RPC server
[roslaunch][INFO] 2015-02-08 23:23:07,349: started roslaunch server http://hr2:45387/
[roslaunch.parent][INFO] 2015-02-08 23:23:07,349: ... parent XML-RPC server started
[roslaunch][INFO] 2015-02-08 23:23:07,350: master.is_running[http://hr2:11311/]
[roslaunch][INFO] 2015-02-08 23:23:07,351: auto-starting new master
[roslaunch][INFO] 2015-02-08 23:23:07,351: create_master_process: rosmaster, /opt/ros/indigo/share/ros, 11311
[roslaunch][INFO] 2015-02-08 23:23:07,351: process[master]: launching with args [['rosmaster', '--core', '-p', '11311']]
[roslaunch.pmon][INFO] 2015-02-08 23:23:07,351: ProcessMonitor.register[master]
[roslaunch.pmon][INFO] 2015-02-08 23:23:07,351: ProcessMonitor.register[master] complete
[roslaunch][INFO] 2015-02-08 23:23:07,351: process[master]: starting os process
[roslaunch][INFO] 2015-02-08 23:23:07,351: process[master]: start w/ args [['rosmaster', '--core', '-p', '11311', '__log:=/home/hr/.ros/log/61fe25a2-afa6-11e4-a87b-dc85debf707f/master.log']]
[roslaunch][INFO] 2015-02-08 23:23:07,351: process[master]: cwd will be [/home/hr/.ros]
[roslaunch][INFO] 2015-02-08 23:23:07,353: process[master]: started with pid [10512]
[roslaunch][INFO] 2015-02-08 23:23:07,353: master.is_running[http://hr2:11311/]
[roslaunch][INFO] 2015-02-08 23:23:07,454: master.is_running[http://hr2:11311/]
[roslaunch][INFO] 2015-02-08 23:23:07,456: master.is_running[http://hr2:11311/]
[roslaunch][INFO] 2015-02-08 23:23:07,457: ROS_MASTER_URI=http://hr2:11311/
[roslaunch][INFO] 2015-02-08 23:23:07,458: setting /run_id to 61fe25a2-afa6-11e4-a87b-dc85debf707f
[roslaunch][INFO] 2015-02-08 23:23:07,459: setting /roslaunch/uris/host_hr2__45387' to http://hr2:45387/
[roslaunch][INFO] 2015-02-08 23:23:07,461: ... preparing to launch node of type [rosout/rosout]
[roslaunch][INFO] 2015-02-08 23:23:07,461: create_node_process: package[rosout] type[rosout] machine[Machine(name[] env_loader[None] address[localhost] ssh_port[22] user[None] assignable[True] timeout[10.0])] master_uri[http://hr2:11311/]
[roslaunch][INFO] 2015-02-08 23:23:07,461: process[rosout-1]: env[{'WINDOWID': '71303180', 'QT_QPA_PLATFORMTHEME': 'appmenu-qt5', 'ROS_DISTRO': 'indigo', 'XDG_GREETER_DATA_DIR': '/var/lib/lightdm-data/hr', 'GNOME_DESKTOP_SESSION_ID': 'this-is-deprecated', 'XDG_CURRENT_DESKTOP': 'Unity', 'XDG_SEAT_PATH': '/org/freedesktop/DisplayManager/Seat0', 'ROSLISP_PACKAGE_DIRECTORIES': '/catkin_ws/devel/share/common-lisp', 'CPATH': '/catkin_ws/devel/include:/opt/ros/indigo/include', 'LOGNAME': 'hr', 'USER': 'hr', 'PATH': '/catkin_ws/devel/bin:/opt/ros/indigo/bin:/usr/local/sbin:/usr/local/bin:/usr/sbin:/usr/bin:/sbin:/bin:/usr/games:/usr/local/games', 'XDG_VTNR': '7', 'GNOME_KEYRING_CONTROL': '/run/user/1000/keyring-vgbpkC', 'CMAKE_PREFIX_PATH': '/catkin_ws/devel:/opt/ros/indigo', 'LD_LIBRARY_PATH': '/catkin_ws/devel/lib:/catkin_ws/devel/lib/x86_64-linux-gnu:/opt/ros/indigo/lib/x86_64-linux-gnu:/opt/ros/indigo/lib', 'SSH_AGENT_PID': '1740', 'LANG': 'en_HK.UTF-8', 'TERM': 'screen', 'SHELL': '/bin/bash', 'XDG_SESSION_PATH': '/org/freedesktop/DisplayManager/Session0', 'XAUTHORITY': '/home/hr/.Xauthority', 'LANGUAGE': 'en_HK:en', 'SESSION_MANAGER': 'local/hr2:@/tmp/.ICE-unix/1809,unix/hr2:/tmp/.ICE-unix/1809', 'SHLVL': '2', 'XDG_SESSION_ID': 'c1', 'MANDATORY_PATH': '/usr/share/gconf/ubuntu.mandatory.path', 'CLUTTER_IM_MODULE': 'xim', 'ROS_LOG_FILENAME': '/home/hr/.ros/log/61fe25a2-afa6-11e4-a87b-dc85debf707f/roslaunch-hr2-10497.log', 'QT4_IM_MODULE': 'xim', 'JOB': 'dbus', 'TEXTDOMAIN': 'im-config', 'SESSIONTYPE': 'gnome-session', 'XMODIFIERS': '@im=ibus', 'ROS_MASTER_URI': 'http://hr2:11311/', 'GPG_AGENT_INFO': '/run/user/1000/keyring-vgbpkC/gpg:0:1', 'HOME': '/home/hr', 'SELINUX_INIT': 'YES', 'XDG_RUNTIME_DIR': '/run/user/1000', 'CATKIN_TEST_RESULTS_DIR': '/catkin_ws/build/test_results', 'PYTHONPATH': '/catkin_ws/devel/lib/python2.7/dist-packages:/opt/ros/indigo/lib/python2.7/dist-packages', 'COMPIZ_CONFIG_PROFILE': 'ubuntu', 'SSH_AUTH_SOCK': '/run/user/1000/keyring-vgbpkC/ssh', 'SESSION': 'ubuntu', 'VTE_VERSION': '3409', 'TMUX': '/tmp/tmux-1000/default,10494,0', 'ROS_ROOT': '/opt/ros/indigo/share/ros', 'GDMSESSION': 'ubuntu', 'IM_CONFIG_PHASE': '1', 'TEXTDOMAINDIR': '/usr/share/locale/', 'XDG_DATA_DIRS': '/usr/share/ubuntu:/usr/share/gnome:/usr/local/share/:/usr/share/', 'PKG_CONFIG_PATH': '/catkin_ws/devel/lib/pkgconfig:/catkin_ws/devel/lib/x86_64-linux-gnu/pkgconfig:/opt/ros/indigo/lib/x86_64-linux-gnu/pkgconfig:/opt/ros/indigo/lib/pkgconfig', 'ROS_PACKAGE_PATH': '/catkin_ws/src:/opt/ros/indigo/share:/opt/ros/indigo/stacks', 'ROS_TEST_RESULTS_DIR': '/catkin_ws/build/test_results', 'DBUS_SESSION_BUS_ADDRESS': 'unix:abstract=/tmp/dbus-vu2qBfsrl9', '_': '/opt/ros/indigo/bin/roscore', 'GTK_MODULES': 'overlay-scrollbar:unity-gtk-module', 'GTK_IM_MODULE': 'ibus', 'DESKTOP_SESSION': 'ubuntu', 'UPSTART_SESSION': 'unix:abstract=/com/ubuntu/upstart-session/1000/1666', 'XDG_CONFIG_DIRS': '/etc/xdg/xdg-ubuntu:/usr/share/upstart/xdg:/etc/xdg', 'DEFAULTS_PATH': '/usr/share/gconf/ubuntu.default.path', 'UBUNTU_MENUPROXY': '1', 'GDM_LANG': 'en_US', 'INSTANCE': '', 'PWD': '/home/hr', 'QT_IM_MODULE': 'ibus', 'ROS_ETC_DIR': '/opt/ros/indigo/etc/ros', 'SSH_AGENT_LAUNCHER': 'upstart', 'COLORTERM': 'gnome-terminal', 'DISPLAY': ':0.0', 'XDG_MENU_PREFIX': 'gnome-', 'TMUX_PANE': '%0', 'XDG_SEAT': 'seat0'}]
[roslaunch][INFO] 2015-02-08 23:23:07,500: process[rosout-1]: args[[u'/opt/ros/indigo/lib/rosout/rosout', u'__name:=rosout']]
[roslaunch][INFO] 2015-02-08 23:23:07,500: ... created process [rosout-1]
[roslaunch.pmon][INFO] 2015-02-08 23:23:07,500: ProcessMonitor.register[rosout-1]
[roslaunch.pmon][INFO] 2015-02-08 23:23:07,500: ProcessMonitor.register[rosout-1] complete
[roslaunch][INFO] 2015-02-08 23:23:07,500: ... registered process [rosout-1]
[roslaunch][INFO] 2015-02-08 23:23:07,500: process[rosout-1]: starting os process
[roslaunch][INFO] 2015-02-08 23:23:07,500: process[rosout-1]: start w/ args [[u'/opt/ros/indigo/lib/rosout/rosout', u'__name:=rosout', u'__log:=/home/hr/.ros/log/61fe25a2-afa6-11e4-a87b-dc85debf707f/rosout-1.log']]
[roslaunch][INFO] 2015-02-08 23:23:07,500: process[rosout-1]: cwd will be [/home/hr/.ros]
[roslaunch][INFO] 2015-02-08 23:23:07,502: process[rosout-1]: started with pid [10525]
[roslaunch][INFO] 2015-02-08 23:23:07,502: ... successfully launched [rosout-1]
[roslaunch][INFO] 2015-02-08 23:23:07,502: load_parameters starting ...
[roslaunch][INFO] 2015-02-08 23:23:07,505: ... load_parameters complete
[roslaunch][INFO] 2015-02-08 23:23:07,505: launch_nodes: launching local nodes ...
[roslaunch][INFO] 2015-02-08 23:23:07,505: ... launch_nodes complete
[roslaunch.pmon][INFO] 2015-02-08 23:23:07,505: registrations completed <ProcessMonitor(ProcessMonitor-1, started daemon 140599282632448)>
[roslaunch.parent][INFO] 2015-02-08 23:23:07,506: ... roslaunch parent running, waiting for process exit
[roslaunch][INFO] 2015-02-08 23:23:07,506: spin
[roslaunch.pmon][INFO] 2015-02-08 23:25:27,213: ProcessMonitor.shutdown <ProcessMonitor(ProcessMonitor-1, started daemon 140599282632448)>
[roslaunch.pmon][INFO] 2015-02-08 23:25:27,278: ProcessMonitor._post_run <ProcessMonitor(ProcessMonitor-1, started daemon 140599282632448)>
[roslaunch.pmon][INFO] 2015-02-08 23:25:27,278: ProcessMonitor._post_run <ProcessMonitor(ProcessMonitor-1, started daemon 140599282632448)>: remaining procs are [<roslaunch.nodeprocess.LocalProcess object at 0x7fdfd2e92910>, <roslaunch.nodeprocess.LocalProcess object at 0x7fdfd24d0290>]
[roslaunch.pmon][INFO] 2015-02-08 23:25:27,285: ProcessMonitor exit: killing rosout-1
[roslaunch][INFO] 2015-02-08 23:25:27,285: [rosout-1] killing on exit
[roslaunch][INFO] 2015-02-08 23:25:27,286: process[rosout-1]: killing os process with pid[10525] pgid[10525]
[roslaunch][INFO] 2015-02-08 23:25:27,286: [rosout-1] sending SIGINT to pgid [10525]
[roslaunch][INFO] 2015-02-08 23:25:27,286: [rosout-1] sent SIGINT to pgid [10525]
[roslaunch][INFO] 2015-02-08 23:25:27,586: process[rosout-1]: SIGINT killed with return value 0
[roslaunch.pmon][INFO] 2015-02-08 23:25:27,587: ProcessMonitor exit: killing master
[roslaunch][INFO] 2015-02-08 23:25:27,587: [master] killing on exit
[roslaunch][INFO] 2015-02-08 23:25:27,587: process[master]: killing os process with pid[10512] pgid[10512]
[roslaunch][INFO] 2015-02-08 23:25:27,587: [master] sending SIGINT to pgid [10512]
[roslaunch][INFO] 2015-02-08 23:25:27,587: [master] sent SIGINT to pgid [10512]
[roslaunch][INFO] 2015-02-08 23:25:27,788: process[master]: SIGINT killed with return value 0
[roslaunch.pmon][INFO] 2015-02-08 23:25:27,788: ProcessMonitor exit: cleaning up data structures and signals
[roslaunch.pmon][INFO] 2015-02-08 23:25:27,788: ProcessMonitor exit: pmon has shutdown
[roslaunch][INFO] 2015-02-08 23:25:27,828: process monitor is done spinning, initiating full shutdown
[roslaunch][INFO] 2015-02-08 23:25:27,829: runner.stop()
[roslaunch][INFO] 2015-02-08 23:25:27,829: shutting down processing monitor...
[roslaunch][INFO] 2015-02-08 23:25:27,829: shutting down processing monitor <ProcessMonitor(ProcessMonitor-1, stopped daemon 140599282632448)>
[roslaunch.pmon][INFO] 2015-02-08 23:25:27,829: ProcessMonitor.shutdown <ProcessMonitor(ProcessMonitor-1, stopped daemon 140599282632448)>
[roslaunch][INFO] 2015-02-08 23:25:27,829: ... shutting down processing monitor complete
[roslaunch][INFO] 2015-02-08 23:25:27,830: done
[roslaunch.pmon][INFO] 2015-02-08 23:25:27,830: ProcessMonitor.shutdown <ProcessMonitor(ProcessMonitor-1, stopped daemon 140599282632448)>
[rospy.core][INFO] 2015-02-08 23:25:27,830: signal_shutdown [atexit]
