[rospy.client][INFO] 2015-03-04 15:52:01,119: init_node, name[/han/dynamixel_manager], pid[21693]
[xmlrpc][INFO] 2015-03-04 15:52:01,120: XML-RPC server binding to 0.0.0.0:0
[xmlrpc][INFO] 2015-03-04 15:52:01,120: Started XML-RPC server [http://hr2:58269/]
[rospy.impl.masterslave][INFO] 2015-03-04 15:52:01,120: _ready: http://hr2:58269/
[rospy.init][INFO] 2015-03-04 15:52:01,120: ROS Slave URI: [http://hr2:58269/]
[xmlrpc][INFO] 2015-03-04 15:52:01,120: xml rpc node: starting XML-RPC server
[rospy.registration][INFO] 2015-03-04 15:52:01,121: Registering with master node http://localhost:11311
[rospy.init][INFO] 2015-03-04 15:52:01,221: registered with master
[rospy.rosout][INFO] 2015-03-04 15:52:01,221: initializing /rosout core topic
[rospy.rosout][INFO] 2015-03-04 15:52:01,222: connected to core topic /rosout
[rospy.simtime][INFO] 2015-03-04 15:52:01,223: /use_sim_time is not set, will not subscribe to simulated time [/clock] topic
[rosout][INFO] 2015-03-04 15:52:01,234: pan_tilt_port: Pinging motor IDs 0 through 4...
[rosout][INFO] 2015-03-04 15:52:01,379: pan_tilt_port: Found 5 motors - 3 MX-106 [0, 1, 2], 2 MX-28 [3, 4], initialization complete.
[rospy.internal][INFO] 2015-03-04 15:52:01,444: topic[/rosout] adding connection to [/rosout], count 0
[rosout][INFO] 2015-03-04 15:52:01,479: Setting acceleration of 0 to 20
[rosout][INFO] 2015-03-04 15:52:01,526: Setting acceleration of 1 to 10
[rospy.internal][INFO] 2015-03-04 15:52:01,538: topic[/han/motor_states/pan_tilt_port] adding connection to [http://hr2:58269/], count 0
[rospy.internal][INFO] 2015-03-04 15:52:01,540: topic[/han/base_controller/command] adding connection to [http://hr2:33032/], count 0
[rospy.internal][INFO] 2015-03-04 15:52:01,541: topic[/han/base_controller/command] adding connection to [http://hr2:40234/], count 1
[rospy.internal][INFO] 2015-03-04 15:52:01,543: topic[/han/motor_states/pan_tilt_port] adding connection to [/han/dynamixel_manager], count 0
[rospy.internal][INFO] 2015-03-04 15:52:01,551: topic[/han/base_right_controller/command] adding connection to [http://hr2:40234/], count 0
[rospy.internal][INFO] 2015-03-04 15:52:01,551: topic[/han/base_right_controller/command] adding connection to [http://hr2:33032/], count 1
[rosout][INFO] 2015-03-04 15:52:01,574: Setting acceleration of 2 to 10
[rospy.internal][INFO] 2015-03-04 15:52:01,615: topic[/han/base_left_controller/command] adding connection to [http://hr2:33032/], count 0
[rosout][INFO] 2015-03-04 15:52:01,615: Setting acceleration of 3 to 10
[rospy.internal][INFO] 2015-03-04 15:52:01,616: topic[/han/base_left_controller/command] adding connection to [http://hr2:40234/], count 1
[rospy.internal][INFO] 2015-03-04 15:52:01,640: topic[/han/neck_right_controller/command] adding connection to [http://hr2:33032/], count 0
[rospy.internal][INFO] 2015-03-04 15:52:01,655: topic[/han/neck_right_controller/command] adding connection to [http://hr2:40234/], count 1
[rosout][INFO] 2015-03-04 15:52:01,708: Setting acceleration of 4 to 10
[rospy.internal][INFO] 2015-03-04 15:52:01,770: topic[/han/neck_left_controller/command] adding connection to [http://hr2:33032/], count 0
[rospy.internal][INFO] 2015-03-04 15:52:01,771: topic[/han/neck_left_controller/command] adding connection to [http://hr2:40234/], count 1
[rospy.internal][INFO] 2015-03-04 15:52:17,259: topic[/han/base_right_controller/command] adding connection to [http://hr2:49027/], count 2
[rospy.internal][INFO] 2015-03-04 15:52:17,262: topic[/han/base_controller/command] adding connection to [http://hr2:49027/], count 2
[rospy.internal][INFO] 2015-03-04 15:52:17,325: topic[/han/neck_right_controller/command] adding connection to [http://hr2:49027/], count 2
[rospy.internal][INFO] 2015-03-04 15:52:17,326: topic[/han/neck_left_controller/command] adding connection to [http://hr2:49027/], count 2
[rospy.internal][INFO] 2015-03-04 15:52:17,326: topic[/han/base_left_controller/command] adding connection to [http://hr2:49027/], count 2
[rospy.internal][WARNING] 2015-03-04 16:04:57,730: Unknown error initiating TCP/IP socket to hr2:34649 (http://hr2:49027/): Traceback (most recent call last):
  File "/opt/ros/indigo/lib/python2.7/dist-packages/rospy/impl/tcpros_base.py", line 555, in connect
    self.socket.connect((dest_addr, dest_port))
  File "/usr/lib/python2.7/socket.py", line 224, in meth
    return getattr(self._sock,name)(*args)
error: [Errno 111] Connection refused

[rospy.internal][INFO] 2015-03-04 16:04:57,730: topic[/han/base_left_controller/command] removing connection to http://hr2:49027/
[rospy.internal][WARNING] 2015-03-04 16:04:57,730: Unknown error initiating TCP/IP socket to hr2:34649 (http://hr2:49027/): Traceback (most recent call last):
  File "/opt/ros/indigo/lib/python2.7/dist-packages/rospy/impl/tcpros_base.py", line 555, in connect
    self.socket.connect((dest_addr, dest_port))
  File "/usr/lib/python2.7/socket.py", line 224, in meth
    return getattr(self._sock,name)(*args)
error: [Errno 111] Connection refused

[rospy.internal][WARNING] 2015-03-04 16:04:57,730: Unknown error initiating TCP/IP socket to hr2:34649 (http://hr2:49027/): Traceback (most recent call last):
  File "/opt/ros/indigo/lib/python2.7/dist-packages/rospy/impl/tcpros_base.py", line 555, in connect
    self.socket.connect((dest_addr, dest_port))
  File "/usr/lib/python2.7/socket.py", line 224, in meth
    return getattr(self._sock,name)(*args)
error: [Errno 111] Connection refused

[rospy.internal][WARNING] 2015-03-04 16:04:57,730: Unknown error initiating TCP/IP socket to hr2:34649 (http://hr2:49027/): Traceback (most recent call last):
  File "/opt/ros/indigo/lib/python2.7/dist-packages/rospy/impl/tcpros_base.py", line 555, in connect
    self.socket.connect((dest_addr, dest_port))
  File "/usr/lib/python2.7/socket.py", line 224, in meth
    return getattr(self._sock,name)(*args)
error: [Errno 111] Connection refused

[rospy.internal][INFO] 2015-03-04 16:04:57,731: topic[/han/base_right_controller/command] removing connection to http://hr2:49027/
[rospy.internal][WARNING] 2015-03-04 16:04:57,731: Unknown error initiating TCP/IP socket to hr2:34649 (http://hr2:49027/): Traceback (most recent call last):
  File "/opt/ros/indigo/lib/python2.7/dist-packages/rospy/impl/tcpros_base.py", line 555, in connect
    self.socket.connect((dest_addr, dest_port))
  File "/usr/lib/python2.7/socket.py", line 224, in meth
    return getattr(self._sock,name)(*args)
error: [Errno 111] Connection refused

[rospy.internal][INFO] 2015-03-04 16:04:57,731: topic[/han/base_controller/command] removing connection to http://hr2:49027/
[rospy.internal][INFO] 2015-03-04 16:04:57,731: topic[/han/neck_left_controller/command] removing connection to http://hr2:49027/
[rospy.internal][INFO] 2015-03-04 16:04:57,731: topic[/han/neck_right_controller/command] removing connection to http://hr2:49027/
[rospy.internal][WARNING] 2015-03-04 16:04:58,065: Unknown error initiating TCP/IP socket to hr2:59825 (http://hr2:40234/): Traceback (most recent call last):
  File "/opt/ros/indigo/lib/python2.7/dist-packages/rospy/impl/tcpros_base.py", line 556, in connect
    self.write_header()
  File "/opt/ros/indigo/lib/python2.7/dist-packages/rospy/impl/tcpros_base.py", line 606, in write_header
    self.stat_bytes += write_ros_handshake_header(sock, protocol.get_header_fields())
  File "/opt/ros/indigo/lib/python2.7/dist-packages/rosgraph/network.py", line 416, in write_ros_handshake_header
    sock.sendall(s)
  File "/usr/lib/python2.7/socket.py", line 224, in meth
    return getattr(self._sock,name)(*args)
error: [Errno 104] Connection reset by peer

[rospy.internal][INFO] 2015-03-04 16:04:58,066: topic[/han/neck_left_controller/command] removing connection to http://hr2:40234/
[rospy.internal][WARNING] 2015-03-04 16:04:58,066: Unknown error initiating TCP/IP socket to hr2:46721 (http://hr2:33032/): Traceback (most recent call last):
  File "/opt/ros/indigo/lib/python2.7/dist-packages/rospy/impl/tcpros_base.py", line 557, in connect
    self.read_header()
  File "/opt/ros/indigo/lib/python2.7/dist-packages/rospy/impl/tcpros_base.py", line 618, in read_header
    self._validate_header(read_ros_handshake_header(sock, self.read_buff, self.protocol.buff_size))
  File "/opt/ros/indigo/lib/python2.7/dist-packages/rosgraph/network.py", line 360, in read_ros_handshake_header
    d = sock.recv(buff_size)
error: [Errno 104] Connection reset by peer

[rospy.internal][WARNING] 2015-03-04 16:04:58,066: Unknown error initiating TCP/IP socket to hr2:59825 (http://hr2:40234/): Traceback (most recent call last):
  File "/opt/ros/indigo/lib/python2.7/dist-packages/rospy/impl/tcpros_base.py", line 557, in connect
    self.read_header()
  File "/opt/ros/indigo/lib/python2.7/dist-packages/rospy/impl/tcpros_base.py", line 618, in read_header
    self._validate_header(read_ros_handshake_header(sock, self.read_buff, self.protocol.buff_size))
  File "/opt/ros/indigo/lib/python2.7/dist-packages/rosgraph/network.py", line 360, in read_ros_handshake_header
    d = sock.recv(buff_size)
error: [Errno 104] Connection reset by peer

[rospy.internal][ERROR] 2015-03-04 16:04:58,067: Unable to initiate TCP/IP socket to hr2:59825 (http://hr2:40234/): Traceback (most recent call last):
  File "/opt/ros/indigo/lib/python2.7/dist-packages/rospy/impl/tcpros_base.py", line 557, in connect
    self.read_header()
  File "/opt/ros/indigo/lib/python2.7/dist-packages/rospy/impl/tcpros_base.py", line 618, in read_header
    self._validate_header(read_ros_handshake_header(sock, self.read_buff, self.protocol.buff_size))
  File "/opt/ros/indigo/lib/python2.7/dist-packages/rospy/impl/tcpros_base.py", line 580, in _validate_header
    raise TransportInitError("remote error reported: %s"%header['error'])
TransportInitError: remote error reported: node shutting down

[rospy.internal][ERROR] 2015-03-04 16:04:58,067: Unable to initiate TCP/IP socket to hr2:46721 (http://hr2:33032/): Traceback (most recent call last):
  File "/opt/ros/indigo/lib/python2.7/dist-packages/rospy/impl/tcpros_base.py", line 557, in connect
    self.read_header()
  File "/opt/ros/indigo/lib/python2.7/dist-packages/rospy/impl/tcpros_base.py", line 618, in read_header
    self._validate_header(read_ros_handshake_header(sock, self.read_buff, self.protocol.buff_size))
  File "/opt/ros/indigo/lib/python2.7/dist-packages/rospy/impl/tcpros_base.py", line 580, in _validate_header
    raise TransportInitError("remote error reported: %s"%header['error'])
TransportInitError: remote error reported: node shutting down

[rospy.internal][ERROR] 2015-03-04 16:04:58,066: Unable to initiate TCP/IP socket to hr2:59825 (http://hr2:40234/): Traceback (most recent call last):
  File "/opt/ros/indigo/lib/python2.7/dist-packages/rospy/impl/tcpros_base.py", line 557, in connect
    self.read_header()
  File "/opt/ros/indigo/lib/python2.7/dist-packages/rospy/impl/tcpros_base.py", line 618, in read_header
    self._validate_header(read_ros_handshake_header(sock, self.read_buff, self.protocol.buff_size))
  File "/opt/ros/indigo/lib/python2.7/dist-packages/rospy/impl/tcpros_base.py", line 580, in _validate_header
    raise TransportInitError("remote error reported: %s"%header['error'])
TransportInitError: remote error reported: node shutting down

[rospy.internal][WARNING] 2015-03-04 16:04:58,067: Unknown error initiating TCP/IP socket to hr2:46721 (http://hr2:33032/): Traceback (most recent call last):
  File "/opt/ros/indigo/lib/python2.7/dist-packages/rospy/impl/tcpros_base.py", line 557, in connect
    self.read_header()
  File "/opt/ros/indigo/lib/python2.7/dist-packages/rospy/impl/tcpros_base.py", line 618, in read_header
    self._validate_header(read_ros_handshake_header(sock, self.read_buff, self.protocol.buff_size))
  File "/opt/ros/indigo/lib/python2.7/dist-packages/rosgraph/network.py", line 360, in read_ros_handshake_header
    d = sock.recv(buff_size)
error: [Errno 104] Connection reset by peer

[rospy.internal][WARNING] 2015-03-04 16:04:58,067: Unknown error initiating TCP/IP socket to hr2:59825 (http://hr2:40234/): Traceback (most recent call last):
  File "/opt/ros/indigo/lib/python2.7/dist-packages/rospy/impl/tcpros_base.py", line 557, in connect
    self.read_header()
  File "/opt/ros/indigo/lib/python2.7/dist-packages/rospy/impl/tcpros_base.py", line 618, in read_header
    self._validate_header(read_ros_handshake_header(sock, self.read_buff, self.protocol.buff_size))
  File "/opt/ros/indigo/lib/python2.7/dist-packages/rosgraph/network.py", line 360, in read_ros_handshake_header
    d = sock.recv(buff_size)
error: [Errno 104] Connection reset by peer

[rospy.internal][ERROR] 2015-03-04 16:04:58,067: Unable to initiate TCP/IP socket to hr2:46721 (http://hr2:33032/): Traceback (most recent call last):
  File "/opt/ros/indigo/lib/python2.7/dist-packages/rospy/impl/tcpros_base.py", line 557, in connect
    self.read_header()
  File "/opt/ros/indigo/lib/python2.7/dist-packages/rospy/impl/tcpros_base.py", line 618, in read_header
    self._validate_header(read_ros_handshake_header(sock, self.read_buff, self.protocol.buff_size))
  File "/opt/ros/indigo/lib/python2.7/dist-packages/rospy/impl/tcpros_base.py", line 580, in _validate_header
    raise TransportInitError("remote error reported: %s"%header['error'])
TransportInitError: remote error reported: node shutting down

[rospy.internal][ERROR] 2015-03-04 16:04:58,067: Unable to initiate TCP/IP socket to hr2:46721 (http://hr2:33032/): Traceback (most recent call last):
  File "/opt/ros/indigo/lib/python2.7/dist-packages/rospy/impl/tcpros_base.py", line 557, in connect
    self.read_header()
  File "/opt/ros/indigo/lib/python2.7/dist-packages/rospy/impl/tcpros_base.py", line 618, in read_header
    self._validate_header(read_ros_handshake_header(sock, self.read_buff, self.protocol.buff_size))
  File "/opt/ros/indigo/lib/python2.7/dist-packages/rospy/impl/tcpros_base.py", line 580, in _validate_header
    raise TransportInitError("remote error reported: %s"%header['error'])
TransportInitError: remote error reported: node shutting down

[rospy.internal][INFO] 2015-03-04 16:04:58,067: topic[/han/base_controller/command] removing connection to http://hr2:33032/
[rospy.internal][INFO] 2015-03-04 16:04:58,067: topic[/han/base_left_controller/command] removing connection to http://hr2:40234/
[rospy.internal][INFO] 2015-03-04 16:04:58,068: topic[/han/neck_left_controller/command] removing connection to http://hr2:33032/
[rospy.internal][INFO] 2015-03-04 16:04:58,068: topic[/han/base_right_controller/command] removing connection to http://hr2:40234/
[rospy.core][INFO] 2015-03-04 16:04:58,201: signal_shutdown [signal-2]
[rospy.registration][WARNING] 2015-03-04 16:04:58,202: cannot unregister with master due to network issues
[rospy.internal][INFO] 2015-03-04 16:04:58,202: topic[/rosout] removing connection to /rosout
[rospy.internal][INFO] 2015-03-04 16:04:58,202: topic[/han/motor_states/pan_tilt_port] removing connection to /han/dynamixel_manager
[rospy.internal][INFO] 2015-03-04 16:04:58,202: topic[/han/neck_right_controller/command] removing connection to http://hr2:33032/
[rospy.internal][INFO] 2015-03-04 16:04:58,202: topic[/han/neck_right_controller/command] removing connection to http://hr2:40234/
[rospy.internal][INFO] 2015-03-04 16:04:58,203: topic[/han/base_right_controller/command] removing connection to http://hr2:33032/
[rospy.internal][INFO] 2015-03-04 16:04:58,203: topic[/han/base_controller/command] removing connection to http://hr2:40234/
[rospy.internal][ERROR] 2015-03-04 16:04:58,203: Unable to initiate TCP/IP socket to hr2:36542 (http://hr2:58269/): Traceback (most recent call last):
  File "/opt/ros/indigo/lib/python2.7/dist-packages/rospy/impl/tcpros_base.py", line 557, in connect
    self.read_header()
  File "/opt/ros/indigo/lib/python2.7/dist-packages/rospy/impl/tcpros_base.py", line 618, in read_header
    self._validate_header(read_ros_handshake_header(sock, self.read_buff, self.protocol.buff_size))
  File "/opt/ros/indigo/lib/python2.7/dist-packages/rospy/impl/tcpros_base.py", line 580, in _validate_header
    raise TransportInitError("remote error reported: %s"%header['error'])
TransportInitError: remote error reported: node shutting down

[rospy.internal][INFO] 2015-03-04 16:04:58,203: topic[/han/base_left_controller/command] removing connection to http://hr2:33032/
[rospy.internal][INFO] 2015-03-04 16:04:58,203: topic[/han/motor_states/pan_tilt_port] removing connection to http://hr2:58269/
[rospy.impl.masterslave][INFO] 2015-03-04 16:04:58,203: signal-2
[rospy.core][INFO] 2015-03-04 16:04:58,390: signal_shutdown [atexit]
