[rospy.client][INFO] 2015-02-08 23:44:10,430: init_node, name[/body_face_tracker], pid[32704]
[xmlrpc][INFO] 2015-02-08 23:44:10,430: XML-RPC server binding to 0.0.0.0:0
[xmlrpc][INFO] 2015-02-08 23:44:10,431: Started XML-RPC server [http://hr2:34737/]
[rospy.init][INFO] 2015-02-08 23:44:10,431: ROS Slave URI: [http://hr2:34737/]
[rospy.impl.masterslave][INFO] 2015-02-08 23:44:10,431: _ready: http://hr2:34737/
[xmlrpc][INFO] 2015-02-08 23:44:10,432: xml rpc node: starting XML-RPC server
[rospy.registration][INFO] 2015-02-08 23:44:10,432: Registering with master node http://localhost:11311
[rospy.init][INFO] 2015-02-08 23:44:10,531: registered with master
[rospy.rosout][INFO] 2015-02-08 23:44:10,532: initializing /rosout core topic
[rospy.rosout][INFO] 2015-02-08 23:44:10,536: connected to core topic /rosout
[rospy.simtime][INFO] 2015-02-08 23:44:10,538: /use_sim_time is not set, will not subscribe to simulated time [/clock] topic
[rosout][INFO] 2015-02-08 23:44:10,587: Starting pi_face_tracker
[rospy.internal][INFO] 2015-02-08 23:44:10,644: topic[/camera/image_raw] adding connection to [http://hr2:38143/], count 0
[rospy.internal][INFO] 2015-02-08 23:44:10,659: topic[/rosout] adding connection to [/rosout], count 0
[rospy.internal][INFO] 2015-02-08 23:44:10,713: topic[/camera/face_locations] adding connection to [/Eva_Behavior], count 0
[rospy.internal][INFO] 2015-02-08 23:44:10,714: topic[/camera/face_event] adding connection to [/Eva_Behavior], count 0
[rospy.internal][INFO] 2015-02-08 23:44:10,715: topic[/camera/face_locations] adding connection to [/faces_broadcaster], count 1
[rosout][INFO] 2015-02-08 23:44:10,719: {1: <Face no.1 @ (520, 166, 62, 62) - 0.99 - new>}
[rosout][INFO] 2015-02-08 23:44:10,758: {1: <Face no.1 @ (516, 160, 76, 76) - 0.99 - new>}
[rosout][INFO] 2015-02-08 23:44:10,800: {1: <Face no.1 @ (516, 160, 74, 74) - 0.99 - new>}
[rosout][INFO] 2015-02-08 23:44:10,833: {1: <Face no.1 @ (516, 160, 74, 74) - 0.99 - new>}
[rosout][INFO] 2015-02-08 23:44:10,860: {1: <Face no.1 @ (516, 160, 74, 74) - 0.99 - new>}
[rosout][INFO] 2015-02-08 23:44:10,896: {1: <Face no.1 @ (516, 160, 76, 76) - 0.99 - new>}
[rosout][INFO] 2015-02-08 23:44:10,936: {1: <Face no.1 @ (516, 162, 72, 72) - 0.99 - new>}
[rosout][INFO] 2015-02-08 23:44:10,976: {1: <Face no.1 @ (516, 160, 76, 76) - 0.99 - ok>}
[rosout][INFO] 2015-02-08 23:44:11,009: {1: <Face no.1 @ (525, 166, 62, 63) - 0.99 - ok>}
[rosout][INFO] 2015-02-08 23:44:11,066: {1: <Face no.1 @ (527, 168, 53, 56) - 0.99 - ok>}
[rosout][INFO] 2015-02-08 23:44:11,082: {1: <Face no.1 @ (526, 168, 53, 56) - 0.99 - ok>}
[rosout][INFO] 2015-02-08 23:44:11,124: {1: <Face no.1 @ (527, 168, 52, 56) - 0.99 - ok>}
[rosout][INFO] 2015-02-08 23:44:11,161: {1: <Face no.1 @ (527, 168, 52, 56) - 0.99 - ok>}
[rosout][INFO] 2015-02-08 23:44:11,201: {1: <Face no.1 @ (526, 168, 53, 56) - 0.99 - ok>}
[rosout][INFO] 2015-02-08 23:44:11,268: {1: <Face no.1 @ (525, 168, 58, 59) - 0.99 - ok>}
[rosout][INFO] 2015-02-08 23:44:11,282: {1: <Face no.1 @ (524, 168, 58, 59) - 0.99 - ok>}
[rosout][INFO] 2015-02-08 23:44:11,321: {1: <Face no.1 @ (525, 169, 57, 59) - 0.99 - ok>}
[rosout][INFO] 2015-02-08 23:44:11,364: {1: <Face no.1 @ (525, 169, 57, 60) - 0.99 - ok>}
[rosout][INFO] 2015-02-08 23:44:11,402: {1: <Face no.1 @ (525, 169, 56, 60) - 0.99 - ok>}
[rosout][INFO] 2015-02-08 23:44:11,474: {1: <Face no.1 @ (526, 174, 51, 59) - 0.99 - ok>}
[rosout][INFO] 2015-02-08 23:44:11,489: {1: <Face no.1 @ (525, 174, 52, 59) - 0.99 - ok>}
[rosout][INFO] 2015-02-08 23:44:11,522: {1: <Face no.1 @ (524, 175, 53, 58) - 0.99 - ok>}
[rosout][INFO] 2015-02-08 23:44:11,563: {1: <Face no.1 @ (524, 176, 53, 58) - 0.99 - ok>}
[rosout][INFO] 2015-02-08 23:44:11,603: {1: <Face no.1 @ (523, 177, 55, 56) - 0.99 - ok>}
[rosout][INFO] 2015-02-08 23:44:11,672: {1: <Face no.1 @ (526, 176, 52, 63) - 0.99 - ok>}
[rosout][INFO] 2015-02-08 23:44:11,687: {1: <Face no.1 @ (525, 176, 53, 62) - 0.99 - ok>}
[rosout][INFO] 2015-02-08 23:44:11,724: {1: <Face no.1 @ (525, 178, 54, 60) - 0.99 - ok>}
[rosout][INFO] 2015-02-08 23:44:11,762: {1: <Face no.1 @ (525, 178, 54, 61) - 0.99 - ok>}
[rosout][INFO] 2015-02-08 23:44:11,802: {1: <Face no.1 @ (525, 179, 54, 60) - 0.99 - ok>}
[rosout][INFO] 2015-02-08 23:44:11,871: {1: <Face no.1 @ (521, 178, 59, 64) - 0.99 - ok>}
[rosout][INFO] 2015-02-08 23:44:11,887: {1: <Face no.1 @ (521, 178, 58, 64) - 0.99 - ok>}
[rosout][INFO] 2015-02-08 23:44:11,921: {1: <Face no.1 @ (521, 179, 57, 65) - 0.99 - ok>}
[rosout][INFO] 2015-02-08 23:44:11,961: {1: <Face no.1 @ (521, 179, 56, 65) - 0.99 - ok>}
[rosout][INFO] 2015-02-08 23:44:12,002: {1: <Face no.1 @ (520, 179, 57, 66) - 0.99 - ok>}
[rosout][INFO] 2015-02-08 23:44:12,072: {1: <Face no.1 @ (519, 183, 58, 61) - 0.99 - ok>}
[rosout][INFO] 2015-02-08 23:44:12,087: {1: <Face no.1 @ (518, 183, 58, 61) - 0.99 - ok>}
[rosout][INFO] 2015-02-08 23:44:12,122: {1: <Face no.1 @ (518, 184, 58, 61) - 0.99 - ok>}
[rosout][INFO] 2015-02-08 23:44:12,161: {1: <Face no.1 @ (518, 185, 58, 59) - 0.99 - ok>}
[rosout][INFO] 2015-02-08 23:44:12,201: {1: <Face no.1 @ (518, 185, 58, 60) - 0.99 - ok>}
[rosout][INFO] 2015-02-08 23:44:12,283: {1: <Face no.1 @ (519, 185, 62, 63) - 0.99 - ok>}
[rosout][INFO] 2015-02-08 23:44:12,296: {1: <Face no.1 @ (519, 185, 61, 62) - 0.99 - ok>}
[rosout][INFO] 2015-02-08 23:44:12,320: {1: <Face no.1 @ (518, 184, 62, 63) - 0.99 - ok>}
[rosout][INFO] 2015-02-08 23:44:12,362: {1: <Face no.1 @ (518, 184, 62, 63) - 0.99 - ok>}
[rosout][INFO] 2015-02-08 23:44:12,401: {1: <Face no.1 @ (518, 184, 62, 63) - 0.99 - ok>}
[rosout][INFO] 2015-02-08 23:44:12,475: {1: <Face no.1 @ (518, 183, 61, 64) - 0.9801 - ok>}
[rosout][INFO] 2015-02-08 23:44:12,488: {1: <Face no.1 @ (517, 183, 62, 64) - 0.9801 - ok>}
[rosout][INFO] 2015-02-08 23:44:12,520: {1: <Face no.1 @ (517, 183, 61, 64) - 0.9801 - ok>}
[rosout][INFO] 2015-02-08 23:44:12,564: {1: <Face no.1 @ (517, 183, 61, 64) - 0.9801 - ok>}
[rosout][INFO] 2015-02-08 23:44:12,604: {1: <Face no.1 @ (517, 183, 61, 64) - 0.9801 - ok>}
[rosout][INFO] 2015-02-08 23:44:12,668: {1: <Face no.1 @ (517, 183, 61, 64) - 0.970299 - ok>, 2: <Face no.2 @ (242, 264, 58, 58) - 0.99 - new>}
[rosout][INFO] 2015-02-08 23:44:12,685: {1: <Face no.1 @ (517, 183, 61, 64) - 0.970299 - ok>, 2: <Face no.2 @ (242, 264, 58, 58) - 0.99 - new>}
[rosout][INFO] 2015-02-08 23:44:12,726: {1: <Face no.1 @ (518, 183, 60, 64) - 0.970299 - ok>, 2: <Face no.2 @ (242, 264, 58, 58) - 0.99 - new>}
[rosout][INFO] 2015-02-08 23:44:12,766: {1: <Face no.1 @ (517, 183, 61, 64) - 0.970299 - ok>, 2: <Face no.2 @ (242, 264, 58, 58) - 0.99 - new>}
[rosout][INFO] 2015-02-08 23:44:12,806: {1: <Face no.1 @ (517, 183, 61, 64) - 0.970299 - ok>, 2: <Face no.2 @ (242, 264, 58, 58) - 0.99 - new>}
[rosout][INFO] 2015-02-08 23:44:12,880: {1: <Face no.1 @ (518, 183, 61, 64) - 0.96059601 - ok>}
[rosout][INFO] 2015-02-08 23:44:12,892: {1: <Face no.1 @ (518, 183, 61, 64) - 0.96059601 - ok>}
[rosout][INFO] 2015-02-08 23:44:12,927: {1: <Face no.1 @ (518, 183, 61, 64) - 0.96059601 - ok>}
[rosout][INFO] 2015-02-08 23:44:12,967: {1: <Face no.1 @ (518, 184, 61, 63) - 0.96059601 - ok>}
[rosout][INFO] 2015-02-08 23:44:13,005: {1: <Face no.1 @ (518, 183, 61, 64) - 0.96059601 - ok>}
[rosout][INFO] 2015-02-08 23:44:13,092: {1: <Face no.1 @ (518, 184, 61, 63) - 0.9509900499 - ok>}
[rosout][INFO] 2015-02-08 23:44:13,104: {1: <Face no.1 @ (518, 184, 61, 63) - 0.9509900499 - ok>}
[rosout][INFO] 2015-02-08 23:44:13,125: {1: <Face no.1 @ (518, 183, 61, 64) - 0.9509900499 - ok>}
[rosout][INFO] 2015-02-08 23:44:13,165: {1: <Face no.1 @ (518, 183, 61, 64) - 0.9509900499 - ok>}
[rosout][INFO] 2015-02-08 23:44:13,205: {1: <Face no.1 @ (518, 183, 61, 64) - 0.9509900499 - ok>}
[rosout][INFO] 2015-02-08 23:44:13,287: {1: <Face no.1 @ (519, 183, 61, 64) - 0.941480149401 - ok>, 3: <Face no.3 @ (206, 14, 76, 76) - 0.99 - new>}
[rosout][INFO] 2015-02-08 23:44:13,299: {1: <Face no.1 @ (519, 183, 61, 64) - 0.941480149401 - ok>, 3: <Face no.3 @ (206, 14, 76, 76) - 0.99 - new>}
[rosout][INFO] 2015-02-08 23:44:13,326: {1: <Face no.1 @ (519, 183, 61, 64) - 0.941480149401 - ok>, 3: <Face no.3 @ (206, 14, 76, 76) - 0.99 - new>}
[rosout][INFO] 2015-02-08 23:44:13,366: {1: <Face no.1 @ (519, 183, 61, 64) - 0.941480149401 - ok>, 3: <Face no.3 @ (206, 14, 76, 76) - 0.99 - new>}
[rosout][INFO] 2015-02-08 23:44:13,405: {1: <Face no.1 @ (519, 184, 61, 63) - 0.941480149401 - ok>, 3: <Face no.3 @ (206, 14, 76, 76) - 0.99 - new>}
[rosout][INFO] 2015-02-08 23:44:13,464: {1: <Face no.1 @ (518, 184, 62, 63) - 0.932065347907 - ok>, 3: <Face no.3 @ (196, 8, 80, 80) - 0.99 - new>}
[rosout][INFO] 2015-02-08 23:44:13,485: {1: <Face no.1 @ (518, 184, 62, 63) - 0.932065347907 - ok>, 3: <Face no.3 @ (196, 8, 80, 80) - 0.99 - new>}
[rosout][INFO] 2015-02-08 23:44:13,525: {1: <Face no.1 @ (518, 184, 62, 63) - 0.932065347907 - ok>, 3: <Face no.3 @ (196, 8, 80, 80) - 0.99 - new>}
[rosout][INFO] 2015-02-08 23:44:13,566: {1: <Face no.1 @ (518, 184, 62, 63) - 0.932065347907 - ok>, 3: <Face no.3 @ (196, 8, 80, 80) - 0.99 - new>}
[rosout][INFO] 2015-02-08 23:44:13,606: {1: <Face no.1 @ (518, 184, 62, 63) - 0.932065347907 - ok>, 3: <Face no.3 @ (196, 8, 80, 80) - 0.99 - new>}
[rosout][INFO] 2015-02-08 23:44:13,664: {1: <Face no.1 @ (519, 184, 61, 63) - 0.922744694428 - ok>, 3: <Face no.3 @ (190, 10, 76, 76) - 0.99 - new>}
[rosout][INFO] 2015-02-08 23:44:13,685: {1: <Face no.1 @ (518, 184, 62, 63) - 0.922744694428 - ok>, 3: <Face no.3 @ (190, 10, 76, 76) - 0.99 - new>}
[rosout][INFO] 2015-02-08 23:44:13,724: {1: <Face no.1 @ (518, 184, 62, 63) - 0.922744694428 - ok>, 3: <Face no.3 @ (190, 10, 76, 76) - 0.99 - new>}
[rosout][INFO] 2015-02-08 23:44:13,764: {1: <Face no.1 @ (518, 184, 62, 63) - 0.922744694428 - ok>, 3: <Face no.3 @ (190, 10, 76, 76) - 0.99 - new>}
[rosout][INFO] 2015-02-08 23:44:13,806: {1: <Face no.1 @ (519, 184, 61, 63) - 0.922744694428 - ok>, 3: <Face no.3 @ (190, 10, 76, 76) - 0.99 - new>}
[rosout][INFO] 2015-02-08 23:44:13,863: {1: <Face no.1 @ (518, 184, 62, 63) - 0.913517247484 - ok>, 3: <Face no.3 @ (188, 8, 76, 76) - 0.99 - new>}
[rosout][INFO] 2015-02-08 23:44:13,885: {1: <Face no.1 @ (519, 184, 61, 63) - 0.913517247484 - ok>, 3: <Face no.3 @ (188, 8, 76, 76) - 0.99 - new>}
[rosout][INFO] 2015-02-08 23:44:13,924: {1: <Face no.1 @ (519, 184, 61, 63) - 0.913517247484 - ok>, 3: <Face no.3 @ (188, 8, 76, 76) - 0.99 - new>}
[rosout][INFO] 2015-02-08 23:44:13,966: {1: <Face no.1 @ (519, 183, 61, 64) - 0.913517247484 - ok>, 3: <Face no.3 @ (188, 8, 76, 76) - 0.99 - new>}
[rosout][INFO] 2015-02-08 23:44:14,005: {1: <Face no.1 @ (519, 183, 61, 64) - 0.913517247484 - ok>, 3: <Face no.3 @ (188, 8, 76, 76) - 0.99 - new>}
[rosout][INFO] 2015-02-08 23:44:14,064: {1: <Face no.1 @ (519, 183, 61, 64) - 0.904382075009 - ok>, 3: <Face no.3 @ (184, 6, 76, 76) - 0.99 - new>}
[rosout][INFO] 2015-02-08 23:44:14,087: {1: <Face no.1 @ (519, 183, 61, 64) - 0.904382075009 - ok>, 3: <Face no.3 @ (184, 6, 76, 76) - 0.99 - new>}
[rosout][INFO] 2015-02-08 23:44:14,126: {1: <Face no.1 @ (519, 183, 61, 64) - 0.904382075009 - ok>, 3: <Face no.3 @ (184, 6, 76, 76) - 0.99 - new>}
[rosout][INFO] 2015-02-08 23:44:14,166: {1: <Face no.1 @ (519, 183, 61, 64) - 0.904382075009 - ok>, 3: <Face no.3 @ (184, 6, 76, 76) - 0.99 - new>}
[rosout][INFO] 2015-02-08 23:44:14,207: {1: <Face no.1 @ (519, 183, 61, 64) - 0.904382075009 - ok>, 3: <Face no.3 @ (184, 6, 76, 76) - 0.99 - new>}
[rosout][INFO] 2015-02-08 23:44:14,275: {1: <Face no.1 @ (523, 187, 54, 62) - 0.99 - ok>, 3: <Face no.3 @ (184, 4, 76, 76) - 0.99 - new>}
[rosout][INFO] 2015-02-08 23:44:14,289: {1: <Face no.1 @ (522, 187, 55, 61) - 0.99 - ok>, 3: <Face no.3 @ (184, 4, 76, 76) - 0.99 - new>}
[rosout][INFO] 2015-02-08 23:44:14,326: {1: <Face no.1 @ (522, 187, 55, 61) - 0.99 - ok>, 3: <Face no.3 @ (184, 4, 76, 76) - 0.99 - new>}
[rosout][INFO] 2015-02-08 23:44:14,367: {1: <Face no.1 @ (522, 187, 55, 60) - 0.99 - ok>, 3: <Face no.3 @ (184, 4, 76, 76) - 0.99 - new>}
[rosout][INFO] 2015-02-08 23:44:14,410: {1: <Face no.1 @ (522, 187, 55, 60) - 0.99 - ok>, 3: <Face no.3 @ (184, 4, 76, 76) - 0.99 - new>}
[rosout][INFO] 2015-02-08 23:44:14,466: {1: <Face no.1 @ (522, 187, 55, 61) - 0.9801 - ok>, 3: <Face no.3 @ (184, 4, 78, 78) - 0.99 - ok>}
[rosout][INFO] 2015-02-08 23:44:14,500: {1: <Face no.1 @ (522, 187, 55, 60) - 0.9801 - ok>, 3: <Face no.3 @ (190, 9, 65, 66) - 0.99 - ok>}
[rosout][INFO] 2015-02-08 23:44:14,533: {1: <Face no.1 @ (522, 187, 55, 60) - 0.9801 - ok>, 3: <Face no.3 @ (189, 8, 65, 66) - 0.99 - ok>}
[rosout][INFO] 2015-02-08 23:44:14,572: {1: <Face no.1 @ (522, 187, 55, 60) - 0.9801 - ok>, 3: <Face no.3 @ (190, 8, 64, 66) - 0.99 - ok>}
[rosout][INFO] 2015-02-08 23:44:14,613: {1: <Face no.1 @ (522, 187, 54, 61) - 0.9801 - ok>, 3: <Face no.3 @ (190, 8, 64, 66) - 0.99 - ok>}
[rosout][INFO] 2015-02-08 23:44:14,684: {1: <Face no.1 @ (522, 187, 55, 60) - 0.970299 - ok>, 3: <Face no.3 @ (191, 10, 62, 64) - 0.99 - ok>}
[rosout][INFO] 2015-02-08 23:44:14,705: {1: <Face no.1 @ (522, 187, 55, 60) - 0.970299 - ok>, 3: <Face no.3 @ (191, 9, 62, 64) - 0.99 - ok>}
[rosout][INFO] 2015-02-08 23:44:14,732: {1: <Face no.1 @ (522, 186, 54, 61) - 0.970299 - ok>, 3: <Face no.3 @ (191, 9, 62, 64) - 0.99 - ok>}
[rosout][INFO] 2015-02-08 23:44:14,772: {1: <Face no.1 @ (522, 187, 54, 60) - 0.970299 - ok>, 3: <Face no.3 @ (191, 9, 63, 64) - 0.99 - ok>}
[rosout][INFO] 2015-02-08 23:44:14,812: {1: <Face no.1 @ (522, 187, 55, 60) - 0.970299 - ok>, 3: <Face no.3 @ (191, 8, 63, 65) - 0.99 - ok>}
[rosout][INFO] 2015-02-08 23:44:14,885: {1: <Face no.1 @ (522, 187, 54, 60) - 0.96059601 - ok>, 3: <Face no.3 @ (195, 7, 60, 64) - 0.99 - ok>}
[rosout][INFO] 2015-02-08 23:44:14,904: {1: <Face no.1 @ (522, 187, 54, 61) - 0.96059601 - ok>, 3: <Face no.3 @ (195, 6, 60, 64) - 0.99 - ok>}
[rosout][INFO] 2015-02-08 23:44:14,932: {1: <Face no.1 @ (522, 187, 54, 61) - 0.96059601 - ok>, 3: <Face no.3 @ (195, 5, 60, 65) - 0.99 - ok>}
[rosout][INFO] 2015-02-08 23:44:14,977: {1: <Face no.1 @ (522, 187, 54, 61) - 0.96059601 - ok>, 3: <Face no.3 @ (195, 4, 60, 66) - 0.99 - ok>}
[rosout][INFO] 2015-02-08 23:44:15,012: {1: <Face no.1 @ (522, 187, 54, 61) - 0.96059601 - ok>, 3: <Face no.3 @ (195, 4, 60, 66) - 0.99 - ok>}
[rosout][INFO] 2015-02-08 23:44:15,087: {1: <Face no.1 @ (523, 188, 53, 59) - 0.99 - ok>, 3: <Face no.3 @ (192, 6, 59, 61) - 0.99 - ok>}
[rosout][INFO] 2015-02-08 23:44:15,103: {1: <Face no.1 @ (523, 187, 52, 60) - 0.99 - ok>, 3: <Face no.3 @ (191, 5, 59, 61) - 0.99 - ok>}
[rosout][INFO] 2015-02-08 23:44:15,131: {1: <Face no.1 @ (523, 187, 52, 60) - 0.99 - ok>, 3: <Face no.3 @ (191, 5, 59, 61) - 0.99 - ok>}
[rosout][INFO] 2015-02-08 23:44:15,172: {1: <Face no.1 @ (523, 187, 53, 60) - 0.99 - ok>, 3: <Face no.3 @ (191, 5, 59, 61) - 0.99 - ok>}
[rosout][INFO] 2015-02-08 23:44:15,222: {1: <Face no.1 @ (523, 186, 53, 61) - 0.99 - ok>, 3: <Face no.3 @ (191, 5, 59, 61) - 0.99 - ok>}
[rosout][INFO] 2015-02-08 23:44:15,282: {1: <Face no.1 @ (523, 186, 53, 62) - 0.9801 - ok>, 3: <Face no.3 @ (191, 6, 58, 60) - 0.99 - ok>}
[rosout][INFO] 2015-02-08 23:44:15,302: {1: <Face no.1 @ (523, 186, 53, 62) - 0.9801 - ok>, 3: <Face no.3 @ (190, 5, 58, 60) - 0.99 - ok>}
[rosout][INFO] 2015-02-08 23:44:15,335: {1: <Face no.1 @ (523, 186, 53, 61) - 0.9801 - ok>, 3: <Face no.3 @ (190, 5, 58, 60) - 0.99 - ok>}
[rosout][INFO] 2015-02-08 23:44:15,374: {1: <Face no.1 @ (522, 187, 53, 60) - 0.9801 - ok>, 3: <Face no.3 @ (190, 5, 58, 60) - 0.99 - ok>}
[rosout][INFO] 2015-02-08 23:44:15,412: {1: <Face no.1 @ (522, 187, 53, 59) - 0.9801 - ok>, 3: <Face no.3 @ (190, 4, 58, 61) - 0.99 - ok>}
[rosout][INFO] 2015-02-08 23:44:15,479: {1: <Face no.1 @ (522, 187, 52, 59) - 0.970299 - ok>, 3: <Face no.3 @ (192, 4, 58, 60) - 0.99 - ok>}
[rosout][INFO] 2015-02-08 23:44:15,495: {1: <Face no.1 @ (522, 187, 52, 59) - 0.970299 - ok>, 3: <Face no.3 @ (192, 4, 58, 60) - 0.99 - ok>}
[rosout][INFO] 2015-02-08 23:44:15,532: {1: <Face no.1 @ (522, 187, 53, 59) - 0.970299 - ok>, 3: <Face no.3 @ (191, 4, 60, 60) - 0.99 - ok>}
[rosout][INFO] 2015-02-08 23:44:15,572: {1: <Face no.1 @ (522, 187, 54, 60) - 0.970299 - ok>, 3: <Face no.3 @ (192, 5, 59, 61) - 0.99 - ok>}
[rosout][INFO] 2015-02-08 23:44:15,612: {1: <Face no.1 @ (522, 187, 54, 60) - 0.970299 - ok>, 3: <Face no.3 @ (192, 5, 60, 62) - 0.99 - ok>}
[rosout][INFO] 2015-02-08 23:44:15,680: {1: <Face no.1 @ (522, 187, 53, 60) - 0.96059601 - ok>, 3: <Face no.3 @ (194, 8, 59, 60) - 0.99 - ok>}
[rosout][INFO] 2015-02-08 23:44:15,695: {1: <Face no.1 @ (522, 187, 53, 60) - 0.96059601 - ok>, 3: <Face no.3 @ (194, 7, 59, 61) - 0.99 - ok>}
[rosout][INFO] 2015-02-08 23:44:15,732: {1: <Face no.1 @ (522, 187, 53, 59) - 0.96059601 - ok>, 3: <Face no.3 @ (195, 7, 58, 61) - 0.99 - ok>}
[rosout][INFO] 2015-02-08 23:44:15,772: {1: <Face no.1 @ (522, 187, 53, 59) - 0.96059601 - ok>, 3: <Face no.3 @ (195, 7, 58, 60) - 0.99 - ok>}
[rosout][INFO] 2015-02-08 23:44:15,812: {1: <Face no.1 @ (522, 187, 53, 60) - 0.96059601 - ok>, 3: <Face no.3 @ (195, 6, 57, 61) - 0.99 - ok>}
[rosout][INFO] 2015-02-08 23:44:15,878: {1: <Face no.1 @ (522, 187, 53, 60) - 0.9509900499 - ok>, 3: <Face no.3 @ (197, 6, 59, 62) - 0.99 - ok>}
[rosout][INFO] 2015-02-08 23:44:15,894: {1: <Face no.1 @ (522, 187, 53, 59) - 0.9509900499 - ok>, 3: <Face no.3 @ (196, 5, 59, 62) - 0.99 - ok>}
[rosout][INFO] 2015-02-08 23:44:15,932: {1: <Face no.1 @ (522, 187, 53, 60) - 0.9509900499 - ok>, 3: <Face no.3 @ (197, 5, 58, 62) - 0.99 - ok>}
[rosout][INFO] 2015-02-08 23:44:15,972: {1: <Face no.1 @ (522, 187, 53, 59) - 0.9509900499 - ok>, 3: <Face no.3 @ (197, 5, 57, 61) - 0.99 - ok>}
[rosout][INFO] 2015-02-08 23:44:16,012: {1: <Face no.1 @ (523, 187, 52, 60) - 0.9509900499 - ok>, 3: <Face no.3 @ (197, 4, 57, 62) - 0.99 - ok>}
[rosout][INFO] 2015-02-08 23:44:16,083: {1: <Face no.1 @ (522, 187, 54, 60) - 0.941480149401 - ok>, 3: <Face no.3 @ (194, 5, 62, 64) - 0.99 - ok>}
[rosout][INFO] 2015-02-08 23:44:16,103: {1: <Face no.1 @ (523, 186, 52, 61) - 0.941480149401 - ok>, 3: <Face no.3 @ (193, 5, 62, 64) - 0.99 - ok>}
[rosout][INFO] 2015-02-08 23:44:16,132: {1: <Face no.1 @ (523, 186, 52, 61) - 0.941480149401 - ok>, 3: <Face no.3 @ (193, 5, 62, 64) - 0.99 - ok>}
[rosout][INFO] 2015-02-08 23:44:16,173: {1: <Face no.1 @ (523, 187, 52, 60) - 0.941480149401 - ok>, 3: <Face no.3 @ (192, 4, 62, 65) - 0.99 - ok>}
[rosout][INFO] 2015-02-08 23:44:16,213: {1: <Face no.1 @ (523, 187, 53, 60) - 0.941480149401 - ok>, 3: <Face no.3 @ (192, 4, 61, 65) - 0.99 - ok>}
[rosout][INFO] 2015-02-08 23:44:16,283: {1: <Face no.1 @ (523, 187, 52, 60) - 0.932065347907 - ok>, 3: <Face no.3 @ (195, 4, 56, 61) - 0.99 - ok>}
[rosout][INFO] 2015-02-08 23:44:16,299: {1: <Face no.1 @ (523, 187, 52, 60) - 0.932065347907 - ok>, 3: <Face no.3 @ (194, 3, 56, 61) - 0.99 - ok>}
[rosout][INFO] 2015-02-08 23:44:16,336: {1: <Face no.1 @ (523, 187, 52, 60) - 0.932065347907 - ok>, 3: <Face no.3 @ (193, 3, 56, 61) - 0.99 - ok>}
[rosout][INFO] 2015-02-08 23:44:16,376: {1: <Face no.1 @ (523, 187, 52, 60) - 0.932065347907 - ok>, 3: <Face no.3 @ (192, 2, 56, 62) - 0.99 - ok>}
[rosout][INFO] 2015-02-08 23:44:16,416: {1: <Face no.1 @ (523, 187, 53, 60) - 0.932065347907 - ok>, 3: <Face no.3 @ (191, 2, 57, 61) - 0.99 - ok>}
[rosout][INFO] 2015-02-08 23:44:16,483: {1: <Face no.1 @ (522, 186, 53, 61) - 0.922744694428 - ok>, 3: <Face no.3 @ (188, 4, 57, 60) - 0.99 - ok>}
[rosout][INFO] 2015-02-08 23:44:16,499: {1: <Face no.1 @ (523, 186, 52, 61) - 0.922744694428 - ok>, 3: <Face no.3 @ (187, 3, 57, 60) - 0.99 - ok>}
[rosout][INFO] 2015-02-08 23:44:16,536: {1: <Face no.1 @ (523, 186, 52, 61) - 0.922744694428 - ok>, 3: <Face no.3 @ (187, 3, 57, 60) - 0.99 - ok>}
[rosout][INFO] 2015-02-08 23:44:16,577: {1: <Face no.1 @ (523, 186, 52, 61) - 0.922744694428 - ok>, 3: <Face no.3 @ (186, 3, 58, 60) - 0.99 - ok>}
[rosout][INFO] 2015-02-08 23:44:16,618: {1: <Face no.1 @ (522, 187, 54, 60) - 0.922744694428 - ok>, 3: <Face no.3 @ (186, 3, 57, 60) - 0.99 - ok>}
[rosout][INFO] 2015-02-08 23:44:16,686: {1: <Face no.1 @ (519, 182, 62, 70) - 0.99 - ok>, 3: <Face no.3 @ (186, 3, 57, 60) - 0.9801 - ok>}
[rosout][INFO] 2015-02-08 23:44:16,702: {1: <Face no.1 @ (517, 182, 64, 69) - 0.99 - ok>, 3: <Face no.3 @ (185, 3, 58, 60) - 0.9801 - ok>}
[rosout][INFO] 2015-02-08 23:44:16,748: {1: <Face no.1 @ (517, 182, 64, 69) - 0.99 - ok>, 3: <Face no.3 @ (185, 3, 58, 60) - 0.9801 - ok>}
[rosout][INFO] 2015-02-08 23:44:16,776: {1: <Face no.1 @ (517, 182, 64, 70) - 0.99 - ok>, 3: <Face no.3 @ (184, 3, 58, 60) - 0.9801 - ok>}
[rosout][INFO] 2015-02-08 23:44:16,815: {1: <Face no.1 @ (517, 182, 64, 69) - 0.99 - ok>, 3: <Face no.3 @ (184, 3, 58, 60) - 0.9801 - ok>}
[rosout][INFO] 2015-02-08 23:44:16,883: {1: <Face no.1 @ (516, 183, 65, 68) - 0.9801 - ok>, 3: <Face no.3 @ (183, 5, 58, 60) - 0.99 - ok>}
[rosout][INFO] 2015-02-08 23:44:16,899: {1: <Face no.1 @ (517, 182, 63, 69) - 0.9801 - ok>, 3: <Face no.3 @ (182, 4, 58, 61) - 0.99 - ok>}
[rosout][INFO] 2015-02-08 23:44:16,936: {1: <Face no.1 @ (517, 183, 64, 68) - 0.9801 - ok>, 3: <Face no.3 @ (182, 4, 58, 60) - 0.99 - ok>}
[rosout][INFO] 2015-02-08 23:44:16,976: {1: <Face no.1 @ (517, 183, 64, 68) - 0.9801 - ok>, 3: <Face no.3 @ (182, 4, 58, 60) - 0.99 - ok>}
[rosout][INFO] 2015-02-08 23:44:17,016: {1: <Face no.1 @ (517, 183, 64, 68) - 0.9801 - ok>, 3: <Face no.3 @ (181, 4, 59, 60) - 0.99 - ok>}
[rosout][INFO] 2015-02-08 23:44:17,107: {1: <Face no.1 @ (521, 181, 61, 69) - 0.99 - ok>, 3: <Face no.3 @ (181, 3, 59, 61) - 0.9801 - ok>, 4: <Face no.4 @ (238, 214, 44, 44) - 0.99 - new>}
[rosout][INFO] 2015-02-08 23:44:17,123: {1: <Face no.1 @ (521, 181, 61, 69) - 0.99 - ok>, 3: <Face no.3 @ (181, 4, 59, 60) - 0.9801 - ok>, 4: <Face no.4 @ (238, 214, 44, 44) - 0.99 - new>}
[rosout][INFO] 2015-02-08 23:44:17,148: {1: <Face no.1 @ (521, 181, 61, 68) - 0.99 - ok>, 3: <Face no.3 @ (181, 4, 59, 60) - 0.9801 - ok>, 4: <Face no.4 @ (238, 214, 44, 44) - 0.99 - new>}
[rosout][INFO] 2015-02-08 23:44:17,176: {1: <Face no.1 @ (521, 180, 61, 69) - 0.99 - ok>, 3: <Face no.3 @ (181, 3, 59, 61) - 0.9801 - ok>, 4: <Face no.4 @ (238, 214, 44, 44) - 0.99 - new>}
[rosout][INFO] 2015-02-08 23:44:17,216: {1: <Face no.1 @ (521, 180, 61, 70) - 0.99 - ok>, 3: <Face no.3 @ (181, 3, 59, 61) - 0.9801 - ok>, 4: <Face no.4 @ (238, 214, 44, 44) - 0.99 - new>}
[rosout][INFO] 2015-02-08 23:44:17,283: {1: <Face no.1 @ (521, 182, 57, 65) - 0.99 - ok>, 3: <Face no.3 @ (182, 3, 58, 61) - 0.970299 - ok>}
[rosout][INFO] 2015-02-08 23:44:17,300: {1: <Face no.1 @ (521, 181, 56, 65) - 0.99 - ok>, 3: <Face no.3 @ (182, 4, 58, 60) - 0.970299 - ok>}
[rosout][INFO] 2015-02-08 23:44:17,336: {1: <Face no.1 @ (521, 181, 56, 65) - 0.99 - ok>, 3: <Face no.3 @ (182, 4, 58, 60) - 0.970299 - ok>}
[rosout][INFO] 2015-02-08 23:44:17,376: {1: <Face no.1 @ (521, 182, 56, 64) - 0.99 - ok>, 3: <Face no.3 @ (182, 4, 58, 60) - 0.970299 - ok>}
[rosout][INFO] 2015-02-08 23:44:17,416: {1: <Face no.1 @ (521, 182, 56, 64) - 0.99 - ok>, 3: <Face no.3 @ (182, 4, 59, 60) - 0.970299 - ok>}
[rosout][INFO] 2015-02-08 23:44:17,485: {1: <Face no.1 @ (521, 182, 61, 68) - 0.99 - ok>, 3: <Face no.3 @ (182, 4, 59, 61) - 0.96059601 - ok>}
[rosout][INFO] 2015-02-08 23:44:17,498: {1: <Face no.1 @ (519, 182, 62, 67) - 0.99 - ok>, 3: <Face no.3 @ (183, 4, 58, 61) - 0.96059601 - ok>}
[rosout][INFO] 2015-02-08 23:44:17,535: {1: <Face no.1 @ (520, 181, 61, 68) - 0.99 - ok>, 3: <Face no.3 @ (182, 4, 59, 61) - 0.96059601 - ok>}
[rosout][INFO] 2015-02-08 23:44:17,574: {1: <Face no.1 @ (520, 181, 61, 68) - 0.99 - ok>, 3: <Face no.3 @ (183, 4, 58, 61) - 0.96059601 - ok>}
[rosout][INFO] 2015-02-08 23:44:17,614: {1: <Face no.1 @ (520, 182, 61, 67) - 0.99 - ok>, 3: <Face no.3 @ (183, 4, 59, 61) - 0.96059601 - ok>}
[rosout][INFO] 2015-02-08 23:44:17,682: {1: <Face no.1 @ (520, 182, 61, 67) - 0.9801 - ok>, 3: <Face no.3 @ (188, 6, 58, 60) - 0.99 - ok>}
[rosout][INFO] 2015-02-08 23:44:17,697: {1: <Face no.1 @ (520, 182, 61, 67) - 0.9801 - ok>, 3: <Face no.3 @ (188, 6, 58, 60) - 0.99 - ok>}
[rosout][INFO] 2015-02-08 23:44:17,734: {1: <Face no.1 @ (520, 182, 61, 67) - 0.9801 - ok>, 3: <Face no.3 @ (188, 6, 58, 60) - 0.99 - ok>}
[rosout][INFO] 2015-02-08 23:44:17,774: {1: <Face no.1 @ (520, 182, 61, 67) - 0.9801 - ok>, 3: <Face no.3 @ (188, 6, 59, 60) - 0.99 - ok>}
[rosout][INFO] 2015-02-08 23:44:17,814: {1: <Face no.1 @ (520, 182, 61, 67) - 0.9801 - ok>, 3: <Face no.3 @ (189, 7, 58, 60) - 0.99 - ok>}
[rosout][INFO] 2015-02-08 23:44:17,881: {1: <Face no.1 @ (520, 182, 61, 67) - 0.970299 - ok>, 3: <Face no.3 @ (189, 8, 58, 60) - 0.99 - ok>}
[rosout][INFO] 2015-02-08 23:44:17,895: {1: <Face no.1 @ (520, 182, 61, 67) - 0.970299 - ok>, 3: <Face no.3 @ (189, 8, 58, 60) - 0.99 - ok>}
[rosout][INFO] 2015-02-08 23:44:17,934: {1: <Face no.1 @ (519, 182, 62, 67) - 0.970299 - ok>, 3: <Face no.3 @ (189, 8, 58, 60) - 0.99 - ok>}
[rosout][INFO] 2015-02-08 23:44:17,974: {1: <Face no.1 @ (519, 182, 61, 67) - 0.970299 - ok>, 3: <Face no.3 @ (189, 8, 58, 60) - 0.99 - ok>}
[rosout][INFO] 2015-02-08 23:44:18,014: {1: <Face no.1 @ (519, 182, 61, 67) - 0.970299 - ok>, 3: <Face no.3 @ (189, 8, 59, 60) - 0.99 - ok>}
[rosout][INFO] 2015-02-08 23:44:18,081: {1: <Face no.1 @ (519, 182, 61, 67) - 0.96059601 - ok>, 3: <Face no.3 @ (187, 7, 62, 63) - 0.99 - ok>}
[rosout][INFO] 2015-02-08 23:44:18,097: {1: <Face no.1 @ (519, 182, 61, 67) - 0.96059601 - ok>, 3: <Face no.3 @ (187, 7, 62, 63) - 0.99 - ok>}
[rosout][INFO] 2015-02-08 23:44:18,139: {1: <Face no.1 @ (519, 182, 61, 67) - 0.96059601 - ok>, 3: <Face no.3 @ (187, 7, 62, 63) - 0.99 - ok>}
[rosout][INFO] 2015-02-08 23:44:18,179: {1: <Face no.1 @ (519, 182, 60, 67) - 0.96059601 - ok>, 3: <Face no.3 @ (187, 7, 62, 63) - 0.99 - ok>}
[rosout][INFO] 2015-02-08 23:44:18,219: {1: <Face no.1 @ (519, 182, 60, 67) - 0.96059601 - ok>, 3: <Face no.3 @ (187, 7, 62, 63) - 0.99 - ok>}
[rosout][INFO] 2015-02-08 23:44:18,285: {1: <Face no.1 @ (519, 182, 60, 67) - 0.9509900499 - ok>, 3: <Face no.3 @ (187, 6, 62, 65) - 0.99 - ok>}
[rosout][INFO] 2015-02-08 23:44:18,301: {1: <Face no.1 @ (519, 182, 60, 67) - 0.9509900499 - ok>, 3: <Face no.3 @ (186, 5, 62, 65) - 0.99 - ok>}
[rosout][INFO] 2015-02-08 23:44:18,339: {1: <Face no.1 @ (519, 182, 60, 67) - 0.9509900499 - ok>, 3: <Face no.3 @ (185, 3, 62, 66) - 0.99 - ok>}
[rosout][INFO] 2015-02-08 23:44:18,379: {1: <Face no.1 @ (519, 183, 60, 66) - 0.9509900499 - ok>, 3: <Face no.3 @ (185, 0, 61, 69) - 0.99 - ok>}
[rosout][INFO] 2015-02-08 23:44:18,419: {1: <Face no.1 @ (519, 183, 60, 66) - 0.9509900499 - ok>, 3: <Face no.3 @ (184, 0, 60, 70) - 0.99 - ok>}
[rosout][INFO] 2015-02-08 23:44:18,495: {1: <Face no.1 @ (519, 182, 60, 67) - 0.941480149401 - ok>, 3: <Face no.3 @ (183, 0, 60, 68) - 0.9801 - ok>}
[rosout][INFO] 2015-02-08 23:44:18,524: {1: <Face no.1 @ (519, 183, 59, 66) - 0.941480149401 - ok>, 3: <Face no.3 @ (181, 0, 60, 65) - 0.9801 - ok>}
[rosout][INFO] 2015-02-08 23:44:18,540: {1: <Face no.1 @ (519, 183, 59, 66) - 0.941480149401 - ok>, 3: <Face no.3 @ (180, 0, 58, 63) - 0.9801 - ok>}
[rosout][INFO] 2015-02-08 23:44:18,591: {1: <Face no.1 @ (519, 182, 59, 67) - 0.941480149401 - ok>, 3: <Face no.3 @ (180, 0, 55, 64) - 0.9801 - ok>}
[rosout][INFO] 2015-02-08 23:44:18,632: {1: <Face no.1 @ (519, 183, 59, 66) - 0.941480149401 - ok>, 3: <Face no.3 @ (179, 0, 54, 61) - 0.9801 - ok>}
[rosout][INFO] 2015-02-08 23:44:18,705: {1: <Face no.1 @ (519, 183, 59, 66) - 0.932065347907 - ok>, 3: <Face no.3 @ (179, 0, 54, 60) - 0.970299 - ok>}
[rosout][INFO] 2015-02-08 23:44:18,733: {1: <Face no.1 @ (519, 183, 59, 66) - 0.932065347907 - ok>, 3: <Face no.3 @ (178, 0, 55, 60) - 0.970299 - ok>}
[rosout][INFO] 2015-02-08 23:44:18,761: {1: <Face no.1 @ (519, 183, 59, 67) - 0.932065347907 - ok>, 3: <Face no.3 @ (178, 0, 54, 59) - 0.970299 - ok>}
[rosout][INFO] 2015-02-08 23:44:18,792: {1: <Face no.1 @ (519, 183, 59, 67) - 0.932065347907 - ok>, 3: <Face no.3 @ (178, 0, 54, 58) - 0.970299 - ok>}
[rosout][INFO] 2015-02-08 23:44:18,833: {1: <Face no.1 @ (519, 183, 59, 67) - 0.932065347907 - ok>, 3: <Face no.3 @ (177, 0, 54, 57) - 0.970299 - ok>}
[rosout][INFO] 2015-02-08 23:44:18,907: {1: <Face no.1 @ (519, 183, 59, 67) - 0.922744694428 - ok>, 3: <Face no.3 @ (178, 0, 50, 57) - 0.96059601 - ok>}
[rosout][INFO] 2015-02-08 23:44:18,935: {1: <Face no.1 @ (519, 183, 59, 67) - 0.922744694428 - ok>, 3: <Face no.3 @ (178, 0, 49, 58) - 0.96059601 - ok>}
[rosout][INFO] 2015-02-08 23:44:18,964: {1: <Face no.1 @ (519, 183, 59, 67) - 0.922744694428 - ok>, 3: <Face no.3 @ (178, 0, 49, 58) - 0.96059601 - ok>}
[rosout][INFO] 2015-02-08 23:44:18,994: {1: <Face no.1 @ (519, 183, 59, 67) - 0.922744694428 - ok>, 3: <Face no.3 @ (178, 0, 49, 58) - 0.96059601 - ok>}
[rosout][INFO] 2015-02-08 23:44:19,019: {1: <Face no.1 @ (519, 183, 59, 67) - 0.922744694428 - ok>, 3: <Face no.3 @ (177, 0, 50, 57) - 0.96059601 - ok>}
[rosout][INFO] 2015-02-08 23:44:19,093: {1: <Face no.1 @ (519, 183, 59, 67) - 0.913517247484 - ok>, 3: <Face no.3 @ (176, 0, 52, 57) - 0.9509900499 - ok>}
[rosout][INFO] 2015-02-08 23:44:19,108: {1: <Face no.1 @ (519, 183, 59, 67) - 0.913517247484 - ok>, 3: <Face no.3 @ (177, 0, 52, 58) - 0.9509900499 - ok>}
[rosout][INFO] 2015-02-08 23:44:19,140: {1: <Face no.1 @ (519, 183, 59, 67) - 0.913517247484 - ok>, 3: <Face no.3 @ (177, 0, 54, 60) - 0.9509900499 - ok>}
[rosout][INFO] 2015-02-08 23:44:19,179: {1: <Face no.1 @ (519, 183, 59, 67) - 0.913517247484 - ok>, 3: <Face no.3 @ (178, 0, 56, 61) - 0.9509900499 - ok>}
[rosout][INFO] 2015-02-08 23:44:19,220: {1: <Face no.1 @ (519, 183, 59, 67) - 0.913517247484 - ok>, 3: <Face no.3 @ (179, 2, 57, 62) - 0.9509900499 - ok>}
[rosout][INFO] 2015-02-08 23:44:19,304: {1: <Face no.1 @ (519, 183, 59, 67) - 0.904382075009 - ok>, 3: <Face no.3 @ (180, 2, 58, 65) - 0.941480149401 - ok>}
[rosout][INFO] 2015-02-08 23:44:19,322: {1: <Face no.1 @ (519, 183, 59, 67) - 0.904382075009 - ok>, 3: <Face no.3 @ (181, 2, 57, 68) - 0.941480149401 - ok>}
[rosout][INFO] 2015-02-08 23:44:19,358: {1: <Face no.1 @ (519, 184, 59, 66) - 0.904382075009 - ok>, 3: <Face no.3 @ (182, 2, 57, 70) - 0.941480149401 - ok>}
[rosout][INFO] 2015-02-08 23:44:19,392: {1: <Face no.1 @ (519, 183, 59, 67) - 0.904382075009 - ok>, 3: <Face no.3 @ (184, 4, 56, 71) - 0.941480149401 - ok>}
[rosout][INFO] 2015-02-08 23:44:19,432: {1: <Face no.1 @ (519, 184, 60, 66) - 0.904382075009 - ok>, 3: <Face no.3 @ (185, 6, 57, 69) - 0.941480149401 - ok>}
[rosout][INFO] 2015-02-08 23:44:19,486: {1: <Face no.1 @ (519, 184, 60, 66) - 0.895338254259 - ok>, 3: <Face no.3 @ (192, 6, 62, 63) - 0.99 - ok>}
[rosout][INFO] 2015-02-08 23:44:19,501: {1: <Face no.1 @ (519, 184, 59, 66) - 0.895338254259 - ok>, 3: <Face no.3 @ (193, 7, 61, 63) - 0.99 - ok>}
[rosout][INFO] 2015-02-08 23:44:19,540: {1: <Face no.1 @ (519, 184, 60, 66) - 0.895338254259 - ok>, 3: <Face no.3 @ (195, 8, 60, 65) - 0.99 - ok>}
[rosout][INFO] 2015-02-08 23:44:19,581: {1: <Face no.1 @ (519, 184, 60, 66) - 0.895338254259 - ok>, 3: <Face no.3 @ (197, 9, 59, 66) - 0.99 - ok>}
[rosout][INFO] 2015-02-08 23:44:19,621: {1: <Face no.1 @ (519, 184, 60, 66) - 0.895338254259 - ok>, 3: <Face no.3 @ (199, 10, 58, 66) - 0.99 - ok>}
[rosout][INFO] 2015-02-08 23:44:19,686: {1: <Face no.1 @ (519, 184, 60, 66) - 0.886384871716 - ok>, 3: <Face no.3 @ (199, 12, 65, 66) - 0.99 - ok>}
[rosout][INFO] 2015-02-08 23:44:19,703: {1: <Face no.1 @ (519, 184, 60, 66) - 0.886384871716 - ok>, 3: <Face no.3 @ (200, 13, 65, 66) - 0.99 - ok>}
[rosout][INFO] 2015-02-08 23:44:19,739: {1: <Face no.1 @ (519, 184, 60, 66) - 0.886384871716 - ok>, 3: <Face no.3 @ (202, 14, 64, 66) - 0.99 - ok>}
[rosout][INFO] 2015-02-08 23:44:19,779: {1: <Face no.1 @ (519, 184, 60, 66) - 0.886384871716 - ok>, 3: <Face no.3 @ (203, 15, 63, 66) - 0.99 - ok>}
[rosout][INFO] 2015-02-08 23:44:19,820: {1: <Face no.1 @ (519, 184, 60, 66) - 0.886384871716 - ok>, 3: <Face no.3 @ (206, 16, 61, 66) - 0.99 - ok>}
[rosout][INFO] 2015-02-08 23:44:19,900: {1: <Face no.1 @ (520, 184, 59, 66) - 0.877521022999 - ok>, 3: <Face no.3 @ (208, 18, 60, 65) - 0.9801 - ok>}
[rosout][INFO] 2015-02-08 23:44:19,916: {1: <Face no.1 @ (519, 184, 60, 66) - 0.877521022999 - ok>, 3: <Face no.3 @ (211, 19, 58, 66) - 0.9801 - ok>}
[rosout][INFO] 2015-02-08 23:44:19,939: {1: <Face no.1 @ (519, 184, 60, 66) - 0.877521022999 - ok>, 3: <Face no.3 @ (234, 0, 57, 140) - 0.9801 - ok>}
[rosout][INFO] 2015-02-08 23:44:19,990: {1: <Face no.1 @ (520, 184, 59, 66) - 0.877521022999 - ok>, 3: <Face no.3 @ (221, 5, 48, 105) - 0.9801 - ok>}
[rosout][INFO] 2015-02-08 23:44:20,024: {1: <Face no.1 @ (520, 184, 60, 66) - 0.877521022999 - ok>, 3: <Face no.3 @ (220, 28, 50, 64) - 0.9801 - ok>}
[rosout][INFO] 2015-02-08 23:44:20,096: {1: <Face no.1 @ (522, 189, 59, 62) - 0.99 - ok>, 3: <Face no.3 @ (225, 33, 46, 60) - 0.970299 - ok>}
[rosout][INFO] 2015-02-08 23:44:20,113: {1: <Face no.1 @ (521, 189, 59, 62) - 0.99 - ok>, 3: <Face no.3 @ (226, 35, 44, 59) - 0.970299 - ok>}
[rosout][INFO] 2015-02-08 23:44:20,143: {1: <Face no.1 @ (521, 189, 60, 62) - 0.99 - ok>, 3: <Face no.3 @ (226, 36, 42, 59) - 0.970299 - ok>}
[rosout][INFO] 2015-02-08 23:44:20,183: {1: <Face no.1 @ (521, 188, 59, 63) - 0.99 - ok>, 3: <Face no.3 @ (226, 37, 41, 57) - 0.970299 - ok>}
[rosout][INFO] 2015-02-08 23:44:20,223: {1: <Face no.1 @ (521, 189, 60, 62) - 0.99 - ok>, 3: <Face no.3 @ (225, 38, 41, 56) - 0.970299 - ok>}
[rosout][INFO] 2015-02-08 23:44:20,296: {1: <Face no.1 @ (522, 190, 55, 63) - 0.99 - ok>, 3: <Face no.3 @ (223, 38, 40, 56) - 0.96059601 - ok>}
[rosout][INFO] 2015-02-08 23:44:20,313: {1: <Face no.1 @ (521, 189, 56, 63) - 0.99 - ok>, 3: <Face no.3 @ (222, 37, 38, 58) - 0.96059601 - ok>}
[rosout][INFO] 2015-02-08 23:44:20,344: {1: <Face no.1 @ (522, 189, 55, 63) - 0.99 - ok>, 3: <Face no.3 @ (219, 37, 38, 57) - 0.96059601 - ok>}
[rosout][INFO] 2015-02-08 23:44:20,383: {1: <Face no.1 @ (522, 189, 55, 63) - 0.99 - ok>, 3: <Face no.3 @ (217, 37, 38, 57) - 0.96059601 - ok>}
[rosout][INFO] 2015-02-08 23:44:20,423: {1: <Face no.1 @ (522, 189, 55, 64) - 0.99 - ok>, 3: <Face no.3 @ (213, 37, 40, 57) - 0.96059601 - ok>}
[rosout][INFO] 2015-02-08 23:44:20,505: {1: <Face no.1 @ (522, 189, 55, 64) - 0.9801 - ok>, 3: <Face no.3 @ (210, 38, 40, 57) - 0.9509900499 - ok>}
[rosout][INFO] 2015-02-08 23:44:20,521: {1: <Face no.1 @ (521, 189, 56, 63) - 0.9801 - ok>, 3: <Face no.3 @ (207, 37, 41, 58) - 0.9509900499 - ok>}
[rosout][INFO] 2015-02-08 23:44:20,545: {1: <Face no.1 @ (521, 189, 56, 64) - 0.9801 - ok>, 3: <Face no.3 @ (205, 37, 41, 58) - 0.9509900499 - ok>}
[rosout][INFO] 2015-02-08 23:44:20,585: {1: <Face no.1 @ (521, 189, 56, 64) - 0.9801 - ok>, 3: <Face no.3 @ (202, 37, 43, 58) - 0.9509900499 - ok>}
[rosout][INFO] 2015-02-08 23:44:20,625: {1: <Face no.1 @ (521, 189, 56, 63) - 0.9801 - ok>, 3: <Face no.3 @ (201, 36, 42, 60) - 0.9509900499 - ok>}
[rosout][INFO] 2015-02-08 23:44:20,704: {1: <Face no.1 @ (521, 189, 56, 64) - 0.970299 - ok>, 3: <Face no.3 @ (204, 34, 34, 58) - 0.941480149401 - ok>}
[rosout][INFO] 2015-02-08 23:44:20,719: {1: <Face no.1 @ (521, 189, 56, 64) - 0.970299 - ok>, 3: <Face no.3 @ (202, 35, 35, 56) - 0.941480149401 - ok>}
[rosout][INFO] 2015-02-08 23:44:20,743: {1: <Face no.1 @ (521, 189, 57, 63) - 0.970299 - ok>, 3: <Face no.3 @ (200, 35, 36, 55) - 0.941480149401 - ok>}
[rosout][INFO] 2015-02-08 23:44:20,795: {1: <Face no.1 @ (521, 189, 57, 63) - 0.970299 - ok>, 3: <Face no.3 @ (198, 35, 37, 55) - 0.941480149401 - ok>}
[rosout][INFO] 2015-02-08 23:44:20,822: {1: <Face no.1 @ (521, 189, 57, 63) - 0.970299 - ok>, 3: <Face no.3 @ (198, 37, 37, 52) - 0.941480149401 - ok>}
[rosout][INFO] 2015-02-08 23:44:20,898: {1: <Face no.1 @ (521, 190, 55, 63) - 0.99 - ok>, 3: <Face no.3 @ (196, 37, 38, 52) - 0.932065347907 - ok>, 5: <Face no.5 @ (150, 194, 44, 44) - 0.99 - new>}
[rosout][INFO] 2015-02-08 23:44:20,914: {1: <Face no.1 @ (521, 189, 55, 64) - 0.99 - ok>, 3: <Face no.3 @ (196, 38, 38, 51) - 0.932065347907 - ok>, 5: <Face no.5 @ (150, 194, 44, 44) - 0.99 - new>}
[rosout][INFO] 2015-02-08 23:44:20,943: {1: <Face no.1 @ (521, 189, 55, 63) - 0.99 - ok>, 3: <Face no.3 @ (195, 38, 39, 52) - 0.932065347907 - ok>, 5: <Face no.5 @ (150, 194, 44, 44) - 0.99 - new>}
[rosout][INFO] 2015-02-08 23:44:20,986: {1: <Face no.1 @ (521, 189, 55, 63) - 0.99 - ok>, 3: <Face no.3 @ (196, 38, 37, 52) - 0.932065347907 - ok>, 5: <Face no.5 @ (150, 194, 44, 44) - 0.99 - new>}
[rosout][INFO] 2015-02-08 23:44:21,036: {1: <Face no.1 @ (521, 189, 55, 63) - 0.99 - ok>, 3: <Face no.3 @ (196, 40, 36, 51) - 0.932065347907 - ok>, 5: <Face no.5 @ (150, 194, 44, 44) - 0.99 - new>}
[rosout][INFO] 2015-02-08 23:44:21,096: {1: <Face no.1 @ (521, 192, 57, 60) - 0.99 - ok>, 3: <Face no.3 @ (197, 40, 35, 52) - 0.922744694428 - ok>}
[rosout][INFO] 2015-02-08 23:44:21,114: {1: <Face no.1 @ (520, 191, 57, 60) - 0.99 - ok>, 3: <Face no.3 @ (198, 41, 34, 52) - 0.922744694428 - ok>}
[rosout][INFO] 2015-02-08 23:44:21,162: {1: <Face no.1 @ (521, 190, 56, 62) - 0.99 - ok>, 3: <Face no.3 @ (199, 43, 33, 50) - 0.922744694428 - ok>}
[rosout][INFO] 2015-02-08 23:44:21,210: {1: <Face no.1 @ (521, 191, 56, 61) - 0.99 - ok>, 3: <Face no.3 @ (201, 43, 32, 51) - 0.922744694428 - ok>}
[rosout][INFO] 2015-02-08 23:44:21,245: {1: <Face no.1 @ (521, 189, 55, 64) - 0.99 - ok>, 3: <Face no.3 @ (203, 46, 30, 49) - 0.922744694428 - ok>}
[rosout][INFO] 2015-02-08 23:44:21,297: {1: <Face no.1 @ (522, 191, 54, 61) - 0.99 - ok>, 3: <Face no.3 @ (205, 47, 29, 49) - 0.913517247484 - ok>}
[rosout][INFO] 2015-02-08 23:44:21,315: {1: <Face no.1 @ (522, 191, 54, 60) - 0.99 - ok>, 3: <Face no.3 @ (207, 48, 29, 49) - 0.913517247484 - ok>}
[rosout][INFO] 2015-02-08 23:44:21,343: {1: <Face no.1 @ (522, 191, 54, 60) - 0.99 - ok>, 3: <Face no.3 @ (209, 50, 29, 48) - 0.913517247484 - ok>}
[rosout][INFO] 2015-02-08 23:44:21,383: {1: <Face no.1 @ (522, 191, 54, 60) - 0.99 - ok>, 3: <Face no.3 @ (212, 51, 28, 48) - 0.913517247484 - ok>}
[rosout][INFO] 2015-02-08 23:44:21,423: {1: <Face no.1 @ (522, 191, 54, 60) - 0.99 - ok>, 3: <Face no.3 @ (216, 53, 27, 47) - 0.913517247484 - ok>}
[rosout][INFO] 2015-02-08 23:44:21,491: {1: <Face no.1 @ (523, 193, 57, 58) - 0.99 - ok>, 3: <Face no.3 @ (220, 54, 26, 46) - 0.904382075009 - ok>}
[rosout][INFO] 2015-02-08 23:44:21,506: {1: <Face no.1 @ (523, 193, 56, 58) - 0.99 - ok>, 3: <Face no.3 @ (223, 56, 27, 46) - 0.904382075009 - ok>}
[rosout][INFO] 2015-02-08 23:44:21,559: {1: <Face no.1 @ (523, 192, 56, 59) - 0.99 - ok>, 3: <Face no.3 @ (227, 58, 26, 45) - 0.904382075009 - ok>}
[rosout][INFO] 2015-02-08 23:44:21,586: {1: <Face no.1 @ (523, 192, 56, 59) - 0.99 - ok>, 3: <Face no.3 @ (232, 60, 25, 44) - 0.904382075009 - ok>}
[rosout][INFO] 2015-02-08 23:44:21,625: {1: <Face no.1 @ (523, 192, 56, 59) - 0.99 - ok>, 3: <Face no.3 @ (236, 62, 25, 43) - 0.904382075009 - ok>}
[rosout][INFO] 2015-02-08 23:44:21,713: {1: <Face no.1 @ (520, 189, 61, 66) - 0.99 - ok>, 3: <Face no.3 @ (241, 65, 24, 42) - 0.895338254259 - ok>}
[rosout][INFO] 2015-02-08 23:44:21,742: {1: <Face no.1 @ (519, 189, 62, 65) - 0.99 - ok>, 3: <Face no.3 @ (246, 67, 21, 42) - 0.895338254259 - ok>}
[rosout][INFO] 2015-02-08 23:44:21,770: {1: <Face no.1 @ (519, 189, 62, 65) - 0.99 - ok>, 3: <Face no.3 @ (251, 69, 18, 43) - 0.895338254259 - ok>}
[rosout][INFO] 2015-02-08 23:44:21,797: {1: <Face no.1 @ (519, 189, 62, 65) - 0.99 - ok>, 3: <Face no.3 @ (254, 72, 23, 77) - 0.895338254259 - ok>}
[rosout][INFO] 2015-02-08 23:44:21,845: {1: <Face no.1 @ (519, 189, 61, 65) - 0.99 - ok>, 3: <Face no.3 @ (258, 73, 21, 61) - 0.895338254259 - ok>}
[rosout][INFO] 2015-02-08 23:44:21,936: {1: <Face no.1 @ (518, 187, 60, 66) - 0.99 - ok>, 3: <Face no.3 @ (262, 76, 16, 48) - 0.886384871716 - ok>}
[rosout][INFO] 2015-02-08 23:44:21,964: {1: <Face no.1 @ (517, 187, 61, 65) - 0.99 - ok>, 3: <Face no.3 @ (263, 80, 15, 40) - 0.886384871716 - ok>}
[rosout][INFO] 2015-02-08 23:44:21,990: {1: <Face no.1 @ (517, 187, 61, 65) - 0.99 - ok>, 3: <Face no.3 @ (264, 83, 15, 37) - 0.886384871716 - ok>}
[rosout][INFO] 2015-02-08 23:44:22,017: {1: <Face no.1 @ (517, 187, 61, 65) - 0.99 - ok>, 3: <Face no.3 @ (265, 84, 15, 34) - 0.886384871716 - ok>}
[rosout][INFO] 2015-02-08 23:44:22,044: {1: <Face no.1 @ (516, 187, 62, 65) - 0.99 - ok>, 3: <Face no.3 @ (267, 84, 15, 34) - 0.886384871716 - ok>}
[rosout][INFO] 2015-02-08 23:44:22,112: {1: <Face no.1 @ (516, 187, 62, 65) - 0.9801 - ok>, 3: <Face no.3 @ (268, 84, 15, 33) - 0.877521022999 - ok>}
[rosout][INFO] 2015-02-08 23:44:22,137: {1: <Face no.1 @ (515, 187, 63, 65) - 0.9801 - ok>, 3: <Face no.3 @ (271, 85, 14, 30) - 0.877521022999 - ok>}
[rosout][INFO] 2015-02-08 23:44:22,164: {1: <Face no.1 @ (514, 187, 64, 65) - 0.9801 - ok>, 3: <Face no.3 @ (272, 86, 14, 27) - 0.877521022999 - ok>}
[rosout][INFO] 2015-02-08 23:44:22,198: {1: <Face no.1 @ (514, 187, 64, 65) - 0.9801 - ok>, 3: <Face no.3 @ (273, 87, 14, 26) - 0.877521022999 - ok>}
[rosout][INFO] 2015-02-08 23:44:22,239: {1: <Face no.1 @ (514, 187, 64, 65) - 0.9801 - ok>, 3: <Face no.3 @ (274, 87, 15, 24) - 0.877521022999 - ok>}
[rosout][INFO] 2015-02-08 23:44:22,312: {1: <Face no.1 @ (514, 186, 64, 66) - 0.970299 - ok>, 3: <Face no.3 @ (275, 87, 15, 23) - 0.868745812769 - ok>}
[rosout][INFO] 2015-02-08 23:44:22,339: {1: <Face no.1 @ (514, 186, 63, 66) - 0.970299 - ok>, 3: <Face no.3 @ (277, 87, 14, 24) - 0.868745812769 - ok>}
[rosout][INFO] 2015-02-08 23:44:22,366: {1: <Face no.1 @ (514, 187, 64, 65) - 0.970299 - ok>, 3: <Face no.3 @ (277, 86, 14, 25) - 0.868745812769 - ok>}
[rosout][INFO] 2015-02-08 23:44:22,398: {1: <Face no.1 @ (513, 186, 64, 67) - 0.970299 - ok>, 3: <Face no.3 @ (276, 84, 16, 27) - 0.868745812769 - ok>}
[rosout][INFO] 2015-02-08 23:44:22,439: {1: <Face no.1 @ (517, 187, 60, 65) - 0.970299 - ok>, 3: <Face no.3 @ (273, 83, 19, 29) - 0.868745812769 - ok>}
[rosout][INFO] 2015-02-08 23:44:22,513: {1: <Face no.1 @ (517, 187, 60, 65) - 0.96059601 - ok>, 3: <Face no.3 @ (271, 81, 20, 34) - 0.860058354641 - ok>}
[rosout][INFO] 2015-02-08 23:44:22,541: {1: <Face no.1 @ (517, 187, 61, 65) - 0.96059601 - ok>, 3: <Face no.3 @ (269, 77, 21, 45) - 0.860058354641 - ok>}
[rosout][INFO] 2015-02-08 23:44:22,567: {1: <Face no.1 @ (517, 187, 60, 65) - 0.96059601 - ok>, 3: <Face no.3 @ (269, 71, 21, 58) - 0.860058354641 - ok>}
[rosout][INFO] 2015-02-08 23:44:22,599: {1: <Face no.1 @ (517, 188, 60, 64) - 0.96059601 - ok>, 3: <Face no.3 @ (268, 62, 22, 78) - 0.860058354641 - ok>}
[rosout][INFO] 2015-02-08 23:44:22,639: {1: <Face no.1 @ (517, 188, 60, 64) - 0.96059601 - ok>, 3: <Face no.3 @ (263, 63, 25, 91) - 0.860058354641 - ok>}
[rosout][INFO] 2015-02-08 23:44:22,734: {1: <Face no.1 @ (519, 186, 56, 66) - 0.99 - ok>, 3: <Face no.3 @ (259, 60, 33, 96) - 0.851457771095 - ok>}
[rosout][INFO] 2015-02-08 23:44:22,767: {1: <Face no.1 @ (519, 186, 56, 66) - 0.99 - ok>, 3: <Face no.3 @ (254, 54, 42, 105) - 0.851457771095 - ok>}
[rosout][INFO] 2015-02-08 23:44:22,798: {1: <Face no.1 @ (519, 186, 56, 67) - 0.99 - ok>, 3: <Face no.3 @ (245, 43, 53, 130) - 0.851457771095 - ok>}
[rosout][INFO] 2015-02-08 23:44:22,815: {1: <Face no.1 @ (519, 186, 56, 66) - 0.99 - ok>, 3: <Face no.3 @ (232, 26, 70, 173) - 0.851457771095 - ok>}
[rosout][INFO] 2015-02-08 23:44:22,832: {1: <Face no.1 @ (518, 187, 57, 65) - 0.99 - ok>, 3: <Face no.3 @ (231, 32, 69, 134) - 0.851457771095 - ok>}
[rosout][INFO] 2015-02-08 23:44:22,932: {1: <Face no.1 @ (518, 187, 57, 65) - 0.9801 - ok>, 3: <Face no.3 @ (234, 29, 65, 119) - 0.842943193384 - ok>}
[rosout][INFO] 2015-02-08 23:44:22,962: {1: <Face no.1 @ (519, 187, 56, 66) - 0.9801 - ok>, 3: <Face no.3 @ (236, 44, 64, 85) - 0.842943193384 - ok>}
[rosout][INFO] 2015-02-08 23:44:22,994: {1: <Face no.1 @ (519, 187, 57, 65) - 0.9801 - ok>, 3: <Face no.3 @ (243, 50, 58, 76) - 0.842943193384 - ok>}
[rosout][INFO] 2015-02-08 23:44:23,022: {1: <Face no.1 @ (518, 187, 58, 65) - 0.9801 - ok>, 3: <Face no.3 @ (249, 48, 53, 77) - 0.842943193384 - ok>}
[rosout][INFO] 2015-02-08 23:44:23,057: {1: <Face no.1 @ (519, 187, 56, 65) - 0.9801 - ok>, 3: <Face no.3 @ (257, 48, 45, 76) - 0.842943193384 - ok>}
[rosout][INFO] 2015-02-08 23:44:23,132: {1: <Face no.1 @ (519, 187, 56, 65) - 0.970299 - ok>, 3: <Face no.3 @ (261, 50, 42, 72) - 0.83451376145 - ok>}
[rosout][INFO] 2015-02-08 23:44:23,164: {1: <Face no.1 @ (518, 187, 57, 65) - 0.970299 - ok>, 3: <Face no.3 @ (261, 53, 42, 67) - 0.83451376145 - ok>}
[rosout][INFO] 2015-02-08 23:44:23,195: {1: <Face no.1 @ (519, 187, 57, 65) - 0.970299 - ok>, 3: <Face no.3 @ (264, 54, 39, 66) - 0.83451376145 - ok>}
[rosout][INFO] 2015-02-08 23:44:23,224: {1: <Face no.1 @ (518, 187, 58, 65) - 0.970299 - ok>, 3: <Face no.3 @ (268, 54, 37, 66) - 0.83451376145 - ok>}
[rosout][INFO] 2015-02-08 23:44:23,256: {1: <Face no.1 @ (519, 187, 56, 65) - 0.970299 - ok>, 3: <Face no.3 @ (270, 53, 35, 67) - 0.83451376145 - ok>}
[rosout][INFO] 2015-02-08 23:44:23,357: {1: <Face no.1 @ (518, 187, 57, 65) - 0.96059601 - ok>, 3: <Face no.3 @ (270, 58, 36, 62) - 0.826168623836 - ok>}
[rosout][INFO] 2015-02-08 23:44:23,391: {1: <Face no.1 @ (519, 187, 57, 65) - 0.96059601 - ok>, 3: <Face no.3 @ (269, 60, 36, 58) - 0.826168623836 - ok>}
[rosout][INFO] 2015-02-08 23:44:23,429: {1: <Face no.1 @ (519, 187, 56, 65) - 0.96059601 - ok>, 3: <Face no.3 @ (268, 64, 37, 53) - 0.826168623836 - ok>}
[rosout][INFO] 2015-02-08 23:44:23,464: {1: <Face no.1 @ (518, 187, 58, 65) - 0.96059601 - ok>, 3: <Face no.3 @ (268, 62, 38, 55) - 0.826168623836 - ok>}
[rosout][INFO] 2015-02-08 23:44:23,493: {1: <Face no.1 @ (519, 186, 56, 66) - 0.96059601 - ok>, 3: <Face no.3 @ (269, 59, 37, 59) - 0.826168623836 - ok>}
[rosout][INFO] 2015-02-08 23:44:23,573: {1: <Face no.1 @ (519, 187, 56, 65) - 0.9509900499 - ok>, 3: <Face no.3 @ (267, 61, 39, 60) - 0.817906937597 - ok>}
[rosout][INFO] 2015-02-08 23:44:23,607: {1: <Face no.1 @ (519, 187, 57, 65) - 0.9509900499 - ok>, 3: <Face no.3 @ (268, 55, 38, 67) - 0.817906937597 - ok>}
[rosout][INFO] 2015-02-08 23:44:23,640: {1: <Face no.1 @ (519, 186, 56, 66) - 0.9509900499 - ok>, 3: <Face no.3 @ (268, 50, 38, 76) - 0.817906937597 - ok>}
[rosout][INFO] 2015-02-08 23:44:23,673: {1: <Face no.1 @ (519, 186, 56, 67) - 0.9509900499 - ok>, 3: <Face no.3 @ (264, 49, 41, 86) - 0.817906937597 - ok>}
[rosout][INFO] 2015-02-08 23:44:23,707: {1: <Face no.1 @ (519, 186, 56, 66) - 0.9509900499 - ok>, 3: <Face no.3 @ (262, 41, 42, 104) - 0.817906937597 - ok>}
[rosout][INFO] 2015-02-08 23:44:23,799: {1: <Face no.1 @ (519, 186, 56, 67) - 0.941480149401 - ok>, 3: <Face no.3 @ (254, 43, 49, 114) - 0.809727868221 - ok>}
[rosout][INFO] 2015-02-08 23:44:23,817: {1: <Face no.1 @ (519, 186, 56, 66) - 0.941480149401 - ok>, 3: <Face no.3 @ (248, 40, 56, 120) - 0.809727868221 - ok>}
[rosout][INFO] 2015-02-08 23:44:23,836: {1: <Face no.1 @ (519, 186, 56, 66) - 0.941480149401 - ok>, 3: <Face no.3 @ (250, 39, 54, 109) - 0.809727868221 - ok>}
[rosout][INFO] 2015-02-08 23:44:23,864: {1: <Face no.1 @ (519, 186, 57, 66) - 0.941480149401 - ok>, 3: <Face no.3 @ (250, 46, 54, 84) - 0.809727868221 - ok>}
[rosout][INFO] 2015-02-08 23:44:23,891: {1: <Face no.1 @ (519, 186, 56, 66) - 0.941480149401 - ok>, 3: <Face no.3 @ (254, 54, 50, 70) - 0.809727868221 - ok>}
[rosout][INFO] 2015-02-08 23:44:23,961: {1: <Face no.1 @ (518, 189, 61, 64) - 0.99 - ok>, 3: <Face no.3 @ (259, 55, 45, 68) - 0.801630589539 - ok>}
[rosout][INFO] 2015-02-08 23:44:23,989: {1: <Face no.1 @ (517, 188, 61, 63) - 0.99 - ok>, 3: <Face no.3 @ (261, 54, 43, 66) - 0.801630589539 - ok>}
[rosout][INFO] 2015-02-08 23:44:24,016: {1: <Face no.1 @ (517, 188, 61, 64) - 0.99 - ok>, 3: <Face no.3 @ (266, 55, 40, 63) - 0.801630589539 - ok>}
[rosout][INFO] 2015-02-08 23:44:24,043: {1: <Face no.1 @ (518, 188, 60, 63) - 0.99 - ok>, 3: <Face no.3 @ (267, 60, 39, 53) - 0.801630589539 - ok>}
[rosout][INFO] 2015-02-08 23:44:24,070: {1: <Face no.1 @ (518, 188, 61, 63) - 0.99 - ok>, 3: <Face no.3 @ (267, 62, 41, 49) - 0.801630589539 - ok>}
[rosout][INFO] 2015-02-08 23:44:24,129: {1: <Face no.1 @ (518, 188, 61, 64) - 0.9801 - ok>, 3: <Face no.3 @ (269, 65, 36, 45) - 0.793614283644 - ok>}
[rosout][INFO] 2015-02-08 23:44:24,156: {1: <Face no.1 @ (518, 188, 61, 64) - 0.9801 - ok>, 3: <Face no.3 @ (271, 65, 33, 44) - 0.793614283644 - ok>}
[rosout][INFO] 2015-02-08 23:44:24,183: {1: <Face no.1 @ (518, 188, 61, 64) - 0.9801 - ok>, 3: <Face no.3 @ (272, 64, 33, 44) - 0.793614283644 - ok>}
[rosout][INFO] 2015-02-08 23:44:24,213: {1: <Face no.1 @ (518, 187, 60, 65) - 0.9801 - ok>, 3: <Face no.3 @ (271, 67, 35, 35) - 0.793614283644 - ok>}
[rosout][INFO] 2015-02-08 23:44:24,242: {1: <Face no.1 @ (518, 185, 60, 67) - 0.9801 - ok>, 3: <Face no.3 @ (271, 66, 35, 36) - 0.793614283644 - ok>}
[rosout][INFO] 2015-02-08 23:44:24,315: {1: <Face no.1 @ (518, 183, 60, 70) - 0.970299 - ok>, 3: <Face no.3 @ (271, 67, 34, 35) - 0.785678140807 - ok>}
[rosout][INFO] 2015-02-08 23:44:24,342: {1: <Face no.1 @ (519, 181, 59, 72) - 0.970299 - ok>, 3: <Face no.3 @ (271, 65, 33, 41) - 0.785678140807 - ok>}
[rosout][INFO] 2015-02-08 23:44:24,369: {1: <Face no.1 @ (519, 180, 60, 73) - 0.970299 - ok>, 3: <Face no.3 @ (270, 63, 32, 43) - 0.785678140807 - ok>}
[rosout][INFO] 2015-02-08 23:44:24,403: {1: <Face no.1 @ (521, 179, 58, 72) - 0.970299 - ok>, 3: <Face no.3 @ (271, 59, 31, 50) - 0.785678140807 - ok>}
[rosout][INFO] 2015-02-08 23:44:24,447: {1: <Face no.1 @ (521, 179, 58, 72) - 0.970299 - ok>, 3: <Face no.3 @ (269, 55, 30, 56) - 0.785678140807 - ok>}
[rosout][INFO] 2015-02-08 23:44:24,519: {1: <Face no.1 @ (521, 178, 57, 73) - 0.96059601 - ok>, 3: <Face no.3 @ (268, 49, 30, 65) - 0.777821359399 - ok>}
[rosout][INFO] 2015-02-08 23:44:24,546: {1: <Face no.1 @ (521, 178, 57, 73) - 0.96059601 - ok>, 3: <Face no.3 @ (260, 45, 32, 68) - 0.777821359399 - ok>}
[rosout][INFO] 2015-02-08 23:44:24,580: {1: <Face no.1 @ (520, 178, 58, 73) - 0.96059601 - ok>, 3: <Face no.3 @ (254, 36, 35, 80) - 0.777821359399 - ok>}
[rosout][INFO] 2015-02-08 23:44:24,608: {1: <Face no.1 @ (520, 178, 58, 72) - 0.96059601 - ok>, 3: <Face no.3 @ (252, 24, 37, 99) - 0.777821359399 - ok>}
[rosout][INFO] 2015-02-08 23:44:24,630: {1: <Face no.1 @ (520, 178, 58, 72) - 0.96059601 - ok>, 3: <Face no.3 @ (242, 15, 41, 111) - 0.777821359399 - ok>}
[rosout][INFO] 2015-02-08 23:44:24,718: {1: <Face no.1 @ (520, 178, 57, 72) - 0.9509900499 - ok>, 3: <Face no.3 @ (263, 65, 37, 42) - 0.99 - ok>}
[rosout][INFO] 2015-02-08 23:44:24,734: {1: <Face no.1 @ (520, 178, 57, 72) - 0.9509900499 - ok>, 3: <Face no.3 @ (262, 64, 37, 42) - 0.99 - ok>}
[rosout][INFO] 2015-02-08 23:44:24,751: {1: <Face no.1 @ (520, 178, 57, 72) - 0.9509900499 - ok>, 3: <Face no.3 @ (262, 64, 37, 42) - 0.99 - ok>}
[rosout][INFO] 2015-02-08 23:44:24,796: {1: <Face no.1 @ (520, 178, 57, 72) - 0.9509900499 - ok>, 3: <Face no.3 @ (262, 64, 37, 42) - 0.99 - ok>}
[rosout][INFO] 2015-02-08 23:44:24,830: {1: <Face no.1 @ (520, 179, 57, 71) - 0.9509900499 - ok>, 3: <Face no.3 @ (262, 63, 36, 43) - 0.99 - ok>}
[rosout][INFO] 2015-02-08 23:44:24,915: {1: <Face no.1 @ (519, 179, 58, 71) - 0.941480149401 - ok>, 3: <Face no.3 @ (257, 65, 43, 45) - 0.99 - ok>}
[rosout][INFO] 2015-02-08 23:44:24,930: {1: <Face no.1 @ (519, 180, 57, 70) - 0.941480149401 - ok>, 3: <Face no.3 @ (256, 64, 44, 45) - 0.99 - ok>}
[rosout][INFO] 2015-02-08 23:44:24,951: {1: <Face no.1 @ (519, 180, 57, 70) - 0.941480149401 - ok>, 3: <Face no.3 @ (257, 64, 42, 45) - 0.99 - ok>}
[rosout][INFO] 2015-02-08 23:44:24,997: {1: <Face no.1 @ (519, 181, 57, 69) - 0.941480149401 - ok>, 3: <Face no.3 @ (256, 63, 43, 46) - 0.99 - ok>}
[rosout][INFO] 2015-02-08 23:44:25,032: {1: <Face no.1 @ (519, 181, 57, 69) - 0.941480149401 - ok>, 3: <Face no.3 @ (256, 63, 43, 46) - 0.99 - ok>}
[rosout][INFO] 2015-02-08 23:44:25,118: {1: <Face no.1 @ (519, 181, 56, 69) - 0.932065347907 - ok>, 3: <Face no.3 @ (258, 64, 42, 45) - 0.99 - ok>}
[rosout][INFO] 2015-02-08 23:44:25,134: {1: <Face no.1 @ (519, 181, 56, 69) - 0.932065347907 - ok>, 3: <Face no.3 @ (258, 63, 42, 46) - 0.99 - ok>}
[rosout][INFO] 2015-02-08 23:44:25,150: {1: <Face no.1 @ (519, 182, 57, 68) - 0.932065347907 - ok>, 3: <Face no.3 @ (257, 63, 43, 47) - 0.99 - ok>}
[rosout][INFO] 2015-02-08 23:44:25,191: {1: <Face no.1 @ (519, 182, 56, 68) - 0.932065347907 - ok>, 3: <Face no.3 @ (257, 63, 43, 47) - 0.99 - ok>}
[rosout][INFO] 2015-02-08 23:44:25,232: {1: <Face no.1 @ (519, 182, 56, 69) - 0.932065347907 - ok>, 3: <Face no.3 @ (257, 63, 43, 47) - 0.99 - ok>}
[rosout][INFO] 2015-02-08 23:44:25,296: {1: <Face no.1 @ (519, 182, 57, 69) - 0.922744694428 - ok>, 3: <Face no.3 @ (257, 63, 46, 48) - 0.99 - ok>}
[rosout][INFO] 2015-02-08 23:44:25,312: {1: <Face no.1 @ (519, 182, 57, 69) - 0.922744694428 - ok>, 3: <Face no.3 @ (257, 63, 45, 47) - 0.99 - ok>}
[rosout][INFO] 2015-02-08 23:44:25,351: {1: <Face no.1 @ (519, 182, 56, 69) - 0.922744694428 - ok>, 3: <Face no.3 @ (258, 63, 44, 47) - 0.99 - ok>}
[rosout][INFO] 2015-02-08 23:44:25,391: {1: <Face no.1 @ (520, 182, 55, 69) - 0.922744694428 - ok>, 3: <Face no.3 @ (259, 64, 44, 46) - 0.99 - ok>}
[rosout][INFO] 2015-02-08 23:44:25,431: {1: <Face no.1 @ (520, 182, 55, 69) - 0.922744694428 - ok>, 3: <Face no.3 @ (262, 65, 42, 46) - 0.99 - ok>}
[rosout][INFO] 2015-02-08 23:44:25,505: {1: <Face no.1 @ (520, 182, 55, 69) - 0.913517247484 - ok>, 3: <Face no.3 @ (264, 67, 41, 45) - 0.9801 - ok>}
[rosout][INFO] 2015-02-08 23:44:25,522: {1: <Face no.1 @ (520, 182, 55, 69) - 0.913517247484 - ok>, 3: <Face no.3 @ (265, 68, 41, 45) - 0.9801 - ok>}
[rosout][INFO] 2015-02-08 23:44:25,554: {1: <Face no.1 @ (520, 182, 55, 68) - 0.913517247484 - ok>, 3: <Face no.3 @ (266, 69, 41, 45) - 0.9801 - ok>}
[rosout][INFO] 2015-02-08 23:44:25,597: {1: <Face no.1 @ (519, 182, 56, 68) - 0.913517247484 - ok>, 3: <Face no.3 @ (267, 69, 40, 46) - 0.9801 - ok>}
[rosout][INFO] 2015-02-08 23:44:25,636: {1: <Face no.1 @ (519, 182, 56, 69) - 0.913517247484 - ok>, 3: <Face no.3 @ (268, 70, 39, 45) - 0.9801 - ok>}
[rosout][INFO] 2015-02-08 23:44:25,715: {1: <Face no.1 @ (520, 182, 55, 69) - 0.904382075009 - ok>, 3: <Face no.3 @ (268, 71, 39, 45) - 0.970299 - ok>}
[rosout][INFO] 2015-02-08 23:44:25,730: {1: <Face no.1 @ (519, 182, 56, 69) - 0.904382075009 - ok>, 3: <Face no.3 @ (268, 71, 39, 46) - 0.970299 - ok>}
[rosout][INFO] 2015-02-08 23:44:25,755: {1: <Face no.1 @ (520, 182, 55, 69) - 0.904382075009 - ok>, 3: <Face no.3 @ (269, 71, 38, 46) - 0.970299 - ok>}
[rosout][INFO] 2015-02-08 23:44:25,794: {1: <Face no.1 @ (519, 182, 56, 69) - 0.904382075009 - ok>, 3: <Face no.3 @ (269, 71, 38, 46) - 0.970299 - ok>}
[rosout][INFO] 2015-02-08 23:44:25,836: {1: <Face no.1 @ (519, 182, 56, 69) - 0.904382075009 - ok>, 3: <Face no.3 @ (269, 72, 38, 46) - 0.970299 - ok>}
[rosout][INFO] 2015-02-08 23:44:25,911: {1: <Face no.1 @ (519, 182, 56, 69) - 0.895338254259 - ok>, 3: <Face no.3 @ (269, 72, 38, 46) - 0.96059601 - ok>}
[rosout][INFO] 2015-02-08 23:44:25,926: {1: <Face no.1 @ (519, 182, 56, 69) - 0.895338254259 - ok>, 3: <Face no.3 @ (269, 72, 38, 47) - 0.96059601 - ok>}
[rosout][INFO] 2015-02-08 23:44:25,954: {1: <Face no.1 @ (519, 182, 55, 69) - 0.895338254259 - ok>, 3: <Face no.3 @ (269, 72, 37, 48) - 0.96059601 - ok>}
[rosout][INFO] 2015-02-08 23:44:25,996: {1: <Face no.1 @ (521, 182, 54, 67) - 0.895338254259 - ok>, 3: <Face no.3 @ (268, 72, 38, 49) - 0.96059601 - ok>}
[rosout][INFO] 2015-02-08 23:44:26,036: {1: <Face no.1 @ (521, 182, 54, 67) - 0.895338254259 - ok>, 3: <Face no.3 @ (268, 72, 38, 49) - 0.96059601 - ok>}
[rosout][INFO] 2015-02-08 23:44:26,118: {1: <Face no.1 @ (521, 182, 54, 67) - 0.886384871716 - ok>, 3: <Face no.3 @ (268, 72, 37, 49) - 0.9509900499 - ok>, 6: <Face no.6 @ (296, 286, 100, 100) - 0.99 - new>}
[rosout][INFO] 2015-02-08 23:44:26,132: {1: <Face no.1 @ (521, 182, 54, 67) - 0.886384871716 - ok>, 3: <Face no.3 @ (268, 72, 38, 49) - 0.9509900499 - ok>, 6: <Face no.6 @ (296, 286, 100, 100) - 0.99 - new>}
[rosout][INFO] 2015-02-08 23:44:26,155: {1: <Face no.1 @ (521, 182, 54, 67) - 0.886384871716 - ok>, 3: <Face no.3 @ (267, 72, 38, 50) - 0.9509900499 - ok>, 6: <Face no.6 @ (296, 286, 100, 100) - 0.99 - new>}
[rosout][INFO] 2015-02-08 23:44:26,194: {1: <Face no.1 @ (521, 182, 54, 67) - 0.886384871716 - ok>, 3: <Face no.3 @ (267, 72, 38, 50) - 0.9509900499 - ok>, 6: <Face no.6 @ (296, 286, 100, 100) - 0.99 - new>}
[rosout][INFO] 2015-02-08 23:44:26,234: {1: <Face no.1 @ (521, 182, 55, 67) - 0.886384871716 - ok>, 3: <Face no.3 @ (267, 72, 39, 49) - 0.9509900499 - ok>, 6: <Face no.6 @ (296, 286, 100, 100) - 0.99 - new>}
[rosout][INFO] 2015-02-08 23:44:26,310: {1: <Face no.1 @ (521, 182, 55, 67) - 0.877521022999 - ok>, 3: <Face no.3 @ (268, 72, 38, 49) - 0.941480149401 - ok>}
[rosout][INFO] 2015-02-08 23:44:26,327: {1: <Face no.1 @ (521, 182, 55, 67) - 0.877521022999 - ok>, 3: <Face no.3 @ (268, 72, 38, 48) - 0.941480149401 - ok>}
[rosout][INFO] 2015-02-08 23:44:26,354: {1: <Face no.1 @ (521, 182, 55, 67) - 0.877521022999 - ok>, 3: <Face no.3 @ (268, 72, 38, 48) - 0.941480149401 - ok>}
[rosout][INFO] 2015-02-08 23:44:26,394: {1: <Face no.1 @ (521, 182, 55, 67) - 0.877521022999 - ok>, 3: <Face no.3 @ (268, 72, 39, 47) - 0.941480149401 - ok>}
[rosout][INFO] 2015-02-08 23:44:26,435: {1: <Face no.1 @ (522, 182, 54, 67) - 0.877521022999 - ok>, 3: <Face no.3 @ (268, 72, 38, 47) - 0.941480149401 - ok>}
[rosout][INFO] 2015-02-08 23:44:26,503: {1: <Face no.1 @ (522, 186, 57, 60) - 0.99 - ok>, 3: <Face no.3 @ (268, 72, 38, 48) - 0.932065347907 - ok>}
[rosout][INFO] 2015-02-08 23:44:26,517: {1: <Face no.1 @ (522, 186, 57, 59) - 0.99 - ok>, 3: <Face no.3 @ (268, 72, 38, 48) - 0.932065347907 - ok>}
[rosout][INFO] 2015-02-08 23:44:26,555: {1: <Face no.1 @ (522, 185, 57, 60) - 0.99 - ok>, 3: <Face no.3 @ (268, 72, 38, 48) - 0.932065347907 - ok>}
[rosout][INFO] 2015-02-08 23:44:26,594: {1: <Face no.1 @ (522, 185, 57, 60) - 0.99 - ok>, 3: <Face no.3 @ (268, 72, 38, 47) - 0.932065347907 - ok>}
[rosout][INFO] 2015-02-08 23:44:26,635: {1: <Face no.1 @ (522, 185, 57, 60) - 0.99 - ok>, 3: <Face no.3 @ (268, 72, 39, 47) - 0.932065347907 - ok>}
[rosout][INFO] 2015-02-08 23:44:26,719: {1: <Face no.1 @ (514, 182, 65, 69) - 0.99 - ok>, 3: <Face no.3 @ (268, 72, 39, 48) - 0.922744694428 - ok>}
[rosout][INFO] 2015-02-08 23:44:26,734: {1: <Face no.1 @ (514, 181, 65, 70) - 0.99 - ok>, 3: <Face no.3 @ (268, 72, 38, 48) - 0.922744694428 - ok>}
[rosout][INFO] 2015-02-08 23:44:26,755: {1: <Face no.1 @ (513, 181, 66, 70) - 0.99 - ok>, 3: <Face no.3 @ (268, 72, 38, 48) - 0.922744694428 - ok>}
[rosout][INFO] 2015-02-08 23:44:26,794: {1: <Face no.1 @ (513, 181, 66, 70) - 0.99 - ok>, 3: <Face no.3 @ (268, 72, 39, 48) - 0.922744694428 - ok>}
[rosout][INFO] 2015-02-08 23:44:26,835: {1: <Face no.1 @ (513, 181, 66, 70) - 0.99 - ok>, 3: <Face no.3 @ (268, 72, 39, 48) - 0.922744694428 - ok>}
[rosout][INFO] 2015-02-08 23:44:26,915: {1: <Face no.1 @ (514, 181, 65, 70) - 0.9801 - ok>, 3: <Face no.3 @ (268, 72, 38, 48) - 0.913517247484 - ok>}
[rosout][INFO] 2015-02-08 23:44:26,930: {1: <Face no.1 @ (513, 181, 66, 70) - 0.9801 - ok>, 3: <Face no.3 @ (268, 72, 38, 48) - 0.913517247484 - ok>}
[rosout][INFO] 2015-02-08 23:44:26,955: {1: <Face no.1 @ (513, 181, 66, 70) - 0.9801 - ok>, 3: <Face no.3 @ (268, 73, 38, 47) - 0.913517247484 - ok>}
[rosout][INFO] 2015-02-08 23:44:26,995: {1: <Face no.1 @ (513, 181, 66, 70) - 0.9801 - ok>, 3: <Face no.3 @ (268, 72, 38, 48) - 0.913517247484 - ok>}
[rosout][INFO] 2015-02-08 23:44:27,035: {1: <Face no.1 @ (513, 181, 66, 70) - 0.9801 - ok>, 3: <Face no.3 @ (268, 72, 38, 48) - 0.913517247484 - ok>}
[rosout][INFO] 2015-02-08 23:44:27,119: {1: <Face no.1 @ (519, 183, 58, 66) - 0.99 - ok>, 3: <Face no.3 @ (268, 72, 38, 48) - 0.904382075009 - ok>}
[rosout][INFO] 2015-02-08 23:44:27,135: {1: <Face no.1 @ (519, 183, 58, 65) - 0.99 - ok>, 3: <Face no.3 @ (268, 72, 38, 48) - 0.904382075009 - ok>}
[rosout][INFO] 2015-02-08 23:44:27,155: {1: <Face no.1 @ (519, 183, 58, 65) - 0.99 - ok>, 3: <Face no.3 @ (268, 72, 39, 47) - 0.904382075009 - ok>}
[rosout][INFO] 2015-02-08 23:44:27,195: {1: <Face no.1 @ (519, 183, 58, 65) - 0.99 - ok>, 3: <Face no.3 @ (268, 71, 39, 47) - 0.904382075009 - ok>}
[rosout][INFO] 2015-02-08 23:44:27,235: {1: <Face no.1 @ (519, 183, 58, 65) - 0.99 - ok>, 3: <Face no.3 @ (267, 70, 39, 47) - 0.904382075009 - ok>}
[rosout][INFO] 2015-02-08 23:44:27,327: {1: <Face no.1 @ (518, 183, 60, 67) - 0.99 - ok>, 3: <Face no.3 @ (265, 69, 40, 48) - 0.895338254259 - ok>}
[rosout][INFO] 2015-02-08 23:44:27,342: {1: <Face no.1 @ (518, 182, 59, 67) - 0.99 - ok>, 3: <Face no.3 @ (264, 68, 41, 48) - 0.895338254259 - ok>}
[rosout][INFO] 2015-02-08 23:44:27,357: {1: <Face no.1 @ (517, 182, 61, 68) - 0.99 - ok>, 3: <Face no.3 @ (262, 68, 42, 47) - 0.895338254259 - ok>}
[rosout][INFO] 2015-02-08 23:44:27,395: {1: <Face no.1 @ (518, 182, 59, 68) - 0.99 - ok>, 3: <Face no.3 @ (261, 67, 42, 48) - 0.895338254259 - ok>}
[rosout][INFO] 2015-02-08 23:44:27,438: {1: <Face no.1 @ (517, 183, 61, 66) - 0.99 - ok>, 3: <Face no.3 @ (260, 66, 43, 48) - 0.895338254259 - ok>}
[rosout][INFO] 2015-02-08 23:44:27,501: {1: <Face no.1 @ (517, 183, 60, 66) - 0.9801 - ok>, 3: <Face no.3 @ (259, 66, 43, 48) - 0.886384871716 - ok>, 7: <Face no.7 @ (0, 2, 70, 70) - 0.99 - new>}
[rosout][INFO] 2015-02-08 23:44:27,518: {1: <Face no.1 @ (518, 183, 59, 66) - 0.9801 - ok>, 3: <Face no.3 @ (259, 66, 42, 48) - 0.886384871716 - ok>, 7: <Face no.7 @ (0, 2, 70, 70) - 0.99 - new>}
[rosout][INFO] 2015-02-08 23:44:27,560: {1: <Face no.1 @ (517, 183, 60, 66) - 0.9801 - ok>, 3: <Face no.3 @ (259, 66, 43, 47) - 0.886384871716 - ok>, 7: <Face no.7 @ (0, 2, 70, 70) - 0.99 - new>}
[rosout][INFO] 2015-02-08 23:44:27,600: {1: <Face no.1 @ (517, 183, 60, 66) - 0.9801 - ok>, 3: <Face no.3 @ (258, 65, 44, 48) - 0.886384871716 - ok>, 7: <Face no.7 @ (0, 2, 70, 70) - 0.99 - new>}
[rosout][INFO] 2015-02-08 23:44:27,639: {1: <Face no.1 @ (517, 183, 60, 66) - 0.9801 - ok>, 3: <Face no.3 @ (257, 65, 44, 48) - 0.886384871716 - ok>, 7: <Face no.7 @ (0, 2, 70, 70) - 0.99 - new>}
[rosout][INFO] 2015-02-08 23:44:27,733: {1: <Face no.1 @ (518, 183, 59, 66) - 0.970299 - ok>, 3: <Face no.3 @ (257, 65, 44, 48) - 0.877521022999 - ok>}
[rosout][INFO] 2015-02-08 23:44:27,754: {1: <Face no.1 @ (518, 183, 59, 66) - 0.970299 - ok>, 3: <Face no.3 @ (256, 65, 44, 48) - 0.877521022999 - ok>}
[rosout][INFO] 2015-02-08 23:44:27,772: {1: <Face no.1 @ (517, 183, 60, 66) - 0.970299 - ok>, 3: <Face no.3 @ (256, 64, 44, 48) - 0.877521022999 - ok>}
[rospy.core][INFO] 2015-02-08 23:44:27,827: signal_shutdown [signal-2]
[rospy.internal][INFO] 2015-02-08 23:44:27,841: topic[/rosout] removing connection to /rosout
[rospy.internal][INFO] 2015-02-08 23:44:27,841: topic[/camera/face_event] removing connection to /Eva_Behavior
[rospy.internal][INFO] 2015-02-08 23:44:27,841: topic[/camera/face_locations] removing connection to /Eva_Behavior
[rospy.internal][INFO] 2015-02-08 23:44:27,841: topic[/camera/face_locations] removing connection to /faces_broadcaster
[rospy.internal][INFO] 2015-02-08 23:44:27,841: topic[/camera/image_raw] removing connection to http://hr2:38143/
[rospy.impl.masterslave][INFO] 2015-02-08 23:44:27,841: signal-2
[rospy.core][INFO] 2015-02-08 23:44:28,456: signal_shutdown [atexit]
