[0m[ INFO] [1423410250.864440940]: advertising[0m
[0m[ INFO] [1423410263.517057274]: trying to switch mux to /fritz/cmd_neck_pau[0m
[0m[ INFO] [1423410263.517089869]: mux selected input: [/fritz/cmd_neck_pau][0m
