[0m[ INFO] [1423296080.983576229]: advertising[0m
[0m[ INFO] [1423296104.871843575]: trying to switch mux to /blender_api/get_pau[0m
[0m[ INFO] [1423296104.871895626]: mux selected input: [/blender_api/get_pau][0m
[0m[ INFO] [1423296351.798598821]: trying to switch mux to /blender_api/get_pau[0m
[0m[ INFO] [1423296351.798634356]: mux selected input: [/blender_api/get_pau][0m
