[rospy.client][INFO] 2015-02-07 09:01:20,140: init_node, name[/joint_state_publisher], pid[4673]
[xmlrpc][INFO] 2015-02-07 09:01:20,140: XML-RPC server binding to 0.0.0.0:0
[xmlrpc][INFO] 2015-02-07 09:01:20,140: Started XML-RPC server [http://hr2:50267/]
[rospy.impl.masterslave][INFO] 2015-02-07 09:01:20,140: _ready: http://hr2:50267/
[rospy.init][INFO] 2015-02-07 09:01:20,140: ROS Slave URI: [http://hr2:50267/]
[rospy.registration][INFO] 2015-02-07 09:01:20,141: Registering with master node http://localhost:11311
[xmlrpc][INFO] 2015-02-07 09:01:20,141: xml rpc node: starting XML-RPC server
[rospy.init][INFO] 2015-02-07 09:01:20,241: registered with master
[rospy.rosout][INFO] 2015-02-07 09:01:20,241: initializing /rosout core topic
[rospy.rosout][INFO] 2015-02-07 09:01:20,256: connected to core topic /rosout
[rospy.simtime][INFO] 2015-02-07 09:01:20,287: /use_sim_time is not set, will not subscribe to simulated time [/clock] topic
[rospy.internal][INFO] 2015-02-07 09:01:20,471: topic[/joint_states_combined] adding connection to [http://hr2:39031/], count 0
[rospy.internal][INFO] 2015-02-07 09:01:20,566: topic[/rosout] adding connection to [/rosout], count 0
[rospy.internal][INFO] 2015-02-07 09:01:20,567: topic[/joint_states] adding connection to [/robot_state_publisher], count 0
[rospy.core][INFO] 2015-02-07 09:12:29,121: signal_shutdown [signal-2]
[rospy.internal][INFO] 2015-02-07 09:12:29,125: topic[/joint_states] removing connection to /robot_state_publisher
[rospy.internal][INFO] 2015-02-07 09:12:29,126: topic[/rosout] removing connection to /rosout
[rospy.internal][ERROR] 2015-02-07 09:12:29,126: Unable to initiate TCP/IP socket to hr2:59922 (http://hr2:39031/): Traceback (most recent call last):
  File "/opt/ros/indigo/lib/python2.7/dist-packages/rospy/impl/tcpros_base.py", line 557, in connect
    self.read_header()
  File "/opt/ros/indigo/lib/python2.7/dist-packages/rospy/impl/tcpros_base.py", line 618, in read_header
    self._validate_header(read_ros_handshake_header(sock, self.read_buff, self.protocol.buff_size))
  File "/opt/ros/indigo/lib/python2.7/dist-packages/rospy/impl/tcpros_base.py", line 580, in _validate_header
    raise TransportInitError("remote error reported: %s"%header['error'])
TransportInitError: remote error reported: node shutting down

[rospy.internal][INFO] 2015-02-07 09:12:29,126: topic[/joint_states_combined] removing connection to http://hr2:39031/
[rospy.impl.masterslave][INFO] 2015-02-07 09:12:29,126: signal-2
[rospy.core][INFO] 2015-02-07 09:12:29,290: signal_shutdown [atexit]
