[rospy.client][INFO] 2015-02-08 23:35:27,823: init_node, name[/fritz/dynamixel_manager], pid[21450]
[xmlrpc][INFO] 2015-02-08 23:35:27,823: XML-RPC server binding to 0.0.0.0:0
[xmlrpc][INFO] 2015-02-08 23:35:27,824: Started XML-RPC server [http://hr2:36143/]
[rospy.init][INFO] 2015-02-08 23:35:27,824: ROS Slave URI: [http://hr2:36143/]
[rospy.impl.masterslave][INFO] 2015-02-08 23:35:27,824: _ready: http://hr2:36143/
[xmlrpc][INFO] 2015-02-08 23:35:27,824: xml rpc node: starting XML-RPC server
[rospy.registration][INFO] 2015-02-08 23:35:27,825: Registering with master node http://localhost:11311
[rospy.init][INFO] 2015-02-08 23:35:27,924: registered with master
[rospy.rosout][INFO] 2015-02-08 23:35:27,924: initializing /rosout core topic
[rospy.rosout][INFO] 2015-02-08 23:35:27,926: connected to core topic /rosout
[rospy.simtime][INFO] 2015-02-08 23:35:27,928: /use_sim_time is not set, will not subscribe to simulated time [/clock] topic
[rosout][INFO] 2015-02-08 23:35:27,938: pan_tilt_port: Pinging motor IDs 0 through 4...
[rosout][INFO] 2015-02-08 23:35:28,070: pan_tilt_port: Found 5 motors - 3 MX-106 [0, 1, 2], 2 MX-28 [3, 4], initialization complete.
[rospy.internal][INFO] 2015-02-08 23:35:28,146: topic[/rosout] adding connection to [/rosout], count 0
[rosout][INFO] 2015-02-08 23:35:28,190: Setting acceleration of 0 to 20
[rospy.internal][INFO] 2015-02-08 23:35:28,245: topic[/fritz/base_controller/command] adding connection to [http://hr2:53614/], count 0
[rospy.internal][INFO] 2015-02-08 23:35:28,247: topic[/fritz/base_controller/command] adding connection to [http://hr2:34947/], count 0
[rospy.internal][INFO] 2015-02-08 23:35:28,249: topic[/fritz/motor_states/pan_tilt_port] adding connection to [http://hr2:36143/], count 0
[rospy.internal][INFO] 2015-02-08 23:35:28,252: topic[/fritz/motor_states/pan_tilt_port] adding connection to [/fritz/dynamixel_manager], count 0
[rosout][INFO] 2015-02-08 23:35:28,262: Setting acceleration of 1 to 10
[rospy.internal][INFO] 2015-02-08 23:35:28,279: topic[/fritz/base_right_controller/command] adding connection to [http://hr2:53614/], count 0
[rospy.internal][INFO] 2015-02-08 23:35:28,279: topic[/fritz/base_right_controller/command] adding connection to [http://hr2:34947/], count 1
[rosout][INFO] 2015-02-08 23:35:28,300: Setting acceleration of 2 to 10
[rosout][INFO] 2015-02-08 23:35:28,330: Setting acceleration of 3 to 10
[rospy.internal][INFO] 2015-02-08 23:35:28,342: topic[/fritz/neck_right_controller/command] adding connection to [http://hr2:34947/], count 0
[rospy.internal][INFO] 2015-02-08 23:35:28,345: topic[/fritz/neck_right_controller/command] adding connection to [http://hr2:53614/], count 1
[rospy.internal][INFO] 2015-02-08 23:35:28,345: topic[/fritz/base_left_controller/command] adding connection to [http://hr2:53614/], count 0
[rospy.internal][INFO] 2015-02-08 23:35:28,345: topic[/fritz/base_left_controller/command] adding connection to [http://hr2:34947/], count 0
[rosout][INFO] 2015-02-08 23:35:28,362: Setting acceleration of 4 to 10
[rospy.internal][INFO] 2015-02-08 23:35:28,378: topic[/fritz/neck_left_controller/command] adding connection to [http://hr2:34947/], count 0
[rospy.internal][INFO] 2015-02-08 23:35:28,378: topic[/fritz/neck_left_controller/command] adding connection to [http://hr2:53614/], count 1
[rospy.internal][INFO] 2015-02-08 23:35:41,210: topic[/fritz/base_controller/command] adding connection to [http://hr2:33599/], count 2
[rospy.internal][INFO] 2015-02-08 23:35:41,312: topic[/fritz/neck_left_controller/command] adding connection to [http://hr2:33599/], count 2
[rospy.internal][INFO] 2015-02-08 23:35:41,317: topic[/fritz/neck_right_controller/command] adding connection to [http://hr2:33599/], count 2
[rospy.internal][INFO] 2015-02-08 23:35:41,319: topic[/fritz/base_left_controller/command] adding connection to [http://hr2:33599/], count 2
[rospy.internal][INFO] 2015-02-08 23:35:41,320: topic[/fritz/base_right_controller/command] adding connection to [http://hr2:33599/], count 2
[rospy.internal][ERROR] 2015-02-08 23:36:03,285: Unable to initiate TCP/IP socket to hr2:35995 (http://hr2:33599/): Traceback (most recent call last):
  File "/opt/ros/indigo/lib/python2.7/dist-packages/rospy/impl/tcpros_base.py", line 557, in connect
    self.read_header()
  File "/opt/ros/indigo/lib/python2.7/dist-packages/rospy/impl/tcpros_base.py", line 618, in read_header
    self._validate_header(read_ros_handshake_header(sock, self.read_buff, self.protocol.buff_size))
  File "/opt/ros/indigo/lib/python2.7/dist-packages/rospy/impl/tcpros_base.py", line 580, in _validate_header
    raise TransportInitError("remote error reported: %s"%header['error'])
TransportInitError: remote error reported: [/rosbridge_websocket] is not a publisher of [/fritz/base_controller/command]. Topics are [['/fritz/base_right_controller/command', 'std_msgs/Float64'], ['/fritz/base_left_controller/command', 'std_msgs/Float64'], ['/fritz/neck_right_controller/command', 'std_msgs/Float64'], ['/fritz/right/command', 'ros_pololu_servo/MotorCommand'], ['/rosout', 'rosgraph_msgs/Log'], ['/fritz/middle/command', 'ros_pololu_servo/MotorCommand'], ['/fritz/left/command', 'ros_pololu_servo/MotorCommand'], ['/behavior_switch', 'std_msgs/String'], ['/fritz/point_head', 'basic_head_api/PointHead'], ['/fritz/neck_left_controller/command', 'std_msgs/Float64'], ['/fritz/cmd_blink', 'std_msgs/String']]

[rospy.internal][ERROR] 2015-02-08 23:36:03,287: Unable to initiate TCP/IP socket to hr2:35995 (http://hr2:33599/): Traceback (most recent call last):
  File "/opt/ros/indigo/lib/python2.7/dist-packages/rospy/impl/tcpros_base.py", line 557, in connect
    self.read_header()
  File "/opt/ros/indigo/lib/python2.7/dist-packages/rospy/impl/tcpros_base.py", line 618, in read_header
    self._validate_header(read_ros_handshake_header(sock, self.read_buff, self.protocol.buff_size))
  File "/opt/ros/indigo/lib/python2.7/dist-packages/rospy/impl/tcpros_base.py", line 580, in _validate_header
    raise TransportInitError("remote error reported: %s"%header['error'])
TransportInitError: remote error reported: [/rosbridge_websocket] is not a publisher of [/fritz/base_right_controller/command]. Topics are [['/fritz/base_left_controller/command', 'std_msgs/Float64'], ['/fritz/neck_right_controller/command', 'std_msgs/Float64'], ['/fritz/right/command', 'ros_pololu_servo/MotorCommand'], ['/rosout', 'rosgraph_msgs/Log'], ['/fritz/middle/command', 'ros_pololu_servo/MotorCommand'], ['/fritz/left/command', 'ros_pololu_servo/MotorCommand'], ['/behavior_switch', 'std_msgs/String'], ['/fritz/point_head', 'basic_head_api/PointHead'], ['/fritz/neck_left_controller/command', 'std_msgs/Float64'], ['/fritz/cmd_blink', 'std_msgs/String']]

[rospy.internal][ERROR] 2015-02-08 23:36:03,290: Unable to initiate TCP/IP socket to hr2:35995 (http://hr2:33599/): Traceback (most recent call last):
  File "/opt/ros/indigo/lib/python2.7/dist-packages/rospy/impl/tcpros_base.py", line 557, in connect
    self.read_header()
  File "/opt/ros/indigo/lib/python2.7/dist-packages/rospy/impl/tcpros_base.py", line 618, in read_header
    self._validate_header(read_ros_handshake_header(sock, self.read_buff, self.protocol.buff_size))
  File "/opt/ros/indigo/lib/python2.7/dist-packages/rospy/impl/tcpros_base.py", line 580, in _validate_header
    raise TransportInitError("remote error reported: %s"%header['error'])
TransportInitError: remote error reported: [/rosbridge_websocket] is not a publisher of [/fritz/base_left_controller/command]. Topics are [['/fritz/neck_right_controller/command', 'std_msgs/Float64'], ['/fritz/right/command', 'ros_pololu_servo/MotorCommand'], ['/rosout', 'rosgraph_msgs/Log'], ['/fritz/middle/command', 'ros_pololu_servo/MotorCommand'], ['/fritz/left/command', 'ros_pololu_servo/MotorCommand'], ['/behavior_switch', 'std_msgs/String'], ['/fritz/point_head', 'basic_head_api/PointHead'], ['/fritz/neck_left_controller/command', 'std_msgs/Float64'], ['/fritz/cmd_blink', 'std_msgs/String']]

[rospy.internal][ERROR] 2015-02-08 23:36:03,296: Unable to initiate TCP/IP socket to hr2:35995 (http://hr2:33599/): Traceback (most recent call last):
  File "/opt/ros/indigo/lib/python2.7/dist-packages/rospy/impl/tcpros_base.py", line 557, in connect
    self.read_header()
  File "/opt/ros/indigo/lib/python2.7/dist-packages/rospy/impl/tcpros_base.py", line 618, in read_header
    self._validate_header(read_ros_handshake_header(sock, self.read_buff, self.protocol.buff_size))
  File "/opt/ros/indigo/lib/python2.7/dist-packages/rospy/impl/tcpros_base.py", line 580, in _validate_header
    raise TransportInitError("remote error reported: %s"%header['error'])
TransportInitError: remote error reported: [/rosbridge_websocket] is not a publisher of [/fritz/neck_right_controller/command]. Topics are [['/rosout', 'rosgraph_msgs/Log'], ['/fritz/middle/command', 'ros_pololu_servo/MotorCommand'], ['/fritz/left/command', 'ros_pololu_servo/MotorCommand'], ['/behavior_switch', 'std_msgs/String'], ['/fritz/point_head', 'basic_head_api/PointHead'], ['/fritz/neck_left_controller/command', 'std_msgs/Float64'], ['/fritz/cmd_blink', 'std_msgs/String']]

[rospy.internal][ERROR] 2015-02-08 23:36:03,324: Unable to initiate TCP/IP socket to hr2:35995 (http://hr2:33599/): Traceback (most recent call last):
  File "/opt/ros/indigo/lib/python2.7/dist-packages/rospy/impl/tcpros_base.py", line 557, in connect
    self.read_header()
  File "/opt/ros/indigo/lib/python2.7/dist-packages/rospy/impl/tcpros_base.py", line 618, in read_header
    self._validate_header(read_ros_handshake_header(sock, self.read_buff, self.protocol.buff_size))
  File "/opt/ros/indigo/lib/python2.7/dist-packages/rospy/impl/tcpros_base.py", line 580, in _validate_header
    raise TransportInitError("remote error reported: %s"%header['error'])
TransportInitError: remote error reported: [/rosbridge_websocket] is not a publisher of [/fritz/neck_left_controller/command]. Topics are [['/rosout', 'rosgraph_msgs/Log'], ['/fritz/cmd_blink', 'std_msgs/String']]

[rospy.internal][WARNING] 2015-02-08 23:36:30,338: Unknown error initiating TCP/IP socket to hr2:35995 (http://hr2:33599/): Traceback (most recent call last):
  File "/opt/ros/indigo/lib/python2.7/dist-packages/rospy/impl/tcpros_base.py", line 555, in connect
    self.socket.connect((dest_addr, dest_port))
  File "/usr/lib/python2.7/socket.py", line 224, in meth
    return getattr(self._sock,name)(*args)
error: [Errno 111] Connection refused

[rospy.internal][INFO] 2015-02-08 23:36:30,338: topic[/fritz/base_left_controller/command] removing connection to http://hr2:33599/
[rospy.internal][WARNING] 2015-02-08 23:36:30,338: Unknown error initiating TCP/IP socket to hr2:35995 (http://hr2:33599/): Traceback (most recent call last):
  File "/opt/ros/indigo/lib/python2.7/dist-packages/rospy/impl/tcpros_base.py", line 555, in connect
    self.socket.connect((dest_addr, dest_port))
  File "/usr/lib/python2.7/socket.py", line 224, in meth
    return getattr(self._sock,name)(*args)
error: [Errno 111] Connection refused

[rospy.internal][INFO] 2015-02-08 23:36:30,338: topic[/fritz/neck_right_controller/command] removing connection to http://hr2:33599/
[rospy.internal][WARNING] 2015-02-08 23:36:30,339: Unknown error initiating TCP/IP socket to hr2:35995 (http://hr2:33599/): Traceback (most recent call last):
  File "/opt/ros/indigo/lib/python2.7/dist-packages/rospy/impl/tcpros_base.py", line 555, in connect
    self.socket.connect((dest_addr, dest_port))
  File "/usr/lib/python2.7/socket.py", line 224, in meth
    return getattr(self._sock,name)(*args)
error: [Errno 111] Connection refused

[rospy.internal][INFO] 2015-02-08 23:36:30,339: topic[/fritz/base_right_controller/command] removing connection to http://hr2:33599/
[rospy.internal][WARNING] 2015-02-08 23:36:30,339: Unknown error initiating TCP/IP socket to hr2:35995 (http://hr2:33599/): Traceback (most recent call last):
  File "/opt/ros/indigo/lib/python2.7/dist-packages/rospy/impl/tcpros_base.py", line 555, in connect
    self.socket.connect((dest_addr, dest_port))
  File "/usr/lib/python2.7/socket.py", line 224, in meth
    return getattr(self._sock,name)(*args)
error: [Errno 111] Connection refused

[rospy.internal][INFO] 2015-02-08 23:36:30,340: topic[/fritz/base_controller/command] removing connection to http://hr2:33599/
[rospy.internal][WARNING] 2015-02-08 23:36:30,340: Unknown error initiating TCP/IP socket to hr2:35995 (http://hr2:33599/): Traceback (most recent call last):
  File "/opt/ros/indigo/lib/python2.7/dist-packages/rospy/impl/tcpros_base.py", line 555, in connect
    self.socket.connect((dest_addr, dest_port))
  File "/usr/lib/python2.7/socket.py", line 224, in meth
    return getattr(self._sock,name)(*args)
error: [Errno 111] Connection refused

[rospy.internal][INFO] 2015-02-08 23:36:30,340: topic[/fritz/neck_left_controller/command] removing connection to http://hr2:33599/
[rospy.core][INFO] 2015-02-08 23:36:30,399: signal_shutdown [signal-2]
[rospy.internal][ERROR] 2015-02-08 23:36:30,414: Unable to initiate TCP/IP socket to hr2:60622 (http://hr2:53614/): Traceback (most recent call last):
  File "/opt/ros/indigo/lib/python2.7/dist-packages/rospy/impl/tcpros_base.py", line 557, in connect
    self.read_header()
  File "/opt/ros/indigo/lib/python2.7/dist-packages/rospy/impl/tcpros_base.py", line 618, in read_header
    self._validate_header(read_ros_handshake_header(sock, self.read_buff, self.protocol.buff_size))
  File "/opt/ros/indigo/lib/python2.7/dist-packages/rospy/impl/tcpros_base.py", line 580, in _validate_header
    raise TransportInitError("remote error reported: %s"%header['error'])
TransportInitError: remote error reported: node shutting down

[rospy.internal][WARNING] 2015-02-08 23:36:30,416: Unknown error initiating TCP/IP socket to hr2:60622 (http://hr2:53614/): Traceback (most recent call last):
  File "/opt/ros/indigo/lib/python2.7/dist-packages/rospy/impl/tcpros_base.py", line 557, in connect
    self.read_header()
  File "/opt/ros/indigo/lib/python2.7/dist-packages/rospy/impl/tcpros_base.py", line 618, in read_header
    self._validate_header(read_ros_handshake_header(sock, self.read_buff, self.protocol.buff_size))
  File "/opt/ros/indigo/lib/python2.7/dist-packages/rosgraph/network.py", line 360, in read_ros_handshake_header
    d = sock.recv(buff_size)
error: [Errno 104] Connection reset by peer

[rospy.internal][INFO] 2015-02-08 23:36:30,416: topic[/fritz/base_left_controller/command] removing connection to http://hr2:53614/
[rospy.internal][WARNING] 2015-02-08 23:36:30,416: Unknown error initiating TCP/IP socket to hr2:60622 (http://hr2:53614/): Traceback (most recent call last):
  File "/opt/ros/indigo/lib/python2.7/dist-packages/rospy/impl/tcpros_base.py", line 557, in connect
    self.read_header()
  File "/opt/ros/indigo/lib/python2.7/dist-packages/rospy/impl/tcpros_base.py", line 618, in read_header
    self._validate_header(read_ros_handshake_header(sock, self.read_buff, self.protocol.buff_size))
  File "/opt/ros/indigo/lib/python2.7/dist-packages/rosgraph/network.py", line 360, in read_ros_handshake_header
    d = sock.recv(buff_size)
error: [Errno 104] Connection reset by peer

[rospy.internal][INFO] 2015-02-08 23:36:30,416: topic[/fritz/neck_left_controller/command] removing connection to http://hr2:53614/
[rospy.internal][WARNING] 2015-02-08 23:36:30,416: Unknown error initiating TCP/IP socket to hr2:60622 (http://hr2:53614/): Traceback (most recent call last):
  File "/opt/ros/indigo/lib/python2.7/dist-packages/rospy/impl/tcpros_base.py", line 557, in connect
    self.read_header()
  File "/opt/ros/indigo/lib/python2.7/dist-packages/rospy/impl/tcpros_base.py", line 618, in read_header
    self._validate_header(read_ros_handshake_header(sock, self.read_buff, self.protocol.buff_size))
  File "/opt/ros/indigo/lib/python2.7/dist-packages/rosgraph/network.py", line 360, in read_ros_handshake_header
    d = sock.recv(buff_size)
error: [Errno 104] Connection reset by peer

[rospy.internal][INFO] 2015-02-08 23:36:30,416: topic[/fritz/neck_right_controller/command] removing connection to http://hr2:53614/
[rospy.internal][ERROR] 2015-02-08 23:36:30,416: Unable to initiate TCP/IP socket to hr2:60622 (http://hr2:53614/): Traceback (most recent call last):
  File "/opt/ros/indigo/lib/python2.7/dist-packages/rospy/impl/tcpros_base.py", line 557, in connect
    self.read_header()
  File "/opt/ros/indigo/lib/python2.7/dist-packages/rospy/impl/tcpros_base.py", line 618, in read_header
    self._validate_header(read_ros_handshake_header(sock, self.read_buff, self.protocol.buff_size))
  File "/opt/ros/indigo/lib/python2.7/dist-packages/rospy/impl/tcpros_base.py", line 580, in _validate_header
    raise TransportInitError("remote error reported: %s"%header['error'])
TransportInitError: remote error reported: node shutting down

[rospy.internal][WARNING] 2015-02-08 23:36:30,425: Unknown error initiating TCP/IP socket to hr2:43809 (http://hr2:34947/): Traceback (most recent call last):
  File "/opt/ros/indigo/lib/python2.7/dist-packages/rospy/impl/tcpros_base.py", line 555, in connect
    self.socket.connect((dest_addr, dest_port))
  File "/usr/lib/python2.7/socket.py", line 224, in meth
    return getattr(self._sock,name)(*args)
error: [Errno 111] Connection refused

[rospy.internal][INFO] 2015-02-08 23:36:30,425: topic[/rosout] removing connection to /rosout
[rospy.internal][WARNING] 2015-02-08 23:36:30,425: Unknown error initiating TCP/IP socket to hr2:43809 (http://hr2:34947/): Traceback (most recent call last):
  File "/opt/ros/indigo/lib/python2.7/dist-packages/rospy/impl/tcpros_base.py", line 555, in connect
    self.socket.connect((dest_addr, dest_port))
  File "/usr/lib/python2.7/socket.py", line 224, in meth
    return getattr(self._sock,name)(*args)
error: [Errno 111] Connection refused

[rospy.internal][INFO] 2015-02-08 23:36:30,425: topic[/fritz/base_right_controller/command] removing connection to http://hr2:34947/
[rospy.internal][WARNING] 2015-02-08 23:36:30,425: Unknown error initiating TCP/IP socket to hr2:43809 (http://hr2:34947/): Traceback (most recent call last):
  File "/opt/ros/indigo/lib/python2.7/dist-packages/rospy/impl/tcpros_base.py", line 557, in connect
    self.read_header()
  File "/opt/ros/indigo/lib/python2.7/dist-packages/rospy/impl/tcpros_base.py", line 618, in read_header
    self._validate_header(read_ros_handshake_header(sock, self.read_buff, self.protocol.buff_size))
  File "/opt/ros/indigo/lib/python2.7/dist-packages/rosgraph/network.py", line 362, in read_ros_handshake_header
    raise ROSHandshakeException("connection from sender terminated before handshake header received. %s bytes were received. Please check sender for additional details."%b.tell())
ROSHandshakeException: connection from sender terminated before handshake header received. 0 bytes were received. Please check sender for additional details.

[rospy.internal][WARNING] 2015-02-08 23:36:30,425: Unknown error initiating TCP/IP socket to hr2:43809 (http://hr2:34947/): Traceback (most recent call last):
  File "/opt/ros/indigo/lib/python2.7/dist-packages/rospy/impl/tcpros_base.py", line 555, in connect
    self.socket.connect((dest_addr, dest_port))
  File "/usr/lib/python2.7/socket.py", line 224, in meth
    return getattr(self._sock,name)(*args)
error: [Errno 111] Connection refused

[rospy.internal][WARNING] 2015-02-08 23:36:30,425: Unknown error initiating TCP/IP socket to hr2:43809 (http://hr2:34947/): Traceback (most recent call last):
  File "/opt/ros/indigo/lib/python2.7/dist-packages/rospy/impl/tcpros_base.py", line 555, in connect
    self.socket.connect((dest_addr, dest_port))
  File "/usr/lib/python2.7/socket.py", line 224, in meth
    return getattr(self._sock,name)(*args)
error: [Errno 111] Connection refused

[rospy.internal][INFO] 2015-02-08 23:36:30,425: topic[/fritz/motor_states/pan_tilt_port] removing connection to /fritz/dynamixel_manager
[rospy.internal][INFO] 2015-02-08 23:36:30,426: topic[/fritz/base_left_controller/command] removing connection to http://hr2:34947/
[rospy.internal][INFO] 2015-02-08 23:36:30,426: topic[/fritz/base_controller/command] removing connection to http://hr2:34947/
[rospy.internal][INFO] 2015-02-08 23:36:30,426: topic[/fritz/neck_left_controller/command] removing connection to http://hr2:34947/
[rospy.internal][INFO] 2015-02-08 23:36:30,426: topic[/fritz/neck_right_controller/command] removing connection to http://hr2:34947/
[rospy.internal][ERROR] 2015-02-08 23:36:30,426: Unable to initiate TCP/IP socket to hr2:56074 (http://hr2:36143/): Traceback (most recent call last):
  File "/opt/ros/indigo/lib/python2.7/dist-packages/rospy/impl/tcpros_base.py", line 557, in connect
    self.read_header()
  File "/opt/ros/indigo/lib/python2.7/dist-packages/rospy/impl/tcpros_base.py", line 618, in read_header
    self._validate_header(read_ros_handshake_header(sock, self.read_buff, self.protocol.buff_size))
  File "/opt/ros/indigo/lib/python2.7/dist-packages/rospy/impl/tcpros_base.py", line 580, in _validate_header
    raise TransportInitError("remote error reported: %s"%header['error'])
TransportInitError: remote error reported: node shutting down

[rospy.internal][INFO] 2015-02-08 23:36:30,426: topic[/fritz/base_controller/command] removing connection to http://hr2:53614/
[rospy.internal][INFO] 2015-02-08 23:36:30,427: topic[/fritz/base_right_controller/command] removing connection to http://hr2:53614/
[rospy.internal][INFO] 2015-02-08 23:36:30,427: topic[/fritz/motor_states/pan_tilt_port] removing connection to http://hr2:36143/
[rospy.impl.masterslave][INFO] 2015-02-08 23:36:30,427: signal-2
[rospy.core][INFO] 2015-02-08 23:36:31,077: signal_shutdown [atexit]
