[rospy.client][INFO] 2015-02-13 07:43:05,051: init_node, name[/fritz/pau2motors], pid[6816]
[xmlrpc][INFO] 2015-02-13 07:43:05,051: XML-RPC server binding to 0.0.0.0:0
[xmlrpc][INFO] 2015-02-13 07:43:05,052: Started XML-RPC server [http://hr2:49700/]
[rospy.init][INFO] 2015-02-13 07:43:05,052: ROS Slave URI: [http://hr2:49700/]
[rospy.impl.masterslave][INFO] 2015-02-13 07:43:05,052: _ready: http://hr2:49700/
[rospy.registration][INFO] 2015-02-13 07:43:05,052: Registering with master node http://localhost:11311
[xmlrpc][INFO] 2015-02-13 07:43:05,052: xml rpc node: starting XML-RPC server
[rospy.init][INFO] 2015-02-13 07:43:05,152: registered with master
[rospy.rosout][INFO] 2015-02-13 07:43:05,152: initializing /rosout core topic
[rospy.rosout][INFO] 2015-02-13 07:43:05,154: connected to core topic /rosout
[rospy.simtime][INFO] 2015-02-13 07:43:05,155: /use_sim_time is not set, will not subscribe to simulated time [/clock] topic
[rosout][INFO] 2015-02-13 07:43:05,184: Loaded '/fritz/pau2motors' from param server.
[rosout][INFO] 2015-02-13 07:43:05,190: Started
[rospy.internal][INFO] 2015-02-13 07:43:05,376: topic[/fritz/left/command] adding connection to [/fritz/left_pololu_node], count 0
[rospy.internal][INFO] 2015-02-13 07:43:05,376: topic[/fritz/right/command] adding connection to [/fritz/right_pololu_node], count 0
[rospy.internal][INFO] 2015-02-13 07:43:05,377: topic[/fritz/middle/command] adding connection to [/fritz/middle_pololu_node], count 0
[rospy.internal][INFO] 2015-02-13 07:43:05,378: topic[/rosout] adding connection to [/rosout], count 0
[rospy.internal][INFO] 2015-02-13 07:43:05,467: topic[/fritz/base_controller/command] adding connection to [/fritz/dynamixel_manager], count 0
[rospy.internal][INFO] 2015-02-13 07:43:05,490: topic[/fritz/base_right_controller/command] adding connection to [/fritz/dynamixel_manager], count 0
[rospy.internal][INFO] 2015-02-13 07:43:05,522: topic[/fritz/base_left_controller/command] adding connection to [/fritz/dynamixel_manager], count 0
[rospy.internal][INFO] 2015-02-13 07:43:05,555: topic[/fritz/neck_right_controller/command] adding connection to [/fritz/dynamixel_manager], count 0
[rospy.internal][INFO] 2015-02-13 07:43:05,587: topic[/fritz/neck_left_controller/command] adding connection to [/fritz/dynamixel_manager], count 0
[rospy.internal][INFO] 2015-02-13 07:43:12,640: topic[/fritz/no_pau] adding connection to [http://hr2:46091/], count 0
[rospy.internal][INFO] 2015-02-13 07:43:14,352: topic[/fritz/neck_pau] adding connection to [http://hr2:38107/], count 0
[rospy.internal][INFO] 2015-02-13 07:43:14,353: topic[/fritz/head_pau] adding connection to [http://hr2:36703/], count 0
[rospy.internal][WARNING] 2015-02-13 07:43:58,488: Unknown error initiating TCP/IP socket to hr2:54277 (http://hr2:46091/): Traceback (most recent call last):
  File "/opt/ros/indigo/lib/python2.7/dist-packages/rospy/impl/tcpros_base.py", line 555, in connect
    self.socket.connect((dest_addr, dest_port))
  File "/usr/lib/python2.7/socket.py", line 224, in meth
    return getattr(self._sock,name)(*args)
error: [Errno 111] Connection refused

[rospy.internal][INFO] 2015-02-13 07:43:58,488: topic[/fritz/no_pau] removing connection to http://hr2:46091/
[rospy.core][INFO] 2015-02-13 07:43:58,527: signal_shutdown [signal-2]
[rospy.internal][INFO] 2015-02-13 07:43:58,567: topic[/fritz/base_controller/command] removing connection to /fritz/dynamixel_manager
[rospy.internal][INFO] 2015-02-13 07:43:58,567: topic[/fritz/base_right_controller/command] removing connection to /fritz/dynamixel_manager
[rospy.internal][INFO] 2015-02-13 07:43:58,567: topic[/fritz/base_left_controller/command] removing connection to /fritz/dynamixel_manager
[rospy.internal][INFO] 2015-02-13 07:43:58,567: topic[/fritz/neck_right_controller/command] removing connection to /fritz/dynamixel_manager
[rospy.internal][INFO] 2015-02-13 07:43:58,567: topic[/fritz/right/command] removing connection to /fritz/right_pololu_node
[rospy.internal][INFO] 2015-02-13 07:43:58,568: topic[/rosout] removing connection to /rosout
[rospy.internal][INFO] 2015-02-13 07:43:58,568: topic[/fritz/middle/command] removing connection to /fritz/middle_pololu_node
[rospy.internal][INFO] 2015-02-13 07:43:58,568: topic[/fritz/left/command] removing connection to /fritz/left_pololu_node
[rospy.internal][INFO] 2015-02-13 07:43:58,568: topic[/fritz/neck_left_controller/command] removing connection to /fritz/dynamixel_manager
[rospy.internal][INFO] 2015-02-13 07:43:58,568: topic[/fritz/neck_pau] removing connection to http://hr2:38107/
[rospy.internal][INFO] 2015-02-13 07:43:58,568: topic[/fritz/head_pau] removing connection to http://hr2:36703/
[rospy.impl.masterslave][INFO] 2015-02-13 07:43:58,568: signal-2
[rospy.core][INFO] 2015-02-13 07:43:58,676: signal_shutdown [atexit]
