[roslaunch][INFO] 2015-02-07 14:59:57,786: Checking log directory for disk usage. This may take awhile.
Press Ctrl-C to interrupt
[roslaunch][ERROR] 2015-02-07 14:59:57,791: WARNING: disk usage in log directory [/home/hr/.ros/log] is over 1GB.
It's recommended that you use the 'rosclean' command.
[roslaunch][INFO] 2015-02-07 14:59:57,791: roslaunch starting with args ['roscore', '--core']
[roslaunch][INFO] 2015-02-07 14:59:57,792: roslaunch env is {'MANDATORY_PATH': '/usr/share/gconf/ubuntu.mandatory.path', 'ROS_DISTRO': 'indigo', 'ROS_LOG_FILENAME': '/home/hr/.ros/log/99ad38b0-aed1-11e4-83c9-dc85debf707f/roslaunch-hr2-4231.log', 'XDG_GREETER_DATA_DIR': '/var/lib/lightdm-data/hr', 'GNOME_DESKTOP_SESSION_ID': 'this-is-deprecated', 'UPSTART_EVENTS': 'started starting', 'LESSOPEN': '| /usr/bin/lesspipe %s', 'PKG_CONFIG_PATH': '/catkin_ws/devel/lib/x86_64-linux-gnu/pkgconfig:/opt/ros/indigo/lib/x86_64-linux-gnu/pkgconfig:/catkin_ws/devel/lib/pkgconfig:/opt/ros/indigo/lib/pkgconfig', 'ROSLISP_PACKAGE_DIRECTORIES': '/catkin_ws/devel/share/common-lisp', 'CPATH': '/catkin_ws/devel/include:/opt/ros/indigo/include', 'LOGNAME': 'hr', 'USER': 'hr', 'PATH': '/catkin_ws/devel/bin:/opt/ros/indigo/bin:/usr/local/sbin:/usr/local/bin:/usr/sbin:/usr/bin:/sbin:/bin:/usr/games:/usr/local/games', 'XDG_VTNR': '7', 'GNOME_KEYRING_CONTROL': '/run/user/1000/keyring-c22ABv', 'CMAKE_PREFIX_PATH': '/catkin_ws/devel:/opt/ros/indigo', 'LD_LIBRARY_PATH': '/catkin_ws/devel/lib/x86_64-linux-gnu:/opt/ros/indigo/lib/x86_64-linux-gnu:/catkin_ws/devel/lib:/opt/ros/indigo/lib', 'SSH_AGENT_PID': '1737', 'LANG': 'en_HK.UTF-8', 'TERM': 'screen', 'SHELL': '/bin/bash', 'XDG_SESSION_PATH': '/org/freedesktop/DisplayManager/Session0', 'XAUTHORITY': '/home/hr/.Xauthority', 'LANGUAGE': 'en_HK:en', 'COMPIZ_CONFIG_PROFILE': 'ubuntu', 'SHLVL': '3', 'ROS_TEST_RESULTS_DIR': '/catkin_ws/build/test_results', 'QT_QPA_PLATFORMTHEME': 'appmenu-qt5', 'JOB': 'gnome-session', 'TEXTDOMAIN': 'im-config', 'UPSTART_INSTANCE': '', 'CLUTTER_IM_MODULE': 'xim', 'WINDOWID': '65011724', 'SESSIONTYPE': 'gnome-session', 'XMODIFIERS': '@im=ibus', 'ROS_ETC_DIR': '/opt/ros/indigo/etc/ros', 'GPG_AGENT_INFO': '/run/user/1000/keyring-c22ABv/gpg:0:1', 'HOME': '/home/hr', 'QT4_IM_MODULE': 'xim', 'SELINUX_INIT': 'YES', 'GTK_IM_MODULE': 'ibus', 'XDG_RUNTIME_DIR': '/run/user/1000', 'INSTANCE': 'Unity', 'PYTHONPATH': '/catkin_ws/devel/lib/python2.7/dist-packages:/opt/ros/indigo/lib/python2.7/dist-packages', 'SSH_AUTH_SOCK': '/run/user/1000/keyring-c22ABv/ssh', 'VTE_VERSION': '3409', 'TMUX': '/tmp/tmux-1000/default,4228,0', 'ROS_ROOT': '/opt/ros/indigo/share/ros', 'GDMSESSION': 'ubuntu', 'IM_CONFIG_PHASE': '1', 'UPSTART_JOB': 'unity-settings-daemon', 'TEXTDOMAINDIR': '/usr/share/locale/', 'LESSCLOSE': '/usr/bin/lesspipe %s %s', 'XDG_SEAT_PATH': '/org/freedesktop/DisplayManager/Seat0', 'ROS_PACKAGE_PATH': '/catkin_ws/src:/opt/ros/indigo/share:/opt/ros/indigo/stacks', 'XDG_CURRENT_DESKTOP': 'Unity', 'XDG_SESSION_ID': 'c1', 'DBUS_SESSION_BUS_ADDRESS': 'unix:abstract=/tmp/dbus-cCf2u4n6hP', '_': '/opt/ros/indigo/bin/roscore', 'DEFAULTS_PATH': '/usr/share/gconf/ubuntu.default.path', 'CATKIN_TEST_RESULTS_DIR': '/catkin_ws/build/test_results', 'DESKTOP_SESSION': 'ubuntu', 'UPSTART_SESSION': 'unix:abstract=/com/ubuntu/upstart-session/1000/1658', 'XDG_CONFIG_DIRS': '/etc/xdg/xdg-ubuntu:/usr/share/upstart/xdg:/etc/xdg', 'GTK_MODULES': 'overlay-scrollbar:unity-gtk-module', 'UBUNTU_MENUPROXY': '1', 'GDM_LANG': 'en_US', 'XDG_DATA_DIRS': '/usr/share/ubuntu:/usr/share/gnome:/usr/local/share/:/usr/share/', 'PWD': '/home/hr/Pictures/Desktop', 'QT_IM_MODULE': 'ibus', 'ROS_MASTER_URI': 'http://localhost:11311', 'SSH_AGENT_LAUNCHER': 'upstart', 'COLORTERM': 'gnome-terminal', 'DISPLAY': ':0', 'LS_COLORS': 'rs=0:di=01;34:ln=01;36:mh=00:pi=40;33:so=01;35:do=01;35:bd=40;33;01:cd=40;33;01:or=40;31;01:su=37;41:sg=30;43:ca=30;41:tw=30;42:ow=34;42:st=37;44:ex=01;32:*.tar=01;31:*.tgz=01;31:*.arj=01;31:*.taz=01;31:*.lzh=01;31:*.lzma=01;31:*.tlz=01;31:*.txz=01;31:*.zip=01;31:*.z=01;31:*.Z=01;31:*.dz=01;31:*.gz=01;31:*.lz=01;31:*.xz=01;31:*.bz2=01;31:*.bz=01;31:*.tbz=01;31:*.tbz2=01;31:*.tz=01;31:*.deb=01;31:*.rpm=01;31:*.jar=01;31:*.war=01;31:*.ear=01;31:*.sar=01;31:*.rar=01;31:*.ace=01;31:*.zoo=01;31:*.cpio=01;31:*.7z=01;31:*.rz=01;31:*.jpg=01;35:*.jpeg=01;35:*.gif=01;35:*.bmp=01;35:*.pbm=01;35:*.pgm=01;35:*.ppm=01;35:*.tga=01;35:*.xbm=01;35:*.xpm=01;35:*.tif=01;35:*.tiff=01;35:*.png=01;35:*.svg=01;35:*.svgz=01;35:*.mng=01;35:*.pcx=01;35:*.mov=01;35:*.mpg=01;35:*.mpeg=01;35:*.m2v=01;35:*.mkv=01;35:*.webm=01;35:*.ogm=01;35:*.mp4=01;35:*.m4v=01;35:*.mp4v=01;35:*.vob=01;35:*.qt=01;35:*.nuv=01;35:*.wmv=01;35:*.asf=01;35:*.rm=01;35:*.rmvb=01;35:*.flc=01;35:*.avi=01;35:*.fli=01;35:*.flv=01;35:*.gl=01;35:*.dl=01;35:*.xcf=01;35:*.xwd=01;35:*.yuv=01;35:*.cgm=01;35:*.emf=01;35:*.axv=01;35:*.anx=01;35:*.ogv=01;35:*.ogx=01;35:*.aac=00;36:*.au=00;36:*.flac=00;36:*.mid=00;36:*.midi=00;36:*.mka=00;36:*.mp3=00;36:*.mpc=00;36:*.ogg=00;36:*.ra=00;36:*.wav=00;36:*.axa=00;36:*.oga=00;36:*.spx=00;36:*.xspf=00;36:', 'TMUX_PANE': '%0', 'XDG_SEAT': 'seat0'}
[roslaunch][INFO] 2015-02-07 14:59:57,792: starting in server mode
[roslaunch.parent][INFO] 2015-02-07 14:59:57,792: starting roslaunch parent run
[roslaunch][INFO] 2015-02-07 14:59:57,792: loading roscore config file /opt/ros/indigo/etc/ros/roscore.xml
[roslaunch][INFO] 2015-02-07 14:59:57,935: Added core node of type [rosout/rosout] in namespace [/]
[roslaunch.pmon][INFO] 2015-02-07 14:59:57,935: start_process_monitor: creating ProcessMonitor
[roslaunch.pmon][INFO] 2015-02-07 14:59:57,935: created process monitor <ProcessMonitor(ProcessMonitor-1, initial daemon)>
[roslaunch.pmon][INFO] 2015-02-07 14:59:57,935: start_process_monitor: ProcessMonitor started
[roslaunch.parent][INFO] 2015-02-07 14:59:57,935: starting parent XML-RPC server
[roslaunch.server][INFO] 2015-02-07 14:59:57,935: starting roslaunch XML-RPC server
[roslaunch.server][INFO] 2015-02-07 14:59:57,935: waiting for roslaunch XML-RPC server to initialize
[xmlrpc][INFO] 2015-02-07 14:59:57,936: XML-RPC server binding to 0.0.0.0:0
[xmlrpc][INFO] 2015-02-07 14:59:57,936: Started XML-RPC server [http://hr2:41114/]
[xmlrpc][INFO] 2015-02-07 14:59:57,936: xml rpc node: starting XML-RPC server
[roslaunch][INFO] 2015-02-07 14:59:57,947: started roslaunch server http://hr2:41114/
[roslaunch.parent][INFO] 2015-02-07 14:59:57,947: ... parent XML-RPC server started
[roslaunch][INFO] 2015-02-07 14:59:57,948: master.is_running[http://hr2:11311/]
[roslaunch][INFO] 2015-02-07 14:59:57,949: auto-starting new master
[roslaunch][INFO] 2015-02-07 14:59:57,949: create_master_process: rosmaster, /opt/ros/indigo/share/ros, 11311
[roslaunch][INFO] 2015-02-07 14:59:57,949: process[master]: launching with args [['rosmaster', '--core', '-p', '11311']]
[roslaunch.pmon][INFO] 2015-02-07 14:59:57,949: ProcessMonitor.register[master]
[roslaunch.pmon][INFO] 2015-02-07 14:59:57,949: ProcessMonitor.register[master] complete
[roslaunch][INFO] 2015-02-07 14:59:57,949: process[master]: starting os process
[roslaunch][INFO] 2015-02-07 14:59:57,949: process[master]: start w/ args [['rosmaster', '--core', '-p', '11311', '__log:=/home/hr/.ros/log/99ad38b0-aed1-11e4-83c9-dc85debf707f/master.log']]
[roslaunch][INFO] 2015-02-07 14:59:57,949: process[master]: cwd will be [/home/hr/.ros]
[roslaunch][INFO] 2015-02-07 14:59:57,951: process[master]: started with pid [4243]
[roslaunch][INFO] 2015-02-07 14:59:57,951: master.is_running[http://hr2:11311/]
[roslaunch][INFO] 2015-02-07 14:59:58,052: master.is_running[http://hr2:11311/]
[roslaunch][INFO] 2015-02-07 14:59:58,054: master.is_running[http://hr2:11311/]
[roslaunch][INFO] 2015-02-07 14:59:58,055: ROS_MASTER_URI=http://hr2:11311/
[roslaunch][INFO] 2015-02-07 14:59:58,056: setting /run_id to 99ad38b0-aed1-11e4-83c9-dc85debf707f
[roslaunch][INFO] 2015-02-07 14:59:58,057: setting /roslaunch/uris/host_hr2__41114' to http://hr2:41114/
[roslaunch][INFO] 2015-02-07 14:59:58,059: ... preparing to launch node of type [rosout/rosout]
[roslaunch][INFO] 2015-02-07 14:59:58,059: create_node_process: package[rosout] type[rosout] machine[Machine(name[] env_loader[None] address[localhost] ssh_port[22] user[None] assignable[True] timeout[10.0])] master_uri[http://hr2:11311/]
[roslaunch][INFO] 2015-02-07 14:59:58,059: process[rosout-1]: env[{'WINDOWID': '65011724', 'QT_QPA_PLATFORMTHEME': 'appmenu-qt5', 'ROS_DISTRO': 'indigo', 'XDG_GREETER_DATA_DIR': '/var/lib/lightdm-data/hr', 'GNOME_DESKTOP_SESSION_ID': 'this-is-deprecated', 'UPSTART_EVENTS': 'started starting', 'LESSOPEN': '| /usr/bin/lesspipe %s', 'XDG_SEAT_PATH': '/org/freedesktop/DisplayManager/Seat0', 'ROSLISP_PACKAGE_DIRECTORIES': '/catkin_ws/devel/share/common-lisp', 'CPATH': '/catkin_ws/devel/include:/opt/ros/indigo/include', 'LOGNAME': 'hr', 'USER': 'hr', 'PATH': '/catkin_ws/devel/bin:/opt/ros/indigo/bin:/usr/local/sbin:/usr/local/bin:/usr/sbin:/usr/bin:/sbin:/bin:/usr/games:/usr/local/games', 'XDG_VTNR': '7', 'GNOME_KEYRING_CONTROL': '/run/user/1000/keyring-c22ABv', 'CMAKE_PREFIX_PATH': '/catkin_ws/devel:/opt/ros/indigo', 'LD_LIBRARY_PATH': '/catkin_ws/devel/lib/x86_64-linux-gnu:/opt/ros/indigo/lib/x86_64-linux-gnu:/catkin_ws/devel/lib:/opt/ros/indigo/lib', 'SSH_AGENT_PID': '1737', 'LANG': 'en_HK.UTF-8', 'TERM': 'screen', 'SHELL': '/bin/bash', 'XDG_SESSION_PATH': '/org/freedesktop/DisplayManager/Session0', 'XAUTHORITY': '/home/hr/.Xauthority', 'LANGUAGE': 'en_HK:en', 'SHLVL': '3', 'XDG_SESSION_ID': 'c1', 'MANDATORY_PATH': '/usr/share/gconf/ubuntu.mandatory.path', 'JOB': 'gnome-session', 'ROS_LOG_FILENAME': '/home/hr/.ros/log/99ad38b0-aed1-11e4-83c9-dc85debf707f/roslaunch-hr2-4231.log', 'UPSTART_INSTANCE': '', 'COMPIZ_CONFIG_PROFILE': 'ubuntu', 'TEXTDOMAIN': 'im-config', 'CLUTTER_IM_MODULE': 'xim', 'XMODIFIERS': '@im=ibus', 'ROS_MASTER_URI': 'http://hr2:11311/', 'GPG_AGENT_INFO': '/run/user/1000/keyring-c22ABv/gpg:0:1', 'HOME': '/home/hr', 'QT4_IM_MODULE': 'xim', 'SELINUX_INIT': 'YES', 'SSH_AUTH_SOCK': '/run/user/1000/keyring-c22ABv/ssh', 'XDG_RUNTIME_DIR': '/run/user/1000', 'CATKIN_TEST_RESULTS_DIR': '/catkin_ws/build/test_results', 'PYTHONPATH': '/catkin_ws/devel/lib/python2.7/dist-packages:/opt/ros/indigo/lib/python2.7/dist-packages', 'SESSIONTYPE': 'gnome-session', 'VTE_VERSION': '3409', 'TMUX': '/tmp/tmux-1000/default,4228,0', 'ROS_ROOT': '/opt/ros/indigo/share/ros', 'GDMSESSION': 'ubuntu', 'IM_CONFIG_PHASE': '1', 'UPSTART_JOB': 'unity-settings-daemon', 'TEXTDOMAINDIR': '/usr/share/locale/', 'XDG_DATA_DIRS': '/usr/share/ubuntu:/usr/share/gnome:/usr/local/share/:/usr/share/', 'PKG_CONFIG_PATH': '/catkin_ws/devel/lib/x86_64-linux-gnu/pkgconfig:/opt/ros/indigo/lib/x86_64-linux-gnu/pkgconfig:/catkin_ws/devel/lib/pkgconfig:/opt/ros/indigo/lib/pkgconfig', 'ROS_PACKAGE_PATH': '/catkin_ws/src:/opt/ros/indigo/share:/opt/ros/indigo/stacks', 'XDG_CURRENT_DESKTOP': 'Unity', 'ROS_TEST_RESULTS_DIR': '/catkin_ws/build/test_results', 'DBUS_SESSION_BUS_ADDRESS': 'unix:abstract=/tmp/dbus-cCf2u4n6hP', '_': '/opt/ros/indigo/bin/roscore', 'GTK_MODULES': 'overlay-scrollbar:unity-gtk-module', 'GTK_IM_MODULE': 'ibus', 'DESKTOP_SESSION': 'ubuntu', 'UPSTART_SESSION': 'unix:abstract=/com/ubuntu/upstart-session/1000/1658', 'LESSCLOSE': '/usr/bin/lesspipe %s %s', 'DEFAULTS_PATH': '/usr/share/gconf/ubuntu.default.path', 'UBUNTU_MENUPROXY': '1', 'LS_COLORS': 'rs=0:di=01;34:ln=01;36:mh=00:pi=40;33:so=01;35:do=01;35:bd=40;33;01:cd=40;33;01:or=40;31;01:su=37;41:sg=30;43:ca=30;41:tw=30;42:ow=34;42:st=37;44:ex=01;32:*.tar=01;31:*.tgz=01;31:*.arj=01;31:*.taz=01;31:*.lzh=01;31:*.lzma=01;31:*.tlz=01;31:*.txz=01;31:*.zip=01;31:*.z=01;31:*.Z=01;31:*.dz=01;31:*.gz=01;31:*.lz=01;31:*.xz=01;31:*.bz2=01;31:*.bz=01;31:*.tbz=01;31:*.tbz2=01;31:*.tz=01;31:*.deb=01;31:*.rpm=01;31:*.jar=01;31:*.war=01;31:*.ear=01;31:*.sar=01;31:*.rar=01;31:*.ace=01;31:*.zoo=01;31:*.cpio=01;31:*.7z=01;31:*.rz=01;31:*.jpg=01;35:*.jpeg=01;35:*.gif=01;35:*.bmp=01;35:*.pbm=01;35:*.pgm=01;35:*.ppm=01;35:*.tga=01;35:*.xbm=01;35:*.xpm=01;35:*.tif=01;35:*.tiff=01;35:*.png=01;35:*.svg=01;35:*.svgz=01;35:*.mng=01;35:*.pcx=01;35:*.mov=01;35:*.mpg=01;35:*.mpeg=01;35:*.m2v=01;35:*.mkv=01;35:*.webm=01;35:*.ogm=01;35:*.mp4=01;35:*.m4v=01;35:*.mp4v=01;35:*.vob=01;35:*.qt=01;35:*.nuv=01;35:*.wmv=01;35:*.asf=01;35:*.rm=01;35:*.rmvb=01;35:*.flc=01;35:*.avi=01;35:*.fli=01;35:*.flv=01;35:*.gl=01;35:*.dl=01;35:*.xcf=01;35:*.xwd=01;35:*.yuv=01;35:*.cgm=01;35:*.emf=01;35:*.axv=01;35:*.anx=01;35:*.ogv=01;35:*.ogx=01;35:*.aac=00;36:*.au=00;36:*.flac=00;36:*.mid=00;36:*.midi=00;36:*.mka=00;36:*.mp3=00;36:*.mpc=00;36:*.ogg=00;36:*.ra=00;36:*.wav=00;36:*.axa=00;36:*.oga=00;36:*.spx=00;36:*.xspf=00;36:', 'GDM_LANG': 'en_US', 'INSTANCE': 'Unity', 'PWD': '/home/hr/Pictures/Desktop', 'QT_IM_MODULE': 'ibus', 'ROS_ETC_DIR': '/opt/ros/indigo/etc/ros', 'SSH_AGENT_LAUNCHER': 'upstart', 'COLORTERM': 'gnome-terminal', 'DISPLAY': ':0', 'XDG_CONFIG_DIRS': '/etc/xdg/xdg-ubuntu:/usr/share/upstart/xdg:/etc/xdg', 'TMUX_PANE': '%0', 'XDG_SEAT': 'seat0'}]
[roslaunch][INFO] 2015-02-07 14:59:58,106: process[rosout-1]: args[[u'/opt/ros/indigo/lib/rosout/rosout', u'__name:=rosout']]
[roslaunch][INFO] 2015-02-07 14:59:58,106: ... created process [rosout-1]
[roslaunch.pmon][INFO] 2015-02-07 14:59:58,106: ProcessMonitor.register[rosout-1]
[roslaunch.pmon][INFO] 2015-02-07 14:59:58,107: ProcessMonitor.register[rosout-1] complete
[roslaunch][INFO] 2015-02-07 14:59:58,107: ... registered process [rosout-1]
[roslaunch][INFO] 2015-02-07 14:59:58,107: process[rosout-1]: starting os process
[roslaunch][INFO] 2015-02-07 14:59:58,107: process[rosout-1]: start w/ args [[u'/opt/ros/indigo/lib/rosout/rosout', u'__name:=rosout', u'__log:=/home/hr/.ros/log/99ad38b0-aed1-11e4-83c9-dc85debf707f/rosout-1.log']]
[roslaunch][INFO] 2015-02-07 14:59:58,107: process[rosout-1]: cwd will be [/home/hr/.ros]
[roslaunch][INFO] 2015-02-07 14:59:58,109: process[rosout-1]: started with pid [4256]
[roslaunch][INFO] 2015-02-07 14:59:58,109: ... successfully launched [rosout-1]
[roslaunch][INFO] 2015-02-07 14:59:58,109: load_parameters starting ...
[roslaunch][INFO] 2015-02-07 14:59:58,112: ... load_parameters complete
[roslaunch][INFO] 2015-02-07 14:59:58,112: launch_nodes: launching local nodes ...
[roslaunch][INFO] 2015-02-07 14:59:58,112: ... launch_nodes complete
[roslaunch.pmon][INFO] 2015-02-07 14:59:58,112: registrations completed <ProcessMonitor(ProcessMonitor-1, started daemon 139891700070144)>
[roslaunch.parent][INFO] 2015-02-07 14:59:58,112: ... roslaunch parent running, waiting for process exit
[roslaunch][INFO] 2015-02-07 14:59:58,112: spin
[roslaunch.pmon][INFO] 2015-02-07 15:01:24,217: ProcessMonitor.shutdown <ProcessMonitor(ProcessMonitor-1, started daemon 139891700070144)>
[roslaunch.pmon][INFO] 2015-02-07 15:01:24,296: ProcessMonitor._post_run <ProcessMonitor(ProcessMonitor-1, started daemon 139891700070144)>
[roslaunch.pmon][INFO] 2015-02-07 15:01:24,297: ProcessMonitor._post_run <ProcessMonitor(ProcessMonitor-1, started daemon 139891700070144)>: remaining procs are [<roslaunch.nodeprocess.LocalProcess object at 0x7f3b13b4fd10>, <roslaunch.nodeprocess.LocalProcess object at 0x7f3b131afb90>]
[roslaunch.pmon][INFO] 2015-02-07 15:01:24,298: ProcessMonitor exit: killing rosout-1
[roslaunch][INFO] 2015-02-07 15:01:24,298: [rosout-1] killing on exit
[roslaunch][INFO] 2015-02-07 15:01:24,298: process[rosout-1]: killing os process with pid[4256] pgid[4256]
[roslaunch][INFO] 2015-02-07 15:01:24,298: [rosout-1] sending SIGINT to pgid [4256]
[roslaunch][INFO] 2015-02-07 15:01:24,298: [rosout-1] sent SIGINT to pgid [4256]
[roslaunch][INFO] 2015-02-07 15:01:24,598: process[rosout-1]: SIGINT killed with return value 0
[roslaunch.pmon][INFO] 2015-02-07 15:01:24,599: ProcessMonitor exit: killing master
[roslaunch][INFO] 2015-02-07 15:01:24,599: [master] killing on exit
[roslaunch][INFO] 2015-02-07 15:01:24,599: process[master]: killing os process with pid[4243] pgid[4243]
[roslaunch][INFO] 2015-02-07 15:01:24,599: [master] sending SIGINT to pgid [4243]
[roslaunch][INFO] 2015-02-07 15:01:24,599: [master] sent SIGINT to pgid [4243]
[roslaunch][INFO] 2015-02-07 15:01:24,799: process[master]: SIGINT killed with return value 0
[roslaunch.pmon][INFO] 2015-02-07 15:01:24,799: ProcessMonitor exit: cleaning up data structures and signals
[roslaunch.pmon][INFO] 2015-02-07 15:01:24,799: ProcessMonitor exit: pmon has shutdown
[roslaunch][INFO] 2015-02-07 15:01:24,838: process monitor is done spinning, initiating full shutdown
[roslaunch][INFO] 2015-02-07 15:01:24,838: runner.stop()
[roslaunch][INFO] 2015-02-07 15:01:24,838: shutting down processing monitor...
[roslaunch][INFO] 2015-02-07 15:01:24,838: shutting down processing monitor <ProcessMonitor(ProcessMonitor-1, stopped daemon 139891700070144)>
[roslaunch.pmon][INFO] 2015-02-07 15:01:24,838: ProcessMonitor.shutdown <ProcessMonitor(ProcessMonitor-1, stopped daemon 139891700070144)>
[roslaunch][INFO] 2015-02-07 15:01:24,838: ... shutting down processing monitor complete
[roslaunch][INFO] 2015-02-07 15:01:24,838: done
[roslaunch.pmon][INFO] 2015-02-07 15:01:24,838: ProcessMonitor.shutdown <ProcessMonitor(ProcessMonitor-1, stopped daemon 139891700070144)>
[rospy.core][INFO] 2015-02-07 15:01:24,839: signal_shutdown [atexit]
