[rospy.client][INFO] 2015-02-27 17:23:19,262: init_node, name[/joint_state_publisher], pid[7976]
[xmlrpc][INFO] 2015-02-27 17:23:19,265: XML-RPC server binding to 0.0.0.0:0
[xmlrpc][INFO] 2015-02-27 17:23:19,265: Started XML-RPC server [http://hr2:58531/]
[rospy.init][INFO] 2015-02-27 17:23:19,266: ROS Slave URI: [http://hr2:58531/]
[rospy.impl.masterslave][INFO] 2015-02-27 17:23:19,266: _ready: http://hr2:58531/
[xmlrpc][INFO] 2015-02-27 17:23:19,266: xml rpc node: starting XML-RPC server
[rospy.registration][INFO] 2015-02-27 17:23:19,267: Registering with master node http://localhost:11311
[rospy.init][INFO] 2015-02-27 17:23:19,366: registered with master
[rospy.rosout][INFO] 2015-02-27 17:23:19,366: initializing /rosout core topic
[rospy.rosout][INFO] 2015-02-27 17:23:19,369: connected to core topic /rosout
[rospy.simtime][INFO] 2015-02-27 17:23:19,370: /use_sim_time is not set, will not subscribe to simulated time [/clock] topic
[rosout][INFO] 2015-02-27 17:23:19,471: Centering
[rospy.internal][INFO] 2015-02-27 17:23:19,538: topic[/rosout] adding connection to [/rosout], count 0
[rospy.internal][INFO] 2015-02-27 17:23:19,680: topic[/joint_states_combined] adding connection to [http://hr2:35208/], count 0
[rospy.internal][INFO] 2015-02-27 17:23:19,732: topic[/joint_states] adding connection to [/robot_state_publisher], count 0
