[rospy.client][INFO] 2015-02-08 05:00:26,642: init_node, name[/state_publisher], pid[11690]
[xmlrpc][INFO] 2015-02-08 05:00:26,642: XML-RPC server binding to 0.0.0.0:0
[xmlrpc][INFO] 2015-02-08 05:00:26,642: Started XML-RPC server [http://hr2:47934/]
[rospy.impl.masterslave][INFO] 2015-02-08 05:00:26,642: _ready: http://hr2:47934/
[rospy.init][INFO] 2015-02-08 05:00:26,643: ROS Slave URI: [http://hr2:47934/]
[xmlrpc][INFO] 2015-02-08 05:00:26,643: xml rpc node: starting XML-RPC server
[rospy.registration][INFO] 2015-02-08 05:00:26,643: Registering with master node http://localhost:11311
[rospy.init][INFO] 2015-02-08 05:00:26,743: registered with master
[rospy.rosout][INFO] 2015-02-08 05:00:26,743: initializing /rosout core topic
[rospy.rosout][INFO] 2015-02-08 05:00:26,746: connected to core topic /rosout
[rospy.simtime][INFO] 2015-02-08 05:00:26,748: /use_sim_time is not set, will not subscribe to simulated time [/clock] topic
[rospy.internal][INFO] 2015-02-08 05:00:26,794: topic[/joint_states_combined] adding connection to [/joint_state_publisher], count 0
[rospy.internal][INFO] 2015-02-08 05:00:26,987: topic[/rosout] adding connection to [/rosout], count 0
[rospy.core][INFO] 2015-02-08 05:01:25,731: signal_shutdown [signal-2]
[rospy.internal][INFO] 2015-02-08 05:01:25,747: topic[/joint_states_combined] removing connection to /joint_state_publisher
[rospy.internal][INFO] 2015-02-08 05:01:25,747: topic[/rosout] removing connection to /rosout
[rospy.impl.masterslave][INFO] 2015-02-08 05:01:25,747: signal-2
[rospy.core][INFO] 2015-02-08 05:01:26,364: signal_shutdown [atexit]
