Loading /catkin_ws/src/chatbot/aiml/geography.aiml... done (0.07 seconds)
Loading /catkin_ws/src/chatbot/aiml/reductions-update.aiml... done (0.00 seconds)
Loading /catkin_ws/src/chatbot/aiml/humor.aiml... done (0.00 seconds)
Loading /catkin_ws/src/chatbot/aiml/client_profile.aiml... done (0.02 seconds)
Loading /catkin_ws/src/chatbot/aiml/salutations.aiml... done (0.00 seconds)
Loading /catkin_ws/src/chatbot/aiml/mp0.aiml... done (0.32 seconds)
Loading /catkin_ws/src/chatbot/aiml/mp5.aiml... done (0.38 seconds)
Loading /catkin_ws/src/chatbot/aiml/update_mccormick.aiml... done (0.01 seconds)
Loading /catkin_ws/src/chatbot/aiml/numbers.aiml... done (0.02 seconds)
Loading /catkin_ws/src/chatbot/aiml/ai.aiml... done (0.02 seconds)
Loading /catkin_ws/src/chatbot/aiml/biography.aiml... done (0.04 seconds)
Loading /catkin_ws/src/chatbot/aiml/science.aiml... done (0.00 seconds)
Loading /catkin_ws/src/chatbot/aiml/mp6.aiml... done (0.16 seconds)
Loading /catkin_ws/src/chatbot/aiml/mp4.aiml... done (0.30 seconds)
Loading /catkin_ws/src/chatbot/aiml/mp3.aiml... done (0.32 seconds)
Loading /catkin_ws/src/chatbot/aiml/atomic.aiml... done (0.14 seconds)
Loading /catkin_ws/src/chatbot/aiml/music.aiml... done (0.00 seconds)
Loading /catkin_ws/src/chatbot/aiml/food.aiml... done (0.00 seconds)
Loading /catkin_ws/src/chatbot/aiml/default.aiml... done (0.33 seconds)
Loading /catkin_ws/src/chatbot/aiml/mp1.aiml... done (0.23 seconds)
Loading /catkin_ws/src/chatbot/aiml/astrology.aiml... done (0.00 seconds)
Loading /catkin_ws/src/chatbot/aiml/iu.aiml... done (0.00 seconds)
Loading /catkin_ws/src/chatbot/aiml/money.aiml... done (0.00 seconds)
Loading /catkin_ws/src/chatbot/aiml/primeminister.aiml... done (0.00 seconds)
Loading /catkin_ws/src/chatbot/aiml/knowledge.aiml... done (0.20 seconds)
Loading /catkin_ws/src/chatbot/aiml/personality.aiml... done (0.00 seconds)
Loading /catkin_ws/src/chatbot/aiml/stories.aiml... done (0.02 seconds)
Loading /catkin_ws/src/chatbot/aiml/reduction.names.aiml... done (0.19 seconds)
Loading /catkin_ws/src/chatbot/aiml/loebner10.aiml... done (0.00 seconds)
Loading /catkin_ws/src/chatbot/aiml/primitive-math.aiml... done (0.00 seconds)
Loading /catkin_ws/src/chatbot/aiml/gossip.aiml... done (0.00 seconds)
Loading /catkin_ws/src/chatbot/aiml/date.aiml... done (0.00 seconds)
Loading /catkin_ws/src/chatbot/aiml/sex.aiml... done (0.01 seconds)
Loading /catkin_ws/src/chatbot/aiml/reduction4.safe.aiml... done (0.18 seconds)
Loading /catkin_ws/src/chatbot/aiml/sports.aiml... done (0.00 seconds)
Loading /catkin_ws/src/chatbot/aiml/xfind.aiml... done (0.00 seconds)
Loading /catkin_ws/src/chatbot/aiml/imponderables.aiml... done (0.00 seconds)
Loading /catkin_ws/src/chatbot/aiml/alice.aiml... done (0.01 seconds)
Loading /catkin_ws/src/chatbot/aiml/reduction0.safe.aiml... done (0.49 seconds)
Loading /catkin_ws/src/chatbot/aiml/continuation.aiml... done (0.00 seconds)
Loading /catkin_ws/src/chatbot/aiml/bot_profile.aiml... done (0.00 seconds)
Loading /catkin_ws/src/chatbot/aiml/drugs.aiml... done (0.00 seconds)
Loading /catkin_ws/src/chatbot/aiml/inquiry.aiml... done (0.00 seconds)
Loading /catkin_ws/src/chatbot/aiml/computers.aiml... done (0.00 seconds)
Loading /catkin_ws/src/chatbot/aiml/phone.aiml... done (0.00 seconds)
Loading /catkin_ws/src/chatbot/aiml/history.aiml... done (0.00 seconds)
Loading /catkin_ws/src/chatbot/aiml/reduction1.safe.aiml... done (0.25 seconds)
Loading /catkin_ws/src/chatbot/aiml/psychology.aiml... done (0.03 seconds)
Loading /catkin_ws/src/chatbot/aiml/emotion.aiml... done (0.00 seconds)
Loading /catkin_ws/src/chatbot/aiml/interjection.aiml... done (0.00 seconds)
Loading /catkin_ws/src/chatbot/aiml/that.aiml... done (0.08 seconds)
Loading /catkin_ws/src/chatbot/aiml/wallace.aiml... done (0.03 seconds)
Loading /catkin_ws/src/chatbot/aiml/religion.aiml... done (0.01 seconds)
Loading /catkin_ws/src/chatbot/aiml/movies.aiml... done (0.00 seconds)
Loading /catkin_ws/src/chatbot/aiml/mp2.aiml... done (0.43 seconds)
Loading /catkin_ws/src/chatbot/aiml/badanswer.aiml... done (0.00 seconds)
Loading /catkin_ws/src/chatbot/aiml/client.aiml... done (0.06 seconds)
Loading /catkin_ws/src/chatbot/aiml/bot.aiml... done (0.13 seconds)
Loading /catkin_ws/src/chatbot/aiml/literature.aiml... done (0.00 seconds)
Loading /catkin_ws/src/chatbot/aiml/politics.aiml... done (0.00 seconds)
Loading /catkin_ws/src/chatbot/aiml/reduction2.safe.aiml... done (0.16 seconds)
Loading /catkin_ws/src/chatbot/aiml/pyschology.aiml... done (0.03 seconds)
Loading /catkin_ws/src/chatbot/aiml/stack.aiml... done (0.00 seconds)
Loading /catkin_ws/src/chatbot/aiml/update1.aiml... done (0.07 seconds)
Loading /catkin_ws/src/chatbot/aiml/pickup.aiml... done (0.00 seconds)
Loading /catkin_ws/src/chatbot/aiml/reduction3.safe.aiml... done (0.44 seconds)
