[roslaunch][INFO] 2015-03-03 15:59:13,864: Checking log directory for disk usage. This may take awhile.
Press Ctrl-C to interrupt
[roslaunch][ERROR] 2015-03-03 15:59:13,885: WARNING: disk usage in log directory [/home/hr/.ros/log] is over 1GB.
It's recommended that you use the 'rosclean' command.
[roslaunch][INFO] 2015-03-03 15:59:13,886: roslaunch starting with args ['/opt/ros/indigo/bin/roslaunch', 'robots_config', 'rosbridge_ssl.launch', 'ssl:=true', 'certfile:=/home/hr/res/robots.cert', 'keyfile:=/home/hr/res/robots.key', 'port:=9094']
[roslaunch][INFO] 2015-03-03 15:59:13,886: roslaunch env is {'INSTANCE': '', 'MANDATORY_PATH': '/usr/share/gconf/ubuntu.mandatory.path', 'ROS_DISTRO': 'indigo', 'ROS_LOG_FILENAME': '/home/hr/.ros/log/d1949e0c-c1b5-11e4-9506-dc85debf707f/roslaunch-hr2-17736.log', 'XDG_GREETER_DATA_DIR': '/var/lib/lightdm-data/hr', 'GNOME_DESKTOP_SESSION_ID': 'this-is-deprecated', 'GTK_IM_MODULE': 'ibus', 'XDG_CURRENT_DESKTOP': 'Unity', 'PKG_CONFIG_PATH': '/catkin_ws/devel/lib/pkgconfig:/catkin_ws/devel/lib/x86_64-linux-gnu/pkgconfig:/opt/ros/indigo/lib/x86_64-linux-gnu/pkgconfig:/opt/ros/indigo/lib/pkgconfig', 'ROSLISP_PACKAGE_DIRECTORIES': '/catkin_ws/devel/share/common-lisp', 'CPATH': '/catkin_ws/devel/include:/opt/ros/indigo/include', 'LOGNAME': 'hr', 'USER': 'hr', 'PATH': '/catkin_ws/devel/bin:/opt/ros/indigo/bin:/usr/local/sbin:/usr/local/bin:/usr/sbin:/usr/bin:/sbin:/bin:/usr/games:/usr/local/games', 'XDG_VTNR': '7', 'GNOME_KEYRING_CONTROL': '/run/user/1000/keyring-PpG8lt', 'CMAKE_PREFIX_PATH': '/catkin_ws/devel:/opt/ros/indigo', 'LD_LIBRARY_PATH': '/catkin_ws/devel/lib:/catkin_ws/devel/lib/x86_64-linux-gnu:/opt/ros/indigo/lib/x86_64-linux-gnu:/opt/ros/indigo/lib', 'SSH_AGENT_PID': '1574', 'LANG': 'en_HK.UTF-8', 'TERM': 'screen', 'SHELL': '/bin/bash', 'XDG_SESSION_PATH': '/org/freedesktop/DisplayManager/Session0', 'XAUTHORITY': '/home/hr/.Xauthority', 'LANGUAGE': 'en_HK:en', 'SESSION_MANAGER': 'local/hr2:@/tmp/.ICE-unix/1654,unix/hr2:/tmp/.ICE-unix/1654', 'SHLVL': '2', 'ROS_TEST_RESULTS_DIR': '/catkin_ws/build/test_results', 'QT_QPA_PLATFORMTHEME': 'appmenu-qt5', 'JOB': 'dbus', 'TEXTDOMAIN': 'im-config', 'QT4_IM_MODULE': 'xim', 'CLUTTER_IM_MODULE': 'xim', 'WINDOWID': '79691788', 'SESSIONTYPE': 'gnome-session', 'XMODIFIERS': '@im=ibus', 'ROS_ETC_DIR': '/opt/ros/indigo/etc/ros', 'GPG_AGENT_INFO': '/run/user/1000/keyring-PpG8lt/gpg:0:1', 'HOME': '/home/hr', 'SELINUX_INIT': 'YES', 'XDG_RUNTIME_DIR': '/run/user/1000', 'CATKIN_TEST_RESULTS_DIR': '/catkin_ws/build/test_results', 'PYTHONPATH': '/catkin_ws/devel/lib/python2.7/dist-packages:/opt/ros/indigo/lib/python2.7/dist-packages', 'COMPIZ_CONFIG_PROFILE': 'ubuntu', 'SSH_AUTH_SOCK': '/run/user/1000/keyring-PpG8lt/ssh', 'VTE_VERSION': '3409', 'TMUX': '/tmp/tmux-1000/default,16436,0', 'ROS_ROOT': '/opt/ros/indigo/share/ros', 'GDMSESSION': 'ubuntu', 'IM_CONFIG_PHASE': '1', 'TEXTDOMAINDIR': '/usr/share/locale/', 'XDG_SEAT_PATH': '/org/freedesktop/DisplayManager/Seat0', 'ROS_PACKAGE_PATH': '/catkin_ws/src:/opt/ros/indigo/share:/opt/ros/indigo/stacks', 'XDG_SESSION_ID': 'c1', 'DBUS_SESSION_BUS_ADDRESS': 'unix:abstract=/tmp/dbus-yMJVrXi7Vh', '_': '/opt/ros/indigo/bin/roslaunch', 'DEFAULTS_PATH': '/usr/share/gconf/ubuntu.default.path', 'SESSION': 'ubuntu', 'DESKTOP_SESSION': 'ubuntu', 'UPSTART_SESSION': 'unix:abstract=/com/ubuntu/upstart-session/1000/1513', 'XDG_CONFIG_DIRS': '/etc/xdg/xdg-ubuntu:/usr/share/upstart/xdg:/etc/xdg', 'GTK_MODULES': 'overlay-scrollbar:unity-gtk-module', 'UBUNTU_MENUPROXY': '1', 'GDM_LANG': 'en_US', 'XDG_DATA_DIRS': '/usr/share/ubuntu:/usr/share/gnome:/usr/local/share/:/usr/share/', 'PWD': '/home/hr', 'QT_IM_MODULE': 'ibus', 'ROS_MASTER_URI': 'http://localhost:11311', 'SSH_AGENT_LAUNCHER': 'upstart', 'COLORTERM': 'gnome-terminal', 'DISPLAY': ':0.0', 'XDG_MENU_PREFIX': 'gnome-', 'TMUX_PANE': '%2', 'XDG_SEAT': 'seat0'}
[roslaunch][INFO] 2015-03-03 15:59:13,886: starting in server mode
[roslaunch.parent][INFO] 2015-03-03 15:59:13,886: starting roslaunch parent run
[roslaunch][INFO] 2015-03-03 15:59:13,886: loading roscore config file /opt/ros/indigo/etc/ros/roscore.xml
[roslaunch][INFO] 2015-03-03 15:59:14,174: Added core node of type [rosout/rosout] in namespace [/]
[roslaunch.config][INFO] 2015-03-03 15:59:14,174: loading config file /catkin_ws/src/robots_config/rosbridge_ssl.launch
[roslaunch][INFO] 2015-03-03 15:59:14,176: Added node of type [rosbridge_server/rosbridge_websocket] in namespace [/]
[roslaunch][INFO] 2015-03-03 15:59:14,176: ... selected machine [] for node of type [rosbridge_server/rosbridge_websocket]
[roslaunch.pmon][INFO] 2015-03-03 15:59:14,178: start_process_monitor: creating ProcessMonitor
[roslaunch.pmon][INFO] 2015-03-03 15:59:14,178: created process monitor <ProcessMonitor(ProcessMonitor-1, initial daemon)>
[roslaunch.pmon][INFO] 2015-03-03 15:59:14,178: start_process_monitor: ProcessMonitor started
[roslaunch.parent][INFO] 2015-03-03 15:59:14,178: starting parent XML-RPC server
[roslaunch.server][INFO] 2015-03-03 15:59:14,178: starting roslaunch XML-RPC server
[roslaunch.server][INFO] 2015-03-03 15:59:14,178: waiting for roslaunch XML-RPC server to initialize
[xmlrpc][INFO] 2015-03-03 15:59:14,178: XML-RPC server binding to 0.0.0.0:0
[xmlrpc][INFO] 2015-03-03 15:59:14,179: Started XML-RPC server [http://hr2:40481/]
[xmlrpc][INFO] 2015-03-03 15:59:14,179: xml rpc node: starting XML-RPC server
[roslaunch][INFO] 2015-03-03 15:59:14,190: started roslaunch server http://hr2:40481/
[roslaunch.parent][INFO] 2015-03-03 15:59:14,190: ... parent XML-RPC server started
[roslaunch][INFO] 2015-03-03 15:59:14,191: master.is_running[http://localhost:11311]
[roslaunch][INFO] 2015-03-03 15:59:14,192: master.is_running[http://localhost:11311]
[roslaunch][INFO] 2015-03-03 15:59:14,193: ROS_MASTER_URI=http://localhost:11311
[roslaunch][INFO] 2015-03-03 15:59:14,196: setting /roslaunch/uris/host_hr2__40481' to http://hr2:40481/
[roslaunch][INFO] 2015-03-03 15:59:14,208: load_parameters starting ...
[roslaunch][INFO] 2015-03-03 15:59:14,212: ... load_parameters complete
[roslaunch][INFO] 2015-03-03 15:59:14,212: launch_nodes: launching local nodes ...
[roslaunch][INFO] 2015-03-03 15:59:14,212: ... preparing to launch node of type [rosbridge_server/rosbridge_websocket]
[roslaunch][INFO] 2015-03-03 15:59:14,212: create_node_process: package[rosbridge_server] type[rosbridge_websocket] machine[Machine(name[] env_loader[None] address[localhost] ssh_port[22] user[None] assignable[True] timeout[10.0])] master_uri[http://localhost:11311]
[roslaunch][INFO] 2015-03-03 15:59:14,212: process[rosbridge_websocket_ssl-1]: env[{'WINDOWID': '79691788', 'QT_QPA_PLATFORMTHEME': 'appmenu-qt5', 'ROS_DISTRO': 'indigo', 'XDG_GREETER_DATA_DIR': '/var/lib/lightdm-data/hr', 'GNOME_DESKTOP_SESSION_ID': 'this-is-deprecated', 'XDG_CURRENT_DESKTOP': 'Unity', 'XDG_SEAT_PATH': '/org/freedesktop/DisplayManager/Seat0', 'ROSLISP_PACKAGE_DIRECTORIES': '/catkin_ws/devel/share/common-lisp', 'CPATH': '/catkin_ws/devel/include:/opt/ros/indigo/include', 'LOGNAME': 'hr', 'USER': 'hr', 'PATH': '/catkin_ws/devel/bin:/opt/ros/indigo/bin:/usr/local/sbin:/usr/local/bin:/usr/sbin:/usr/bin:/sbin:/bin:/usr/games:/usr/local/games', 'XDG_VTNR': '7', 'GNOME_KEYRING_CONTROL': '/run/user/1000/keyring-PpG8lt', 'CMAKE_PREFIX_PATH': '/catkin_ws/devel:/opt/ros/indigo', 'LD_LIBRARY_PATH': '/catkin_ws/devel/lib:/catkin_ws/devel/lib/x86_64-linux-gnu:/opt/ros/indigo/lib/x86_64-linux-gnu:/opt/ros/indigo/lib', 'SSH_AGENT_PID': '1574', 'LANG': 'en_HK.UTF-8', 'TERM': 'screen', 'SHELL': '/bin/bash', 'XDG_SESSION_PATH': '/org/freedesktop/DisplayManager/Session0', 'XAUTHORITY': '/home/hr/.Xauthority', 'LANGUAGE': 'en_HK:en', 'SESSION_MANAGER': 'local/hr2:@/tmp/.ICE-unix/1654,unix/hr2:/tmp/.ICE-unix/1654', 'SHLVL': '2', 'XDG_SESSION_ID': 'c1', 'MANDATORY_PATH': '/usr/share/gconf/ubuntu.mandatory.path', 'CLUTTER_IM_MODULE': 'xim', 'ROS_LOG_FILENAME': '/home/hr/.ros/log/d1949e0c-c1b5-11e4-9506-dc85debf707f/roslaunch-hr2-17736.log', 'QT4_IM_MODULE': 'xim', 'JOB': 'dbus', 'TEXTDOMAIN': 'im-config', 'SESSIONTYPE': 'gnome-session', 'XMODIFIERS': '@im=ibus', 'ROS_MASTER_URI': 'http://localhost:11311', 'GPG_AGENT_INFO': '/run/user/1000/keyring-PpG8lt/gpg:0:1', 'HOME': '/home/hr', 'SELINUX_INIT': 'YES', 'XDG_RUNTIME_DIR': '/run/user/1000', 'CATKIN_TEST_RESULTS_DIR': '/catkin_ws/build/test_results', 'PYTHONPATH': '/catkin_ws/devel/lib/python2.7/dist-packages:/opt/ros/indigo/lib/python2.7/dist-packages', 'COMPIZ_CONFIG_PROFILE': 'ubuntu', 'SSH_AUTH_SOCK': '/run/user/1000/keyring-PpG8lt/ssh', 'SESSION': 'ubuntu', 'VTE_VERSION': '3409', 'TMUX': '/tmp/tmux-1000/default,16436,0', 'ROS_ROOT': '/opt/ros/indigo/share/ros', 'GDMSESSION': 'ubuntu', 'IM_CONFIG_PHASE': '1', 'TEXTDOMAINDIR': '/usr/share/locale/', 'XDG_DATA_DIRS': '/usr/share/ubuntu:/usr/share/gnome:/usr/local/share/:/usr/share/', 'PKG_CONFIG_PATH': '/catkin_ws/devel/lib/pkgconfig:/catkin_ws/devel/lib/x86_64-linux-gnu/pkgconfig:/opt/ros/indigo/lib/x86_64-linux-gnu/pkgconfig:/opt/ros/indigo/lib/pkgconfig', 'ROS_PACKAGE_PATH': '/catkin_ws/src:/opt/ros/indigo/share:/opt/ros/indigo/stacks', 'ROS_TEST_RESULTS_DIR': '/catkin_ws/build/test_results', 'DBUS_SESSION_BUS_ADDRESS': 'unix:abstract=/tmp/dbus-yMJVrXi7Vh', '_': '/opt/ros/indigo/bin/roslaunch', 'GTK_MODULES': 'overlay-scrollbar:unity-gtk-module', 'GTK_IM_MODULE': 'ibus', 'DESKTOP_SESSION': 'ubuntu', 'UPSTART_SESSION': 'unix:abstract=/com/ubuntu/upstart-session/1000/1513', 'XDG_CONFIG_DIRS': '/etc/xdg/xdg-ubuntu:/usr/share/upstart/xdg:/etc/xdg', 'DEFAULTS_PATH': '/usr/share/gconf/ubuntu.default.path', 'UBUNTU_MENUPROXY': '1', 'GDM_LANG': 'en_US', 'INSTANCE': '', 'PWD': '/home/hr', 'QT_IM_MODULE': 'ibus', 'ROS_ETC_DIR': '/opt/ros/indigo/etc/ros', 'SSH_AGENT_LAUNCHER': 'upstart', 'COLORTERM': 'gnome-terminal', 'DISPLAY': ':0.0', 'XDG_MENU_PREFIX': 'gnome-', 'TMUX_PANE': '%2', 'XDG_SEAT': 'seat0'}]
[roslaunch][INFO] 2015-03-03 15:59:14,258: process[rosbridge_websocket_ssl-1]: args[[u'/opt/ros/indigo/lib/rosbridge_server/rosbridge_websocket', u'__name:=rosbridge_websocket_ssl']]
[roslaunch][INFO] 2015-03-03 15:59:14,258: ... created process [rosbridge_websocket_ssl-1]
[roslaunch.pmon][INFO] 2015-03-03 15:59:14,258: ProcessMonitor.register[rosbridge_websocket_ssl-1]
[roslaunch.pmon][INFO] 2015-03-03 15:59:14,258: ProcessMonitor.register[rosbridge_websocket_ssl-1] complete
[roslaunch][INFO] 2015-03-03 15:59:14,258: ... registered process [rosbridge_websocket_ssl-1]
[roslaunch][INFO] 2015-03-03 15:59:14,258: process[rosbridge_websocket_ssl-1]: starting os process
[roslaunch][INFO] 2015-03-03 15:59:14,258: process[rosbridge_websocket_ssl-1]: start w/ args [[u'/opt/ros/indigo/lib/rosbridge_server/rosbridge_websocket', u'__name:=rosbridge_websocket_ssl', u'__log:=/home/hr/.ros/log/d1949e0c-c1b5-11e4-9506-dc85debf707f/rosbridge_websocket_ssl-1.log']]
[roslaunch][INFO] 2015-03-03 15:59:14,258: process[rosbridge_websocket_ssl-1]: cwd will be [/home/hr/.ros]
[roslaunch][INFO] 2015-03-03 15:59:14,260: process[rosbridge_websocket_ssl-1]: started with pid [17830]
[roslaunch][INFO] 2015-03-03 15:59:14,261: ... successfully launched [rosbridge_websocket_ssl-1]
[roslaunch][INFO] 2015-03-03 15:59:14,261: ... launch_nodes complete
[roslaunch.pmon][INFO] 2015-03-03 15:59:14,261: registrations completed <ProcessMonitor(ProcessMonitor-1, started daemon 139956050585344)>
[roslaunch.parent][INFO] 2015-03-03 15:59:14,261: ... roslaunch parent running, waiting for process exit
[roslaunch][INFO] 2015-03-03 15:59:14,261: spin
[roslaunch.pmon][INFO] 2015-03-03 16:02:38,158: ProcessMonitor.shutdown <ProcessMonitor(ProcessMonitor-1, started daemon 139956050585344)>
[roslaunch.pmon][INFO] 2015-03-03 16:02:38,205: ProcessMonitor._post_run <ProcessMonitor(ProcessMonitor-1, started daemon 139956050585344)>
[roslaunch.pmon][INFO] 2015-03-03 16:02:38,205: ProcessMonitor._post_run <ProcessMonitor(ProcessMonitor-1, started daemon 139956050585344)>: remaining procs are [<roslaunch.nodeprocess.LocalProcess object at 0x7f4a0f030710>]
[roslaunch.pmon][INFO] 2015-03-03 16:02:38,214: ProcessMonitor exit: killing rosbridge_websocket_ssl-1
[roslaunch][INFO] 2015-03-03 16:02:38,215: [rosbridge_websocket_ssl-1] killing on exit
[roslaunch][INFO] 2015-03-03 16:02:38,215: process[rosbridge_websocket_ssl-1]: killing os process with pid[17830] pgid[17830]
[roslaunch][INFO] 2015-03-03 16:02:38,217: [rosbridge_websocket_ssl-1] sending SIGINT to pgid [17830]
[roslaunch][INFO] 2015-03-03 16:02:38,217: [rosbridge_websocket_ssl-1] sent SIGINT to pgid [17830]
[roslaunch][INFO] 2015-03-03 16:02:38,318: process[rosbridge_websocket_ssl-1]: SIGINT killed with return value -2
[roslaunch.pmon][INFO] 2015-03-03 16:02:38,318: ProcessMonitor exit: cleaning up data structures and signals
[roslaunch.pmon][INFO] 2015-03-03 16:02:38,318: ProcessMonitor exit: pmon has shutdown
[roslaunch][INFO] 2015-03-03 16:02:38,322: process monitor is done spinning, initiating full shutdown
[roslaunch][INFO] 2015-03-03 16:02:38,322: runner.stop()
[roslaunch][INFO] 2015-03-03 16:02:38,322: shutting down processing monitor...
[roslaunch][INFO] 2015-03-03 16:02:38,322: shutting down processing monitor <ProcessMonitor(ProcessMonitor-1, stopped daemon 139956050585344)>
[roslaunch.pmon][INFO] 2015-03-03 16:02:38,322: ProcessMonitor.shutdown <ProcessMonitor(ProcessMonitor-1, stopped daemon 139956050585344)>
[roslaunch][INFO] 2015-03-03 16:02:38,322: ... shutting down processing monitor complete
[roslaunch][INFO] 2015-03-03 16:02:38,322: done
[roslaunch.pmon][INFO] 2015-03-03 16:02:38,322: ProcessMonitor.shutdown <ProcessMonitor(ProcessMonitor-1, stopped daemon 139956050585344)>
[rospy.core][INFO] 2015-03-03 16:02:38,322: signal_shutdown [atexit]
