[roslaunch][INFO] 2015-02-08 09:29:47,021: Checking log directory for disk usage. This may take awhile.
Press Ctrl-C to interrupt
[roslaunch][ERROR] 2015-02-08 09:29:47,053: WARNING: disk usage in log directory [/home/hr/.ros/log] is over 1GB.
It's recommended that you use the 'rosclean' command.
[roslaunch][INFO] 2015-02-08 09:29:47,054: roslaunch starting with args ['/opt/ros/indigo/bin/roslaunch', 'rosbridge_server', 'rosbridge_websocket.launch']
[roslaunch][INFO] 2015-02-08 09:29:47,054: roslaunch env is {'INSTANCE': '', 'MANDATORY_PATH': '/usr/share/gconf/ubuntu.mandatory.path', 'ROS_DISTRO': 'indigo', 'ROS_LOG_FILENAME': '/home/hr/.ros/log/9cb2c714-af6c-11e4-9454-dc85debf707f/roslaunch-hr2-9308.log', 'XDG_GREETER_DATA_DIR': '/var/lib/lightdm-data/hr', 'GNOME_DESKTOP_SESSION_ID': 'this-is-deprecated', 'GTK_IM_MODULE': 'ibus', 'XDG_CURRENT_DESKTOP': 'Unity', 'PKG_CONFIG_PATH': '/catkin_ws/devel/lib/pkgconfig:/catkin_ws/devel/lib/x86_64-linux-gnu/pkgconfig:/opt/ros/indigo/lib/x86_64-linux-gnu/pkgconfig:/opt/ros/indigo/lib/pkgconfig', 'ROSLISP_PACKAGE_DIRECTORIES': '/catkin_ws/devel/share/common-lisp', 'CPATH': '/catkin_ws/devel/include:/opt/ros/indigo/include', 'LOGNAME': 'hr', 'USER': 'hr', 'PATH': '/catkin_ws/devel/bin:/opt/ros/indigo/bin:/usr/local/sbin:/usr/local/bin:/usr/sbin:/usr/bin:/sbin:/bin:/usr/games:/usr/local/games', 'XDG_VTNR': '7', 'GNOME_KEYRING_CONTROL': '/run/user/1000/keyring-D1bbBV', 'CMAKE_PREFIX_PATH': '/catkin_ws/devel:/opt/ros/indigo', 'LD_LIBRARY_PATH': '/catkin_ws/devel/lib:/catkin_ws/devel/lib/x86_64-linux-gnu:/opt/ros/indigo/lib/x86_64-linux-gnu:/opt/ros/indigo/lib', 'SSH_AGENT_PID': '1741', 'LANG': 'en_HK.UTF-8', 'TERM': 'screen', 'SHELL': '/bin/bash', 'XDG_SESSION_PATH': '/org/freedesktop/DisplayManager/Session0', 'XAUTHORITY': '/home/hr/.Xauthority', 'LANGUAGE': 'en_HK:en', 'SESSION_MANAGER': 'local/hr2:@/tmp/.ICE-unix/1796,unix/hr2:/tmp/.ICE-unix/1796', 'SHLVL': '2', 'ROS_TEST_RESULTS_DIR': '/catkin_ws/build/test_results', 'QT_QPA_PLATFORMTHEME': 'appmenu-qt5', 'JOB': 'dbus', 'TEXTDOMAIN': 'im-config', 'QT4_IM_MODULE': 'xim', 'CLUTTER_IM_MODULE': 'xim', 'WINDOWID': '79718273', 'SESSIONTYPE': 'gnome-session', 'XMODIFIERS': '@im=ibus', 'ROS_ETC_DIR': '/opt/ros/indigo/etc/ros', 'GPG_AGENT_INFO': '/run/user/1000/keyring-D1bbBV/gpg:0:1', 'HOME': '/home/hr', 'SELINUX_INIT': 'YES', 'XDG_RUNTIME_DIR': '/run/user/1000', 'CATKIN_TEST_RESULTS_DIR': '/catkin_ws/build/test_results', 'PYTHONPATH': '/catkin_ws/devel/lib/python2.7/dist-packages:/opt/ros/indigo/lib/python2.7/dist-packages', 'COMPIZ_CONFIG_PROFILE': 'ubuntu', 'SSH_AUTH_SOCK': '/run/user/1000/keyring-D1bbBV/ssh', 'VTE_VERSION': '3409', 'TMUX': '/tmp/tmux-1000/default,8835,0', 'ROS_ROOT': '/opt/ros/indigo/share/ros', 'GDMSESSION': 'ubuntu', 'IM_CONFIG_PHASE': '1', 'TEXTDOMAINDIR': '/usr/share/locale/', 'XDG_SEAT_PATH': '/org/freedesktop/DisplayManager/Seat0', 'ROS_PACKAGE_PATH': '/catkin_ws/src:/opt/ros/indigo/share:/opt/ros/indigo/stacks', 'XDG_SESSION_ID': 'c1', 'DBUS_SESSION_BUS_ADDRESS': 'unix:abstract=/tmp/dbus-iPZQHVPiEP', '_': '/opt/ros/indigo/bin/roslaunch', 'DEFAULTS_PATH': '/usr/share/gconf/ubuntu.default.path', 'SESSION': 'ubuntu', 'DESKTOP_SESSION': 'ubuntu', 'UPSTART_SESSION': 'unix:abstract=/com/ubuntu/upstart-session/1000/1667', 'XDG_CONFIG_DIRS': '/etc/xdg/xdg-ubuntu:/usr/share/upstart/xdg:/etc/xdg', 'GTK_MODULES': 'overlay-scrollbar:unity-gtk-module', 'UBUNTU_MENUPROXY': '1', 'GDM_LANG': 'en_US', 'XDG_DATA_DIRS': '/usr/share/ubuntu:/usr/share/gnome:/usr/local/share/:/usr/share/', 'PWD': '/home/hr', 'QT_IM_MODULE': 'ibus', 'ROS_MASTER_URI': 'http://localhost:11311', 'SSH_AGENT_LAUNCHER': 'upstart', 'COLORTERM': 'gnome-terminal', 'DISPLAY': ':0.0', 'XDG_MENU_PREFIX': 'gnome-', 'TMUX_PANE': '%2', 'XDG_SEAT': 'seat0'}
[roslaunch][INFO] 2015-02-08 09:29:47,054: starting in server mode
[roslaunch.parent][INFO] 2015-02-08 09:29:47,054: starting roslaunch parent run
[roslaunch][INFO] 2015-02-08 09:29:47,054: loading roscore config file /opt/ros/indigo/etc/ros/roscore.xml
[roslaunch][INFO] 2015-02-08 09:29:47,325: Added core node of type [rosout/rosout] in namespace [/]
[roslaunch.config][INFO] 2015-02-08 09:29:47,325: loading config file /opt/ros/indigo/share/rosbridge_server/launch/rosbridge_websocket.launch
[roslaunch][INFO] 2015-02-08 09:29:47,327: Added node of type [rosbridge_server/rosbridge_websocket] in namespace [/]
[roslaunch][INFO] 2015-02-08 09:29:47,327: Added node of type [rosapi/rosapi] in namespace [/]
[roslaunch][INFO] 2015-02-08 09:29:47,328: ... selected machine [] for node of type [rosbridge_server/rosbridge_websocket]
[roslaunch][INFO] 2015-02-08 09:29:47,328: ... selected machine [] for node of type [rosapi/rosapi]
[roslaunch.pmon][INFO] 2015-02-08 09:29:47,329: start_process_monitor: creating ProcessMonitor
[roslaunch.pmon][INFO] 2015-02-08 09:29:47,329: created process monitor <ProcessMonitor(ProcessMonitor-1, initial daemon)>
[roslaunch.pmon][INFO] 2015-02-08 09:29:47,329: start_process_monitor: ProcessMonitor started
[roslaunch.parent][INFO] 2015-02-08 09:29:47,329: starting parent XML-RPC server
[roslaunch.server][INFO] 2015-02-08 09:29:47,329: starting roslaunch XML-RPC server
[roslaunch.server][INFO] 2015-02-08 09:29:47,330: waiting for roslaunch XML-RPC server to initialize
[xmlrpc][INFO] 2015-02-08 09:29:47,330: XML-RPC server binding to 0.0.0.0:0
[xmlrpc][INFO] 2015-02-08 09:29:47,330: Started XML-RPC server [http://hr2:37803/]
[xmlrpc][INFO] 2015-02-08 09:29:47,330: xml rpc node: starting XML-RPC server
[roslaunch][INFO] 2015-02-08 09:29:47,341: started roslaunch server http://hr2:37803/
[roslaunch.parent][INFO] 2015-02-08 09:29:47,342: ... parent XML-RPC server started
[roslaunch][INFO] 2015-02-08 09:29:47,343: master.is_running[http://localhost:11311]
[roslaunch][INFO] 2015-02-08 09:29:47,344: master.is_running[http://localhost:11311]
[roslaunch][INFO] 2015-02-08 09:29:47,345: ROS_MASTER_URI=http://localhost:11311
[roslaunch][INFO] 2015-02-08 09:29:47,347: setting /roslaunch/uris/host_hr2__37803' to http://hr2:37803/
[roslaunch][INFO] 2015-02-08 09:29:47,350: load_parameters starting ...
[roslaunch][INFO] 2015-02-08 09:29:47,354: ... load_parameters complete
[roslaunch][INFO] 2015-02-08 09:29:47,354: launch_nodes: launching local nodes ...
[roslaunch][INFO] 2015-02-08 09:29:47,354: ... preparing to launch node of type [rosbridge_server/rosbridge_websocket]
[roslaunch][INFO] 2015-02-08 09:29:47,355: create_node_process: package[rosbridge_server] type[rosbridge_websocket] machine[Machine(name[] env_loader[None] address[localhost] ssh_port[22] user[None] assignable[True] timeout[10.0])] master_uri[http://localhost:11311]
[roslaunch][INFO] 2015-02-08 09:29:47,355: process[rosbridge_websocket-1]: env[{'WINDOWID': '79718273', 'QT_QPA_PLATFORMTHEME': 'appmenu-qt5', 'ROS_DISTRO': 'indigo', 'XDG_GREETER_DATA_DIR': '/var/lib/lightdm-data/hr', 'GNOME_DESKTOP_SESSION_ID': 'this-is-deprecated', 'XDG_CURRENT_DESKTOP': 'Unity', 'XDG_SEAT_PATH': '/org/freedesktop/DisplayManager/Seat0', 'ROSLISP_PACKAGE_DIRECTORIES': '/catkin_ws/devel/share/common-lisp', 'CPATH': '/catkin_ws/devel/include:/opt/ros/indigo/include', 'LOGNAME': 'hr', 'USER': 'hr', 'PATH': '/catkin_ws/devel/bin:/opt/ros/indigo/bin:/usr/local/sbin:/usr/local/bin:/usr/sbin:/usr/bin:/sbin:/bin:/usr/games:/usr/local/games', 'XDG_VTNR': '7', 'GNOME_KEYRING_CONTROL': '/run/user/1000/keyring-D1bbBV', 'CMAKE_PREFIX_PATH': '/catkin_ws/devel:/opt/ros/indigo', 'LD_LIBRARY_PATH': '/catkin_ws/devel/lib:/catkin_ws/devel/lib/x86_64-linux-gnu:/opt/ros/indigo/lib/x86_64-linux-gnu:/opt/ros/indigo/lib', 'SSH_AGENT_PID': '1741', 'LANG': 'en_HK.UTF-8', 'TERM': 'screen', 'SHELL': '/bin/bash', 'XDG_SESSION_PATH': '/org/freedesktop/DisplayManager/Session0', 'XAUTHORITY': '/home/hr/.Xauthority', 'LANGUAGE': 'en_HK:en', 'SESSION_MANAGER': 'local/hr2:@/tmp/.ICE-unix/1796,unix/hr2:/tmp/.ICE-unix/1796', 'SHLVL': '2', 'XDG_SESSION_ID': 'c1', 'MANDATORY_PATH': '/usr/share/gconf/ubuntu.mandatory.path', 'CLUTTER_IM_MODULE': 'xim', 'ROS_LOG_FILENAME': '/home/hr/.ros/log/9cb2c714-af6c-11e4-9454-dc85debf707f/roslaunch-hr2-9308.log', 'QT4_IM_MODULE': 'xim', 'JOB': 'dbus', 'TEXTDOMAIN': 'im-config', 'SESSIONTYPE': 'gnome-session', 'XMODIFIERS': '@im=ibus', 'ROS_MASTER_URI': 'http://localhost:11311', 'GPG_AGENT_INFO': '/run/user/1000/keyring-D1bbBV/gpg:0:1', 'HOME': '/home/hr', 'SELINUX_INIT': 'YES', 'XDG_RUNTIME_DIR': '/run/user/1000', 'CATKIN_TEST_RESULTS_DIR': '/catkin_ws/build/test_results', 'PYTHONPATH': '/catkin_ws/devel/lib/python2.7/dist-packages:/opt/ros/indigo/lib/python2.7/dist-packages', 'COMPIZ_CONFIG_PROFILE': 'ubuntu', 'SSH_AUTH_SOCK': '/run/user/1000/keyring-D1bbBV/ssh', 'SESSION': 'ubuntu', 'VTE_VERSION': '3409', 'TMUX': '/tmp/tmux-1000/default,8835,0', 'ROS_ROOT': '/opt/ros/indigo/share/ros', 'GDMSESSION': 'ubuntu', 'IM_CONFIG_PHASE': '1', 'TEXTDOMAINDIR': '/usr/share/locale/', 'XDG_DATA_DIRS': '/usr/share/ubuntu:/usr/share/gnome:/usr/local/share/:/usr/share/', 'PKG_CONFIG_PATH': '/catkin_ws/devel/lib/pkgconfig:/catkin_ws/devel/lib/x86_64-linux-gnu/pkgconfig:/opt/ros/indigo/lib/x86_64-linux-gnu/pkgconfig:/opt/ros/indigo/lib/pkgconfig', 'ROS_PACKAGE_PATH': '/catkin_ws/src:/opt/ros/indigo/share:/opt/ros/indigo/stacks', 'ROS_TEST_RESULTS_DIR': '/catkin_ws/build/test_results', 'DBUS_SESSION_BUS_ADDRESS': 'unix:abstract=/tmp/dbus-iPZQHVPiEP', '_': '/opt/ros/indigo/bin/roslaunch', 'GTK_MODULES': 'overlay-scrollbar:unity-gtk-module', 'GTK_IM_MODULE': 'ibus', 'DESKTOP_SESSION': 'ubuntu', 'UPSTART_SESSION': 'unix:abstract=/com/ubuntu/upstart-session/1000/1667', 'XDG_CONFIG_DIRS': '/etc/xdg/xdg-ubuntu:/usr/share/upstart/xdg:/etc/xdg', 'DEFAULTS_PATH': '/usr/share/gconf/ubuntu.default.path', 'UBUNTU_MENUPROXY': '1', 'GDM_LANG': 'en_US', 'INSTANCE': '', 'PWD': '/home/hr', 'QT_IM_MODULE': 'ibus', 'ROS_ETC_DIR': '/opt/ros/indigo/etc/ros', 'SSH_AGENT_LAUNCHER': 'upstart', 'COLORTERM': 'gnome-terminal', 'DISPLAY': ':0.0', 'XDG_MENU_PREFIX': 'gnome-', 'TMUX_PANE': '%2', 'XDG_SEAT': 'seat0'}]
[roslaunch][INFO] 2015-02-08 09:29:47,420: process[rosbridge_websocket-1]: args[[u'/opt/ros/indigo/lib/rosbridge_server/rosbridge_websocket', u'__name:=rosbridge_websocket']]
[roslaunch][INFO] 2015-02-08 09:29:47,421: ... created process [rosbridge_websocket-1]
[roslaunch.pmon][INFO] 2015-02-08 09:29:47,421: ProcessMonitor.register[rosbridge_websocket-1]
[roslaunch.pmon][INFO] 2015-02-08 09:29:47,421: ProcessMonitor.register[rosbridge_websocket-1] complete
[roslaunch][INFO] 2015-02-08 09:29:47,421: ... registered process [rosbridge_websocket-1]
[roslaunch][INFO] 2015-02-08 09:29:47,421: process[rosbridge_websocket-1]: starting os process
[roslaunch][INFO] 2015-02-08 09:29:47,421: process[rosbridge_websocket-1]: start w/ args [[u'/opt/ros/indigo/lib/rosbridge_server/rosbridge_websocket', u'__name:=rosbridge_websocket', u'__log:=/home/hr/.ros/log/9cb2c714-af6c-11e4-9454-dc85debf707f/rosbridge_websocket-1.log']]
[roslaunch][INFO] 2015-02-08 09:29:47,421: process[rosbridge_websocket-1]: cwd will be [/home/hr/.ros]
[roslaunch][INFO] 2015-02-08 09:29:47,424: process[rosbridge_websocket-1]: started with pid [9451]
[roslaunch][INFO] 2015-02-08 09:29:47,425: ... successfully launched [rosbridge_websocket-1]
[roslaunch][INFO] 2015-02-08 09:29:47,425: ... preparing to launch node of type [rosapi/rosapi]
[roslaunch][INFO] 2015-02-08 09:29:47,425: create_node_process: package[rosapi] type[rosapi] machine[Machine(name[] env_loader[None] address[localhost] ssh_port[22] user[None] assignable[True] timeout[10.0])] master_uri[http://localhost:11311]
[roslaunch][INFO] 2015-02-08 09:29:47,425: process[rosapi-2]: env[{'WINDOWID': '79718273', 'QT_QPA_PLATFORMTHEME': 'appmenu-qt5', 'ROS_DISTRO': 'indigo', 'XDG_GREETER_DATA_DIR': '/var/lib/lightdm-data/hr', 'GNOME_DESKTOP_SESSION_ID': 'this-is-deprecated', 'XDG_CURRENT_DESKTOP': 'Unity', 'XDG_SEAT_PATH': '/org/freedesktop/DisplayManager/Seat0', 'ROSLISP_PACKAGE_DIRECTORIES': '/catkin_ws/devel/share/common-lisp', 'CPATH': '/catkin_ws/devel/include:/opt/ros/indigo/include', 'LOGNAME': 'hr', 'USER': 'hr', 'PATH': '/catkin_ws/devel/bin:/opt/ros/indigo/bin:/usr/local/sbin:/usr/local/bin:/usr/sbin:/usr/bin:/sbin:/bin:/usr/games:/usr/local/games', 'XDG_VTNR': '7', 'GNOME_KEYRING_CONTROL': '/run/user/1000/keyring-D1bbBV', 'CMAKE_PREFIX_PATH': '/catkin_ws/devel:/opt/ros/indigo', 'LD_LIBRARY_PATH': '/catkin_ws/devel/lib:/catkin_ws/devel/lib/x86_64-linux-gnu:/opt/ros/indigo/lib/x86_64-linux-gnu:/opt/ros/indigo/lib', 'SSH_AGENT_PID': '1741', 'LANG': 'en_HK.UTF-8', 'TERM': 'screen', 'SHELL': '/bin/bash', 'XDG_SESSION_PATH': '/org/freedesktop/DisplayManager/Session0', 'XAUTHORITY': '/home/hr/.Xauthority', 'LANGUAGE': 'en_HK:en', 'SESSION_MANAGER': 'local/hr2:@/tmp/.ICE-unix/1796,unix/hr2:/tmp/.ICE-unix/1796', 'SHLVL': '2', 'XDG_SESSION_ID': 'c1', 'MANDATORY_PATH': '/usr/share/gconf/ubuntu.mandatory.path', 'CLUTTER_IM_MODULE': 'xim', 'ROS_LOG_FILENAME': '/home/hr/.ros/log/9cb2c714-af6c-11e4-9454-dc85debf707f/roslaunch-hr2-9308.log', 'QT4_IM_MODULE': 'xim', 'JOB': 'dbus', 'TEXTDOMAIN': 'im-config', 'SESSIONTYPE': 'gnome-session', 'XMODIFIERS': '@im=ibus', 'ROS_MASTER_URI': 'http://localhost:11311', 'GPG_AGENT_INFO': '/run/user/1000/keyring-D1bbBV/gpg:0:1', 'HOME': '/home/hr', 'SELINUX_INIT': 'YES', 'XDG_RUNTIME_DIR': '/run/user/1000', 'CATKIN_TEST_RESULTS_DIR': '/catkin_ws/build/test_results', 'PYTHONPATH': '/catkin_ws/devel/lib/python2.7/dist-packages:/opt/ros/indigo/lib/python2.7/dist-packages', 'COMPIZ_CONFIG_PROFILE': 'ubuntu', 'SSH_AUTH_SOCK': '/run/user/1000/keyring-D1bbBV/ssh', 'SESSION': 'ubuntu', 'VTE_VERSION': '3409', 'TMUX': '/tmp/tmux-1000/default,8835,0', 'ROS_ROOT': '/opt/ros/indigo/share/ros', 'GDMSESSION': 'ubuntu', 'IM_CONFIG_PHASE': '1', 'TEXTDOMAINDIR': '/usr/share/locale/', 'XDG_DATA_DIRS': '/usr/share/ubuntu:/usr/share/gnome:/usr/local/share/:/usr/share/', 'PKG_CONFIG_PATH': '/catkin_ws/devel/lib/pkgconfig:/catkin_ws/devel/lib/x86_64-linux-gnu/pkgconfig:/opt/ros/indigo/lib/x86_64-linux-gnu/pkgconfig:/opt/ros/indigo/lib/pkgconfig', 'ROS_PACKAGE_PATH': '/catkin_ws/src:/opt/ros/indigo/share:/opt/ros/indigo/stacks', 'ROS_TEST_RESULTS_DIR': '/catkin_ws/build/test_results', 'DBUS_SESSION_BUS_ADDRESS': 'unix:abstract=/tmp/dbus-iPZQHVPiEP', '_': '/opt/ros/indigo/bin/roslaunch', 'GTK_MODULES': 'overlay-scrollbar:unity-gtk-module', 'GTK_IM_MODULE': 'ibus', 'DESKTOP_SESSION': 'ubuntu', 'UPSTART_SESSION': 'unix:abstract=/com/ubuntu/upstart-session/1000/1667', 'XDG_CONFIG_DIRS': '/etc/xdg/xdg-ubuntu:/usr/share/upstart/xdg:/etc/xdg', 'DEFAULTS_PATH': '/usr/share/gconf/ubuntu.default.path', 'UBUNTU_MENUPROXY': '1', 'GDM_LANG': 'en_US', 'INSTANCE': '', 'PWD': '/home/hr', 'QT_IM_MODULE': 'ibus', 'ROS_ETC_DIR': '/opt/ros/indigo/etc/ros', 'SSH_AGENT_LAUNCHER': 'upstart', 'COLORTERM': 'gnome-terminal', 'DISPLAY': ':0.0', 'XDG_MENU_PREFIX': 'gnome-', 'TMUX_PANE': '%2', 'XDG_SEAT': 'seat0'}]
[roslaunch][INFO] 2015-02-08 09:29:47,492: process[rosapi-2]: args[[u'/opt/ros/indigo/lib/rosapi/rosapi', u'__name:=rosapi']]
[roslaunch][INFO] 2015-02-08 09:29:47,493: ... created process [rosapi-2]
[roslaunch.pmon][INFO] 2015-02-08 09:29:47,493: ProcessMonitor.register[rosapi-2]
[roslaunch.pmon][INFO] 2015-02-08 09:29:47,493: ProcessMonitor.register[rosapi-2] complete
[roslaunch][INFO] 2015-02-08 09:29:47,493: ... registered process [rosapi-2]
[roslaunch][INFO] 2015-02-08 09:29:47,493: process[rosapi-2]: starting os process
[roslaunch][INFO] 2015-02-08 09:29:47,493: process[rosapi-2]: start w/ args [[u'/opt/ros/indigo/lib/rosapi/rosapi', u'__name:=rosapi', u'__log:=/home/hr/.ros/log/9cb2c714-af6c-11e4-9454-dc85debf707f/rosapi-2.log']]
[roslaunch][INFO] 2015-02-08 09:29:47,493: process[rosapi-2]: cwd will be [/home/hr/.ros]
[roslaunch][INFO] 2015-02-08 09:29:47,501: process[rosapi-2]: started with pid [9469]
[roslaunch][INFO] 2015-02-08 09:29:47,502: ... successfully launched [rosapi-2]
[roslaunch][INFO] 2015-02-08 09:29:47,502: ... launch_nodes complete
[roslaunch.pmon][INFO] 2015-02-08 09:29:47,502: registrations completed <ProcessMonitor(ProcessMonitor-1, started daemon 139991072610048)>
[roslaunch.parent][INFO] 2015-02-08 09:29:47,502: ... roslaunch parent running, waiting for process exit
[roslaunch][INFO] 2015-02-08 09:29:47,502: spin
[roslaunch.pmon][INFO] 2015-02-08 09:30:25,673: ProcessMonitor.shutdown <ProcessMonitor(ProcessMonitor-1, started daemon 139991072610048)>
[roslaunch.pmon][INFO] 2015-02-08 09:30:25,689: ProcessMonitor._post_run <ProcessMonitor(ProcessMonitor-1, started daemon 139991072610048)>
[roslaunch.pmon][INFO] 2015-02-08 09:30:25,690: ProcessMonitor._post_run <ProcessMonitor(ProcessMonitor-1, started daemon 139991072610048)>: remaining procs are [<roslaunch.nodeprocess.LocalProcess object at 0x7f523680e2d0>, <roslaunch.nodeprocess.LocalProcess object at 0x7f52367aee50>]
[roslaunch.pmon][INFO] 2015-02-08 09:30:25,690: ProcessMonitor exit: killing rosapi-2
[roslaunch][INFO] 2015-02-08 09:30:25,690: [rosapi-2] killing on exit
[roslaunch][INFO] 2015-02-08 09:30:25,690: process[rosapi-2]: killing os process with pid[9469] pgid[9469]
[roslaunch][INFO] 2015-02-08 09:30:25,691: [rosapi-2] sending SIGINT to pgid [9469]
[roslaunch][INFO] 2015-02-08 09:30:25,691: [rosapi-2] sent SIGINT to pgid [9469]
[roslaunch.pmon][INFO] 2015-02-08 09:30:25,692: ProcessMonitor exit: killing rosbridge_websocket-1
[roslaunch][INFO] 2015-02-08 09:30:25,693: [rosbridge_websocket-1] killing on exit
[roslaunch][INFO] 2015-02-08 09:30:25,696: process[rosbridge_websocket-1]: killing os process with pid[9451] pgid[9451]
[roslaunch][INFO] 2015-02-08 09:30:25,696: [rosbridge_websocket-1] sending SIGINT to pgid [9451]
[roslaunch][INFO] 2015-02-08 09:30:25,697: [rosbridge_websocket-1] sent SIGINT to pgid [9451]
[roslaunch][INFO] 2015-02-08 09:30:25,799: process[rosbridge_websocket-1]: SIGINT killed with return value -2
[roslaunch][INFO] 2015-02-08 09:30:25,892: process[rosapi-2]: SIGINT killed with return value 0
[roslaunch.pmon][INFO] 2015-02-08 09:30:25,892: ProcessMonitor exit: cleaning up data structures and signals
[roslaunch.pmon][INFO] 2015-02-08 09:30:25,892: ProcessMonitor exit: pmon has shutdown
[roslaunch][INFO] 2015-02-08 09:30:25,937: process monitor is done spinning, initiating full shutdown
[roslaunch][INFO] 2015-02-08 09:30:25,937: runner.stop()
[roslaunch][INFO] 2015-02-08 09:30:25,937: shutting down processing monitor...
[roslaunch][INFO] 2015-02-08 09:30:25,937: shutting down processing monitor <ProcessMonitor(ProcessMonitor-1, stopped daemon 139991072610048)>
[roslaunch.pmon][INFO] 2015-02-08 09:30:25,937: ProcessMonitor.shutdown <ProcessMonitor(ProcessMonitor-1, stopped daemon 139991072610048)>
[roslaunch][INFO] 2015-02-08 09:30:25,937: ... shutting down processing monitor complete
[roslaunch][INFO] 2015-02-08 09:30:25,937: done
[roslaunch.pmon][INFO] 2015-02-08 09:30:25,938: ProcessMonitor.shutdown <ProcessMonitor(ProcessMonitor-1, stopped daemon 139991072610048)>
[rospy.core][INFO] 2015-02-08 09:30:25,938: signal_shutdown [atexit]
