[rospy.client][INFO] 2015-03-05 09:20:40,103: init_node, name[/han/pau2motors], pid[26984]
[xmlrpc][INFO] 2015-03-05 09:20:40,103: XML-RPC server binding to 0.0.0.0:0
[xmlrpc][INFO] 2015-03-05 09:20:40,104: Started XML-RPC server [http://hr2:47519/]
[rospy.init][INFO] 2015-03-05 09:20:40,104: ROS Slave URI: [http://hr2:47519/]
[rospy.impl.masterslave][INFO] 2015-03-05 09:20:40,104: _ready: http://hr2:47519/
[rospy.registration][INFO] 2015-03-05 09:20:40,104: Registering with master node http://localhost:11311
[xmlrpc][INFO] 2015-03-05 09:20:40,104: xml rpc node: starting XML-RPC server
[rospy.init][INFO] 2015-03-05 09:20:40,204: registered with master
[rospy.rosout][INFO] 2015-03-05 09:20:40,204: initializing /rosout core topic
[rospy.rosout][INFO] 2015-03-05 09:20:40,206: connected to core topic /rosout
[rospy.simtime][INFO] 2015-03-05 09:20:40,206: /use_sim_time is not set, will not subscribe to simulated time [/clock] topic
[rosout][INFO] 2015-03-05 09:20:40,248: Loaded '/han/pau2motors' from param server.
[rosout][INFO] 2015-03-05 09:20:40,256: Started
[rospy.internal][INFO] 2015-03-05 09:20:40,401: topic[/han/base_controller/command] adding connection to [/han/dynamixel_manager], count 0
[rospy.internal][INFO] 2015-03-05 09:20:40,413: topic[/han/base_right_controller/command] adding connection to [/han/dynamixel_manager], count 0
[rospy.internal][INFO] 2015-03-05 09:20:40,422: topic[/rosout] adding connection to [/rosout], count 0
[rospy.internal][INFO] 2015-03-05 09:20:40,425: topic[/han/right/command] adding connection to [/han/right_pololu_node], count 0
[rospy.internal][INFO] 2015-03-05 09:20:40,425: topic[/han/left/command] adding connection to [/han/left_pololu_node], count 0
[rospy.internal][INFO] 2015-03-05 09:20:40,427: topic[/han/middle/command] adding connection to [/han/middle_pololu_node], count 0
[rospy.internal][INFO] 2015-03-05 09:20:40,434: topic[/han/no_pau] adding connection to [http://hr2:38351/], count 0
[rospy.internal][INFO] 2015-03-05 09:20:40,490: topic[/han/base_left_controller/command] adding connection to [/han/dynamixel_manager], count 0
[rospy.internal][INFO] 2015-03-05 09:20:40,500: topic[/han/neck_right_controller/command] adding connection to [/han/dynamixel_manager], count 0
[rospy.internal][INFO] 2015-03-05 09:20:40,618: topic[/han/neck_left_controller/command] adding connection to [/han/dynamixel_manager], count 0
[rospy.internal][INFO] 2015-03-05 09:20:50,301: topic[/han/head_pau] adding connection to [http://hr2:50210/], count 0
[rospy.internal][INFO] 2015-03-05 09:20:50,302: topic[/han/neck_pau] adding connection to [http://hr2:44342/], count 0
[rospy.internal][INFO] 2015-03-05 09:21:15,978: topic[/han/lips_pau] adding connection to [http://hr2:39836/], count 0
[rospy.internal][WARNING] 2015-03-05 10:00:05,486: Unknown error initiating TCP/IP socket to hr2:37342 (http://hr2:38351/): Traceback (most recent call last):
  File "/opt/ros/indigo/lib/python2.7/dist-packages/rospy/impl/tcpros_base.py", line 557, in connect
    self.read_header()
  File "/opt/ros/indigo/lib/python2.7/dist-packages/rospy/impl/tcpros_base.py", line 618, in read_header
    self._validate_header(read_ros_handshake_header(sock, self.read_buff, self.protocol.buff_size))
  File "/opt/ros/indigo/lib/python2.7/dist-packages/rosgraph/network.py", line 360, in read_ros_handshake_header
    d = sock.recv(buff_size)
error: [Errno 104] Connection reset by peer

[rospy.internal][INFO] 2015-03-05 10:00:05,486: topic[/han/no_pau] removing connection to http://hr2:38351/
[rospy.core][INFO] 2015-03-05 10:00:05,670: signal_shutdown [signal-2]
[rospy.registration][WARNING] 2015-03-05 10:00:05,675: cannot unregister with master due to network issues
[rospy.internal][INFO] 2015-03-05 10:00:05,675: topic[/han/base_left_controller/command] removing connection to /han/dynamixel_manager
[rospy.internal][INFO] 2015-03-05 10:00:05,676: topic[/han/left/command] removing connection to /han/left_pololu_node
[rospy.internal][INFO] 2015-03-05 10:00:05,679: topic[/han/neck_right_controller/command] removing connection to /han/dynamixel_manager
[rospy.internal][INFO] 2015-03-05 10:00:05,679: topic[/han/base_right_controller/command] removing connection to /han/dynamixel_manager
[rospy.internal][INFO] 2015-03-05 10:00:05,679: topic[/han/middle/command] removing connection to /han/middle_pololu_node
[rospy.internal][INFO] 2015-03-05 10:00:05,679: topic[/rosout] removing connection to /rosout
[rospy.internal][INFO] 2015-03-05 10:00:05,679: topic[/han/neck_left_controller/command] removing connection to /han/dynamixel_manager
[rospy.internal][INFO] 2015-03-05 10:00:05,679: topic[/han/base_controller/command] removing connection to /han/dynamixel_manager
[rospy.internal][INFO] 2015-03-05 10:00:05,679: topic[/han/right/command] removing connection to /han/right_pololu_node
[rospy.internal][WARNING] 2015-03-05 10:00:05,680: Unknown error initiating TCP/IP socket to hr2:43026 (http://hr2:44342/): Traceback (most recent call last):
  File "/opt/ros/indigo/lib/python2.7/dist-packages/rospy/impl/tcpros_base.py", line 558, in connect
    self.local_endpoint = self.socket.getsockname()
AttributeError: 'NoneType' object has no attribute 'getsockname'

[rospy.internal][INFO] 2015-03-05 10:00:05,680: topic[/han/neck_pau] removing connection to http://hr2:44342/
[rospy.internal][INFO] 2015-03-05 10:00:05,680: topic[/han/head_pau] removing connection to http://hr2:50210/
[rospy.internal][INFO] 2015-03-05 10:00:05,681: topic[/han/lips_pau] removing connection to http://hr2:39836/
[rospy.impl.masterslave][INFO] 2015-03-05 10:00:05,681: signal-2
[rospy.internal][WARNING] 2015-03-05 10:00:05,773: Unknown error initiating TCP/IP socket to hr2:41118 (http://hr2:39836/): Traceback (most recent call last):
  File "/opt/ros/indigo/lib/python2.7/dist-packages/rospy/impl/tcpros_base.py", line 557, in connect
    self.read_header()
  File "/opt/ros/indigo/lib/python2.7/dist-packages/rospy/impl/tcpros_base.py", line 618, in read_header
    self._validate_header(read_ros_handshake_header(sock, self.read_buff, self.protocol.buff_size))
  File "/opt/ros/indigo/lib/python2.7/dist-packages/rosgraph/network.py", line 360, in read_ros_handshake_header
    d = sock.recv(buff_size)
error: [Errno 104] Connection reset by peer

[rospy.core][INFO] 2015-03-05 10:00:05,813: signal_shutdown [atexit]
