[rospy.client][INFO] 2015-02-27 16:07:18,637: init_node, name[/faces_broadcaster], pid[28691]
[xmlrpc][INFO] 2015-02-27 16:07:18,637: XML-RPC server binding to 0.0.0.0:0
[xmlrpc][INFO] 2015-02-27 16:07:18,637: Started XML-RPC server [http://hr2:56063/]
[rospy.impl.masterslave][INFO] 2015-02-27 16:07:18,638: _ready: http://hr2:56063/
[rospy.init][INFO] 2015-02-27 16:07:18,638: ROS Slave URI: [http://hr2:56063/]
[xmlrpc][INFO] 2015-02-27 16:07:18,649: xml rpc node: starting XML-RPC server
[rospy.registration][INFO] 2015-02-27 16:07:18,651: Registering with master node http://localhost:11311
[rospy.init][INFO] 2015-02-27 16:07:18,738: registered with master
[rospy.rosout][INFO] 2015-02-27 16:07:18,738: initializing /rosout core topic
[rospy.rosout][INFO] 2015-02-27 16:07:18,741: connected to core topic /rosout
[rospy.simtime][INFO] 2015-02-27 16:07:18,746: /use_sim_time is not set, will not subscribe to simulated time [/clock] topic
[rospy.internal][INFO] 2015-02-27 16:07:18,807: topic[/tf] adding connection to [http://hr2:57247/], count 0
[rospy.internal][INFO] 2015-02-27 16:07:18,817: topic[/tf] adding connection to [http://hr2:56063/], count 1
[rospy.internal][INFO] 2015-02-27 16:07:18,821: topic[/tf] adding connection to [/faces_broadcaster], count 0
[rospy.internal][INFO] 2015-02-27 16:07:18,963: topic[/rosout] adding connection to [/rosout], count 0
[rospy.internal][INFO] 2015-02-27 16:07:19,064: topic[/tf] adding connection to [/rviz], count 1
[rospy.internal][INFO] 2015-02-27 16:07:19,186: topic[/camera/face_locations] adding connection to [http://hr2:46980/], count 0
[rospy.internal][INFO] 2015-02-27 16:07:25,289: topic[/tf] adding connection to [/Eva_Behavior], count 2
[rospy.core][INFO] 2015-02-27 17:11:28,348: signal_shutdown [signal-2]
[rospy.internal][INFO] 2015-02-27 17:11:28,368: topic[/rosout] removing connection to /rosout
[rospy.internal][INFO] 2015-02-27 17:11:28,368: topic[/tf] removing connection to /faces_broadcaster
[rospy.internal][ERROR] 2015-02-27 17:11:28,369: Unable to initiate TCP/IP socket to hr2:44113 (http://hr2:56063/): Traceback (most recent call last):
  File "/opt/ros/indigo/lib/python2.7/dist-packages/rospy/impl/tcpros_base.py", line 557, in connect
    self.read_header()
  File "/opt/ros/indigo/lib/python2.7/dist-packages/rospy/impl/tcpros_base.py", line 618, in read_header
    self._validate_header(read_ros_handshake_header(sock, self.read_buff, self.protocol.buff_size))
  File "/opt/ros/indigo/lib/python2.7/dist-packages/rospy/impl/tcpros_base.py", line 580, in _validate_header
    raise TransportInitError("remote error reported: %s"%header['error'])
TransportInitError: remote error reported: node shutting down

[rospy.internal][INFO] 2015-02-27 17:11:28,369: topic[/tf] removing connection to /rviz
[rospy.internal][INFO] 2015-02-27 17:11:28,369: topic[/tf] removing connection to /Eva_Behavior
[rospy.internal][INFO] 2015-02-27 17:11:28,369: topic[/camera/face_locations] removing connection to http://hr2:46980/
[rospy.internal][INFO] 2015-02-27 17:11:28,369: topic[/tf] removing connection to http://hr2:57247/
[rospy.internal][INFO] 2015-02-27 17:11:28,369: topic[/tf] removing connection to http://hr2:56063/
[rospy.impl.masterslave][INFO] 2015-02-27 17:11:28,370: signal-2
[rospy.core][INFO] 2015-02-27 17:11:28,984: signal_shutdown [atexit]
