[rospy.client][INFO] 2015-02-13 07:20:00,654: init_node, name[/fritz/neck_controller_spawner], pid[3275]
[xmlrpc][INFO] 2015-02-13 07:20:00,654: XML-RPC server binding to 0.0.0.0:0
[xmlrpc][INFO] 2015-02-13 07:20:00,655: Started XML-RPC server [http://hr2:37757/]
[rospy.init][INFO] 2015-02-13 07:20:00,655: ROS Slave URI: [http://hr2:37757/]
[rospy.impl.masterslave][INFO] 2015-02-13 07:20:00,655: _ready: http://hr2:37757/
[xmlrpc][INFO] 2015-02-13 07:20:00,655: xml rpc node: starting XML-RPC server
[rospy.registration][INFO] 2015-02-13 07:20:00,656: Registering with master node http://localhost:11311
[rospy.init][INFO] 2015-02-13 07:20:00,755: registered with master
[rospy.rosout][INFO] 2015-02-13 07:20:00,755: initializing /rosout core topic
[rospy.rosout][INFO] 2015-02-13 07:20:00,757: connected to core topic /rosout
[rospy.simtime][INFO] 2015-02-13 07:20:00,758: /use_sim_time is not set, will not subscribe to simulated time [/clock] topic
[rosout][INFO] 2015-02-13 07:20:00,760: pan_tilt_port controller_spawner: waiting for controller_manager dxl_manager to startup in /fritz/ namespace...
[rospy.internal][INFO] 2015-02-13 07:20:01,069: topic[/rosout] adding connection to [/rosout], count 0
[rosout][INFO] 2015-02-13 07:20:01,667: pan_tilt_port controller_spawner: All services are up, spawning controllers...
[rosout][INFO] 2015-02-13 07:20:01,722: Controller base_controller successfully started.
[rosout][INFO] 2015-02-13 07:20:01,754: Controller base_right_controller successfully started.
[rosout][INFO] 2015-02-13 07:20:01,783: Controller base_left_controller successfully started.
[rosout][INFO] 2015-02-13 07:20:01,811: Controller neck_right_controller successfully started.
[rosout][INFO] 2015-02-13 07:20:01,842: Controller neck_left_controller successfully started.
[rospy.core][INFO] 2015-02-13 07:20:01,842: signal_shutdown [atexit]
[rospy.internal][INFO] 2015-02-13 07:20:01,844: topic[/rosout] removing connection to /rosout
[rospy.impl.masterslave][INFO] 2015-02-13 07:20:01,844: atexit
