[rospy.client][INFO] 2015-03-03 15:54:45,499: init_node, name[/han/dynamixel_manager], pid[14290]
[xmlrpc][INFO] 2015-03-03 15:54:45,500: XML-RPC server binding to 0.0.0.0:0
[xmlrpc][INFO] 2015-03-03 15:54:45,500: Started XML-RPC server [http://hr2:41944/]
[rospy.init][INFO] 2015-03-03 15:54:45,500: ROS Slave URI: [http://hr2:41944/]
[rospy.impl.masterslave][INFO] 2015-03-03 15:54:45,500: _ready: http://hr2:41944/
[xmlrpc][INFO] 2015-03-03 15:54:45,500: xml rpc node: starting XML-RPC server
[rospy.registration][INFO] 2015-03-03 15:54:45,501: Registering with master node http://localhost:11311
[rospy.init][INFO] 2015-03-03 15:54:45,600: registered with master
[rospy.rosout][INFO] 2015-03-03 15:54:45,600: initializing /rosout core topic
[rospy.rosout][INFO] 2015-03-03 15:54:45,602: connected to core topic /rosout
[rospy.simtime][INFO] 2015-03-03 15:54:45,604: /use_sim_time is not set, will not subscribe to simulated time [/clock] topic
[rosout][INFO] 2015-03-03 15:54:45,617: pan_tilt_port: Pinging motor IDs 0 through 4...
[rosout][INFO] 2015-03-03 15:54:45,755: pan_tilt_port: Found 5 motors - 3 MX-106 [0, 1, 2], 2 MX-28 [3, 4], initialization complete.
[rospy.internal][INFO] 2015-03-03 15:54:45,791: topic[/rosout] adding connection to [/rosout], count 0
[rosout][INFO] 2015-03-03 15:54:45,863: Setting acceleration of 0 to 20
[rosout][INFO] 2015-03-03 15:54:45,902: Setting acceleration of 1 to 10
[rospy.internal][INFO] 2015-03-03 15:54:45,918: topic[/han/base_right_controller/command] adding connection to [http://hr2:57771/], count 0
[rospy.internal][INFO] 2015-03-03 15:54:45,919: topic[/han/base_right_controller/command] adding connection to [http://hr2:46380/], count 0
[rospy.internal][INFO] 2015-03-03 15:54:45,922: topic[/han/motor_states/pan_tilt_port] adding connection to [http://hr2:41944/], count 0
[rospy.internal][INFO] 2015-03-03 15:54:45,922: topic[/han/base_controller/command] adding connection to [http://hr2:57771/], count 0
[rospy.internal][INFO] 2015-03-03 15:54:45,923: topic[/han/base_controller/command] adding connection to [http://hr2:46380/], count 1
[rospy.internal][INFO] 2015-03-03 15:54:45,924: topic[/han/motor_states/pan_tilt_port] adding connection to [/han/dynamixel_manager], count 0
[rosout][INFO] 2015-03-03 15:54:45,960: Setting acceleration of 2 to 10
[rospy.internal][INFO] 2015-03-03 15:54:45,985: topic[/han/base_left_controller/command] adding connection to [http://hr2:57771/], count 0
[rospy.internal][INFO] 2015-03-03 15:54:45,987: topic[/han/base_left_controller/command] adding connection to [http://hr2:46380/], count 1
[rosout][INFO] 2015-03-03 15:54:46,003: Setting acceleration of 3 to 10
[rospy.internal][INFO] 2015-03-03 15:54:46,018: topic[/han/neck_right_controller/command] adding connection to [http://hr2:46380/], count 0
[rospy.internal][INFO] 2015-03-03 15:54:46,020: topic[/han/neck_right_controller/command] adding connection to [http://hr2:57771/], count 1
[rosout][INFO] 2015-03-03 15:54:46,076: Setting acceleration of 4 to 10
[rospy.internal][INFO] 2015-03-03 15:54:46,135: topic[/han/neck_left_controller/command] adding connection to [http://hr2:46380/], count 0
[rospy.internal][INFO] 2015-03-03 15:54:46,145: topic[/han/neck_left_controller/command] adding connection to [http://hr2:57771/], count 1
[rospy.internal][INFO] 2015-03-03 15:55:03,852: topic[/han/base_controller/command] adding connection to [http://hr2:55769/], count 2
[rospy.internal][INFO] 2015-03-03 15:55:03,980: topic[/han/base_right_controller/command] adding connection to [http://hr2:55769/], count 2
[rospy.internal][INFO] 2015-03-03 15:55:04,088: topic[/han/neck_left_controller/command] adding connection to [http://hr2:55769/], count 2
[rospy.internal][INFO] 2015-03-03 15:55:04,089: topic[/han/neck_right_controller/command] adding connection to [http://hr2:55769/], count 2
[rospy.internal][INFO] 2015-03-03 15:55:04,091: topic[/han/base_left_controller/command] adding connection to [http://hr2:55769/], count 2
[rospy.internal][ERROR] 2015-03-03 15:55:31,737: Unable to initiate TCP/IP socket to hr2:55906 (http://hr2:55769/): Traceback (most recent call last):
  File "/opt/ros/indigo/lib/python2.7/dist-packages/rospy/impl/tcpros_base.py", line 557, in connect
    self.read_header()
  File "/opt/ros/indigo/lib/python2.7/dist-packages/rospy/impl/tcpros_base.py", line 618, in read_header
    self._validate_header(read_ros_handshake_header(sock, self.read_buff, self.protocol.buff_size))
  File "/opt/ros/indigo/lib/python2.7/dist-packages/rospy/impl/tcpros_base.py", line 580, in _validate_header
    raise TransportInitError("remote error reported: %s"%header['error'])
TransportInitError: remote error reported: [/rosbridge_websocket_ssl] is not a publisher of [/han/neck_right_controller/command]. Topics are [['/han/base_left_controller/command', 'std_msgs/Float64'], ['/han/base_right_controller/command', 'std_msgs/Float64'], ['/han/point_head', 'basic_head_api/PointHead'], ['/han/base_controller/command', 'std_msgs/Float64'], ['/rosout', 'rosgraph_msgs/Log'], ['/blender_api/set_gesture', 'blender_api_msgs/SetGesture'], ['/han/make_face_expr', 'basic_head_api/MakeFaceExpr'], ['/behavior_switch', 'std_msgs/String'], ['/han/neck_left_controller/command', 'std_msgs/Float64'], ['/han/middle/command', 'ros_pololu_servo/MotorCommand'], ['/han/right/command', 'ros_pololu_servo/MotorCommand']]

[rospy.internal][WARNING] 2015-03-03 15:55:31,806: Unknown error initiating TCP/IP socket to hr2:55906 (http://hr2:55769/): Traceback (most recent call last):
  File "/opt/ros/indigo/lib/python2.7/dist-packages/rospy/impl/tcpros_base.py", line 557, in connect
    self.read_header()
  File "/opt/ros/indigo/lib/python2.7/dist-packages/rospy/impl/tcpros_base.py", line 618, in read_header
    self._validate_header(read_ros_handshake_header(sock, self.read_buff, self.protocol.buff_size))
  File "/opt/ros/indigo/lib/python2.7/dist-packages/rosgraph/network.py", line 360, in read_ros_handshake_header
    d = sock.recv(buff_size)
error: [Errno 104] Connection reset by peer

[rospy.internal][WARNING] 2015-03-03 15:55:31,807: Unknown error initiating TCP/IP socket to hr2:55906 (http://hr2:55769/): Traceback (most recent call last):
  File "/opt/ros/indigo/lib/python2.7/dist-packages/rospy/impl/tcpros_base.py", line 557, in connect
    self.read_header()
  File "/opt/ros/indigo/lib/python2.7/dist-packages/rospy/impl/tcpros_base.py", line 618, in read_header
    self._validate_header(read_ros_handshake_header(sock, self.read_buff, self.protocol.buff_size))
  File "/opt/ros/indigo/lib/python2.7/dist-packages/rosgraph/network.py", line 360, in read_ros_handshake_header
    d = sock.recv(buff_size)
error: [Errno 104] Connection reset by peer

[rospy.internal][INFO] 2015-03-03 15:55:31,807: topic[/han/base_controller/command] removing connection to http://hr2:55769/
[rospy.internal][WARNING] 2015-03-03 15:55:31,807: Unknown error initiating TCP/IP socket to hr2:55906 (http://hr2:55769/): Traceback (most recent call last):
  File "/opt/ros/indigo/lib/python2.7/dist-packages/rospy/impl/tcpros_base.py", line 557, in connect
    self.read_header()
  File "/opt/ros/indigo/lib/python2.7/dist-packages/rospy/impl/tcpros_base.py", line 618, in read_header
    self._validate_header(read_ros_handshake_header(sock, self.read_buff, self.protocol.buff_size))
  File "/opt/ros/indigo/lib/python2.7/dist-packages/rosgraph/network.py", line 360, in read_ros_handshake_header
    d = sock.recv(buff_size)
error: [Errno 104] Connection reset by peer

[rospy.internal][WARNING] 2015-03-03 15:55:31,807: Unknown error initiating TCP/IP socket to hr2:55906 (http://hr2:55769/): Traceback (most recent call last):
  File "/opt/ros/indigo/lib/python2.7/dist-packages/rospy/impl/tcpros_base.py", line 557, in connect
    self.read_header()
  File "/opt/ros/indigo/lib/python2.7/dist-packages/rospy/impl/tcpros_base.py", line 618, in read_header
    self._validate_header(read_ros_handshake_header(sock, self.read_buff, self.protocol.buff_size))
  File "/opt/ros/indigo/lib/python2.7/dist-packages/rosgraph/network.py", line 360, in read_ros_handshake_header
    d = sock.recv(buff_size)
error: [Errno 104] Connection reset by peer

[rospy.internal][INFO] 2015-03-03 15:55:31,807: topic[/han/neck_left_controller/command] removing connection to http://hr2:55769/
[rospy.internal][INFO] 2015-03-03 15:55:31,807: topic[/han/base_left_controller/command] removing connection to http://hr2:55769/
[rospy.internal][INFO] 2015-03-03 15:55:31,807: topic[/han/base_right_controller/command] removing connection to http://hr2:55769/
[rospy.internal][ERROR] 2015-03-03 15:55:32,080: Unable to initiate TCP/IP socket to hr2:53689 (http://hr2:57771/): Traceback (most recent call last):
  File "/opt/ros/indigo/lib/python2.7/dist-packages/rospy/impl/tcpros_base.py", line 557, in connect
    self.read_header()
  File "/opt/ros/indigo/lib/python2.7/dist-packages/rospy/impl/tcpros_base.py", line 618, in read_header
    self._validate_header(read_ros_handshake_header(sock, self.read_buff, self.protocol.buff_size))
  File "/opt/ros/indigo/lib/python2.7/dist-packages/rospy/impl/tcpros_base.py", line 580, in _validate_header
    raise TransportInitError("remote error reported: %s"%header['error'])
TransportInitError: remote error reported: node shutting down

[rospy.internal][ERROR] 2015-03-03 15:55:32,081: Unable to initiate TCP/IP socket to hr2:53689 (http://hr2:57771/): Traceback (most recent call last):
  File "/opt/ros/indigo/lib/python2.7/dist-packages/rospy/impl/tcpros_base.py", line 557, in connect
    self.read_header()
  File "/opt/ros/indigo/lib/python2.7/dist-packages/rospy/impl/tcpros_base.py", line 618, in read_header
    self._validate_header(read_ros_handshake_header(sock, self.read_buff, self.protocol.buff_size))
  File "/opt/ros/indigo/lib/python2.7/dist-packages/rospy/impl/tcpros_base.py", line 580, in _validate_header
    raise TransportInitError("remote error reported: %s"%header['error'])
TransportInitError: remote error reported: node shutting down

[rospy.internal][ERROR] 2015-03-03 15:55:32,081: Unable to initiate TCP/IP socket to hr2:53689 (http://hr2:57771/): Traceback (most recent call last):
  File "/opt/ros/indigo/lib/python2.7/dist-packages/rospy/impl/tcpros_base.py", line 557, in connect
    self.read_header()
  File "/opt/ros/indigo/lib/python2.7/dist-packages/rospy/impl/tcpros_base.py", line 618, in read_header
    self._validate_header(read_ros_handshake_header(sock, self.read_buff, self.protocol.buff_size))
  File "/opt/ros/indigo/lib/python2.7/dist-packages/rospy/impl/tcpros_base.py", line 580, in _validate_header
    raise TransportInitError("remote error reported: %s"%header['error'])
TransportInitError: remote error reported: node shutting down

[rospy.internal][ERROR] 2015-03-03 15:55:32,081: Unable to initiate TCP/IP socket to hr2:50871 (http://hr2:46380/): Traceback (most recent call last):
  File "/opt/ros/indigo/lib/python2.7/dist-packages/rospy/impl/tcpros_base.py", line 557, in connect
    self.read_header()
  File "/opt/ros/indigo/lib/python2.7/dist-packages/rospy/impl/tcpros_base.py", line 618, in read_header
    self._validate_header(read_ros_handshake_header(sock, self.read_buff, self.protocol.buff_size))
  File "/opt/ros/indigo/lib/python2.7/dist-packages/rospy/impl/tcpros_base.py", line 580, in _validate_header
    raise TransportInitError("remote error reported: %s"%header['error'])
TransportInitError: remote error reported: node shutting down

[rospy.internal][WARNING] 2015-03-03 15:55:32,082: Unknown error initiating TCP/IP socket to hr2:50871 (http://hr2:46380/): Traceback (most recent call last):
  File "/opt/ros/indigo/lib/python2.7/dist-packages/rospy/impl/tcpros_base.py", line 557, in connect
    self.read_header()
  File "/opt/ros/indigo/lib/python2.7/dist-packages/rospy/impl/tcpros_base.py", line 618, in read_header
    self._validate_header(read_ros_handshake_header(sock, self.read_buff, self.protocol.buff_size))
  File "/opt/ros/indigo/lib/python2.7/dist-packages/rosgraph/network.py", line 360, in read_ros_handshake_header
    d = sock.recv(buff_size)
error: [Errno 104] Connection reset by peer

[rospy.internal][ERROR] 2015-03-03 15:55:32,082: Unable to initiate TCP/IP socket to hr2:53689 (http://hr2:57771/): Traceback (most recent call last):
  File "/opt/ros/indigo/lib/python2.7/dist-packages/rospy/impl/tcpros_base.py", line 557, in connect
    self.read_header()
  File "/opt/ros/indigo/lib/python2.7/dist-packages/rospy/impl/tcpros_base.py", line 618, in read_header
    self._validate_header(read_ros_handshake_header(sock, self.read_buff, self.protocol.buff_size))
  File "/opt/ros/indigo/lib/python2.7/dist-packages/rospy/impl/tcpros_base.py", line 580, in _validate_header
    raise TransportInitError("remote error reported: %s"%header['error'])
TransportInitError: remote error reported: node shutting down

[rospy.internal][WARNING] 2015-03-03 15:55:32,082: Unknown error initiating TCP/IP socket to hr2:50871 (http://hr2:46380/): Traceback (most recent call last):
  File "/opt/ros/indigo/lib/python2.7/dist-packages/rospy/impl/tcpros_base.py", line 555, in connect
    self.socket.connect((dest_addr, dest_port))
  File "/usr/lib/python2.7/socket.py", line 224, in meth
    return getattr(self._sock,name)(*args)
error: [Errno 111] Connection refused

[rospy.internal][WARNING] 2015-03-03 15:55:32,082: Unknown error initiating TCP/IP socket to hr2:53689 (http://hr2:57771/): Traceback (most recent call last):
  File "/opt/ros/indigo/lib/python2.7/dist-packages/rospy/impl/tcpros_base.py", line 557, in connect
    self.read_header()
  File "/opt/ros/indigo/lib/python2.7/dist-packages/rospy/impl/tcpros_base.py", line 618, in read_header
    self._validate_header(read_ros_handshake_header(sock, self.read_buff, self.protocol.buff_size))
  File "/opt/ros/indigo/lib/python2.7/dist-packages/rosgraph/network.py", line 362, in read_ros_handshake_header
    raise ROSHandshakeException("connection from sender terminated before handshake header received. %s bytes were received. Please check sender for additional details."%b.tell())
ROSHandshakeException: connection from sender terminated before handshake header received. 0 bytes were received. Please check sender for additional details.

[rospy.internal][WARNING] 2015-03-03 15:55:32,082: Unknown error initiating TCP/IP socket to hr2:50871 (http://hr2:46380/): Traceback (most recent call last):
  File "/opt/ros/indigo/lib/python2.7/dist-packages/rospy/impl/tcpros_base.py", line 555, in connect
    self.socket.connect((dest_addr, dest_port))
  File "/usr/lib/python2.7/socket.py", line 224, in meth
    return getattr(self._sock,name)(*args)
error: [Errno 111] Connection refused

[rospy.internal][WARNING] 2015-03-03 15:55:32,082: Unknown error initiating TCP/IP socket to hr2:50871 (http://hr2:46380/): Traceback (most recent call last):
  File "/opt/ros/indigo/lib/python2.7/dist-packages/rospy/impl/tcpros_base.py", line 555, in connect
    self.socket.connect((dest_addr, dest_port))
  File "/usr/lib/python2.7/socket.py", line 224, in meth
    return getattr(self._sock,name)(*args)
error: [Errno 111] Connection refused

[rospy.internal][INFO] 2015-03-03 15:55:32,083: topic[/han/base_right_controller/command] removing connection to http://hr2:46380/
[rospy.internal][INFO] 2015-03-03 15:55:32,083: topic[/han/base_controller/command] removing connection to http://hr2:46380/
[rospy.internal][INFO] 2015-03-03 15:55:32,083: topic[/han/base_controller/command] removing connection to http://hr2:57771/
[rospy.internal][INFO] 2015-03-03 15:55:32,083: topic[/han/neck_left_controller/command] removing connection to http://hr2:46380/
[rospy.internal][INFO] 2015-03-03 15:55:32,083: topic[/han/base_left_controller/command] removing connection to http://hr2:46380/
[rospy.core][INFO] 2015-03-03 15:55:32,190: signal_shutdown [signal-2]
[rospy.registration][WARNING] 2015-03-03 15:55:32,191: cannot unregister with master due to network issues
[rospy.internal][INFO] 2015-03-03 15:55:32,191: topic[/rosout] removing connection to /rosout
[rospy.internal][INFO] 2015-03-03 15:55:32,191: topic[/han/motor_states/pan_tilt_port] removing connection to /han/dynamixel_manager
[rospy.internal][INFO] 2015-03-03 15:55:32,191: topic[/han/neck_right_controller/command] removing connection to http://hr2:46380/
[rospy.internal][INFO] 2015-03-03 15:55:32,191: topic[/han/neck_right_controller/command] removing connection to http://hr2:57771/
[rospy.internal][INFO] 2015-03-03 15:55:32,192: topic[/han/neck_right_controller/command] removing connection to http://hr2:55769/
[rospy.internal][ERROR] 2015-03-03 15:55:32,192: Unable to initiate TCP/IP socket to hr2:44098 (http://hr2:41944/): Traceback (most recent call last):
  File "/opt/ros/indigo/lib/python2.7/dist-packages/rospy/impl/tcpros_base.py", line 557, in connect
    self.read_header()
  File "/opt/ros/indigo/lib/python2.7/dist-packages/rospy/impl/tcpros_base.py", line 618, in read_header
    self._validate_header(read_ros_handshake_header(sock, self.read_buff, self.protocol.buff_size))
  File "/opt/ros/indigo/lib/python2.7/dist-packages/rospy/impl/tcpros_base.py", line 580, in _validate_header
    raise TransportInitError("remote error reported: %s"%header['error'])
TransportInitError: remote error reported: node shutting down

[rospy.internal][INFO] 2015-03-03 15:55:32,192: topic[/han/base_right_controller/command] removing connection to http://hr2:57771/
[rospy.internal][INFO] 2015-03-03 15:55:32,192: topic[/han/base_left_controller/command] removing connection to http://hr2:57771/
[rospy.internal][INFO] 2015-03-03 15:55:32,192: topic[/han/neck_left_controller/command] removing connection to http://hr2:57771/
[rospy.internal][INFO] 2015-03-03 15:55:32,192: topic[/han/motor_states/pan_tilt_port] removing connection to http://hr2:41944/
[rospy.impl.masterslave][INFO] 2015-03-03 15:55:32,192: signal-2
[rospy.core][INFO] 2015-03-03 15:55:32,770: signal_shutdown [atexit]
