[0m[ INFO] [1425394486.255111935]: rviz version 1.11.4[0m
[0m[ INFO] [1425394486.255177810]: compiled against OGRE version 1.8.1 (Byatis)[0m
[0m[ INFO] [1425394486.694543804]: Stereo is NOT SUPPORTED[0m
[0m[ INFO] [1425394486.694631242]: OpenGl version: 4.4 (GLSL 4.4).[0m
Property::loadValue() TODO: error handling - unexpected QVariant type 0.
