[rospy.client][INFO] 2015-03-04 11:46:35,964: init_node, name[/han/dynamixel_manager], pid[29877]
[xmlrpc][INFO] 2015-03-04 11:46:35,964: XML-RPC server binding to 0.0.0.0:0
[xmlrpc][INFO] 2015-03-04 11:46:35,965: Started XML-RPC server [http://hr2:46068/]
[rospy.init][INFO] 2015-03-04 11:46:35,965: ROS Slave URI: [http://hr2:46068/]
[rospy.impl.masterslave][INFO] 2015-03-04 11:46:35,965: _ready: http://hr2:46068/
[xmlrpc][INFO] 2015-03-04 11:46:35,965: xml rpc node: starting XML-RPC server
[rospy.registration][INFO] 2015-03-04 11:46:35,966: Registering with master node http://localhost:11311
[rospy.init][INFO] 2015-03-04 11:46:36,065: registered with master
[rospy.rosout][INFO] 2015-03-04 11:46:36,065: initializing /rosout core topic
[rospy.rosout][INFO] 2015-03-04 11:46:36,067: connected to core topic /rosout
[rospy.simtime][INFO] 2015-03-04 11:46:36,069: /use_sim_time is not set, will not subscribe to simulated time [/clock] topic
[rosout][INFO] 2015-03-04 11:46:36,080: pan_tilt_port: Pinging motor IDs 0 through 4...
[rosout][INFO] 2015-03-04 11:46:36,213: pan_tilt_port: Found 5 motors - 3 MX-106 [0, 1, 2], 2 MX-28 [3, 4], initialization complete.
[rospy.internal][INFO] 2015-03-04 11:46:36,271: topic[/rosout] adding connection to [/rosout], count 0
[rosout][INFO] 2015-03-04 11:46:36,333: Setting acceleration of 0 to 20
[rosout][INFO] 2015-03-04 11:46:36,369: Setting acceleration of 1 to 10
[rospy.internal][INFO] 2015-03-04 11:46:36,384: topic[/han/motor_states/pan_tilt_port] adding connection to [http://hr2:46068/], count 0
[rospy.internal][INFO] 2015-03-04 11:46:36,386: topic[/han/base_controller/command] adding connection to [http://hr2:56204/], count 0
[rospy.internal][INFO] 2015-03-04 11:46:36,386: topic[/han/motor_states/pan_tilt_port] adding connection to [/han/dynamixel_manager], count 0
[rospy.internal][INFO] 2015-03-04 11:46:36,392: topic[/han/base_right_controller/command] adding connection to [http://hr2:56204/], count 0
[rospy.internal][INFO] 2015-03-04 11:46:36,393: topic[/han/base_controller/command] adding connection to [http://hr2:53480/], count 1
[rospy.internal][INFO] 2015-03-04 11:46:36,394: topic[/han/base_right_controller/command] adding connection to [http://hr2:53480/], count 1
[rosout][INFO] 2015-03-04 11:46:36,415: Setting acceleration of 2 to 10
[rosout][INFO] 2015-03-04 11:46:36,451: Setting acceleration of 3 to 10
[rospy.internal][INFO] 2015-03-04 11:46:36,456: topic[/han/base_left_controller/command] adding connection to [http://hr2:56204/], count 0
[rospy.internal][INFO] 2015-03-04 11:46:36,457: topic[/han/base_left_controller/command] adding connection to [http://hr2:53480/], count 1
[rospy.internal][INFO] 2015-03-04 11:46:36,473: topic[/han/neck_right_controller/command] adding connection to [http://hr2:53480/], count 0
[rospy.internal][INFO] 2015-03-04 11:46:36,475: topic[/han/neck_right_controller/command] adding connection to [http://hr2:56204/], count 1
[rosout][INFO] 2015-03-04 11:46:36,499: Setting acceleration of 4 to 10
[rospy.internal][INFO] 2015-03-04 11:46:36,540: topic[/han/neck_left_controller/command] adding connection to [http://hr2:53480/], count 0
[rospy.internal][INFO] 2015-03-04 11:46:36,539: topic[/han/neck_left_controller/command] adding connection to [http://hr2:56204/], count 0
[rospy.internal][INFO] 2015-03-04 11:46:51,456: topic[/han/base_right_controller/command] adding connection to [http://hr2:52200/], count 2
[rospy.internal][INFO] 2015-03-04 11:46:51,457: topic[/han/base_controller/command] adding connection to [http://hr2:52200/], count 2
[rospy.internal][INFO] 2015-03-04 11:46:51,522: topic[/han/neck_right_controller/command] adding connection to [http://hr2:52200/], count 2
[rospy.internal][INFO] 2015-03-04 11:46:51,535: topic[/han/base_left_controller/command] adding connection to [http://hr2:52200/], count 2
[rospy.internal][INFO] 2015-03-04 11:46:51,635: topic[/han/neck_left_controller/command] adding connection to [http://hr2:52200/], count 2
[rospy.internal][ERROR] 2015-03-04 11:52:49,031: Unable to initiate TCP/IP socket to hr2:38499 (http://hr2:52200/): Traceback (most recent call last):
  File "/opt/ros/indigo/lib/python2.7/dist-packages/rospy/impl/tcpros_base.py", line 557, in connect
    self.read_header()
  File "/opt/ros/indigo/lib/python2.7/dist-packages/rospy/impl/tcpros_base.py", line 618, in read_header
    self._validate_header(read_ros_handshake_header(sock, self.read_buff, self.protocol.buff_size))
  File "/opt/ros/indigo/lib/python2.7/dist-packages/rospy/impl/tcpros_base.py", line 580, in _validate_header
    raise TransportInitError("remote error reported: %s"%header['error'])
TransportInitError: remote error reported: [/rosbridge_websocket_ssl] is not a publisher of [/han/neck_right_controller/command]. Topics are [['/han/base_left_controller/command', 'std_msgs/Float64'], ['/han/base_right_controller/command', 'std_msgs/Float64'], ['/han/point_head', 'basic_head_api/PointHead'], ['/han/base_controller/command', 'std_msgs/Float64'], ['/han/chatbot_speech', 'chatbot/ChatMessage'], ['/rosout', 'rosgraph_msgs/Log'], ['/han/make_face_expr', 'basic_head_api/MakeFaceExpr'], ['/behavior_switch', 'std_msgs/String'], ['/han/neck_left_controller/command', 'std_msgs/Float64'], ['/han/middle/command', 'ros_pololu_servo/MotorCommand'], ['/han/right/command', 'ros_pololu_servo/MotorCommand']]

[rospy.internal][WARNING] 2015-03-04 11:52:49,047: Unknown error initiating TCP/IP socket to hr2:38499 (http://hr2:52200/): Traceback (most recent call last):
  File "/opt/ros/indigo/lib/python2.7/dist-packages/rospy/impl/tcpros_base.py", line 557, in connect
    self.read_header()
  File "/opt/ros/indigo/lib/python2.7/dist-packages/rospy/impl/tcpros_base.py", line 618, in read_header
    self._validate_header(read_ros_handshake_header(sock, self.read_buff, self.protocol.buff_size))
  File "/opt/ros/indigo/lib/python2.7/dist-packages/rosgraph/network.py", line 360, in read_ros_handshake_header
    d = sock.recv(buff_size)
error: [Errno 104] Connection reset by peer

[rospy.internal][INFO] 2015-03-04 11:52:49,047: topic[/han/base_right_controller/command] removing connection to http://hr2:52200/
[rospy.internal][WARNING] 2015-03-04 11:52:49,049: Unknown error initiating TCP/IP socket to hr2:38499 (http://hr2:52200/): Traceback (most recent call last):
  File "/opt/ros/indigo/lib/python2.7/dist-packages/rospy/impl/tcpros_base.py", line 555, in connect
    self.socket.connect((dest_addr, dest_port))
  File "/usr/lib/python2.7/socket.py", line 224, in meth
    return getattr(self._sock,name)(*args)
error: [Errno 111] Connection refused

[rospy.internal][WARNING] 2015-03-04 11:52:49,050: Unknown error initiating TCP/IP socket to hr2:38499 (http://hr2:52200/): Traceback (most recent call last):
  File "/opt/ros/indigo/lib/python2.7/dist-packages/rospy/impl/tcpros_base.py", line 555, in connect
    self.socket.connect((dest_addr, dest_port))
  File "/usr/lib/python2.7/socket.py", line 224, in meth
    return getattr(self._sock,name)(*args)
error: [Errno 111] Connection refused

[rospy.internal][INFO] 2015-03-04 11:52:49,050: topic[/han/base_controller/command] removing connection to http://hr2:52200/
[rospy.internal][INFO] 2015-03-04 11:52:49,050: topic[/han/neck_left_controller/command] removing connection to http://hr2:52200/
[rospy.internal][WARNING] 2015-03-04 11:52:49,050: Unknown error initiating TCP/IP socket to hr2:38499 (http://hr2:52200/): Traceback (most recent call last):
  File "/opt/ros/indigo/lib/python2.7/dist-packages/rospy/impl/tcpros_base.py", line 555, in connect
    self.socket.connect((dest_addr, dest_port))
  File "/usr/lib/python2.7/socket.py", line 224, in meth
    return getattr(self._sock,name)(*args)
error: [Errno 111] Connection refused

[rospy.internal][INFO] 2015-03-04 11:52:49,050: topic[/han/base_left_controller/command] removing connection to http://hr2:52200/
[rospy.internal][WARNING] 2015-03-04 11:52:49,395: Unknown error initiating TCP/IP socket to hr2:59831 (http://hr2:56204/): Traceback (most recent call last):
  File "/opt/ros/indigo/lib/python2.7/dist-packages/rospy/impl/tcpros_base.py", line 557, in connect
    self.read_header()
  File "/opt/ros/indigo/lib/python2.7/dist-packages/rospy/impl/tcpros_base.py", line 618, in read_header
    self._validate_header(read_ros_handshake_header(sock, self.read_buff, self.protocol.buff_size))
  File "/opt/ros/indigo/lib/python2.7/dist-packages/rosgraph/network.py", line 360, in read_ros_handshake_header
    d = sock.recv(buff_size)
error: [Errno 104] Connection reset by peer

[rospy.internal][WARNING] 2015-03-04 11:52:49,396: Unknown error initiating TCP/IP socket to hr2:59831 (http://hr2:56204/): Traceback (most recent call last):
  File "/opt/ros/indigo/lib/python2.7/dist-packages/rospy/impl/tcpros_base.py", line 557, in connect
    self.read_header()
  File "/opt/ros/indigo/lib/python2.7/dist-packages/rospy/impl/tcpros_base.py", line 618, in read_header
    self._validate_header(read_ros_handshake_header(sock, self.read_buff, self.protocol.buff_size))
  File "/opt/ros/indigo/lib/python2.7/dist-packages/rosgraph/network.py", line 360, in read_ros_handshake_header
    d = sock.recv(buff_size)
error: [Errno 104] Connection reset by peer

[rospy.internal][INFO] 2015-03-04 11:52:49,396: topic[/han/base_right_controller/command] removing connection to http://hr2:56204/
[rospy.internal][INFO] 2015-03-04 11:52:49,397: topic[/han/base_left_controller/command] removing connection to http://hr2:56204/
[rospy.internal][WARNING] 2015-03-04 11:52:49,400: Unknown error initiating TCP/IP socket to hr2:59831 (http://hr2:56204/): Traceback (most recent call last):
  File "/opt/ros/indigo/lib/python2.7/dist-packages/rospy/impl/tcpros_base.py", line 557, in connect
    self.read_header()
  File "/opt/ros/indigo/lib/python2.7/dist-packages/rospy/impl/tcpros_base.py", line 618, in read_header
    self._validate_header(read_ros_handshake_header(sock, self.read_buff, self.protocol.buff_size))
  File "/opt/ros/indigo/lib/python2.7/dist-packages/rosgraph/network.py", line 360, in read_ros_handshake_header
    d = sock.recv(buff_size)
error: [Errno 104] Connection reset by peer

[rospy.internal][WARNING] 2015-03-04 11:52:49,400: Unknown error initiating TCP/IP socket to hr2:59831 (http://hr2:56204/): Traceback (most recent call last):
  File "/opt/ros/indigo/lib/python2.7/dist-packages/rospy/impl/tcpros_base.py", line 557, in connect
    self.read_header()
  File "/opt/ros/indigo/lib/python2.7/dist-packages/rospy/impl/tcpros_base.py", line 618, in read_header
    self._validate_header(read_ros_handshake_header(sock, self.read_buff, self.protocol.buff_size))
  File "/opt/ros/indigo/lib/python2.7/dist-packages/rosgraph/network.py", line 360, in read_ros_handshake_header
    d = sock.recv(buff_size)
error: [Errno 104] Connection reset by peer

[rospy.internal][INFO] 2015-03-04 11:52:49,400: topic[/han/neck_left_controller/command] removing connection to http://hr2:56204/
[rospy.internal][INFO] 2015-03-04 11:52:49,400: topic[/han/neck_right_controller/command] removing connection to http://hr2:56204/
[rospy.internal][WARNING] 2015-03-04 11:52:49,407: Unknown error initiating TCP/IP socket to hr2:59831 (http://hr2:56204/): Traceback (most recent call last):
  File "/opt/ros/indigo/lib/python2.7/dist-packages/rospy/impl/tcpros_base.py", line 557, in connect
    self.read_header()
  File "/opt/ros/indigo/lib/python2.7/dist-packages/rospy/impl/tcpros_base.py", line 618, in read_header
    self._validate_header(read_ros_handshake_header(sock, self.read_buff, self.protocol.buff_size))
  File "/opt/ros/indigo/lib/python2.7/dist-packages/rosgraph/network.py", line 360, in read_ros_handshake_header
    d = sock.recv(buff_size)
error: [Errno 104] Connection reset by peer

[rospy.internal][INFO] 2015-03-04 11:52:49,407: topic[/han/base_controller/command] removing connection to http://hr2:56204/
[rospy.internal][ERROR] 2015-03-04 11:52:49,492: Unable to initiate TCP/IP socket to hr2:43446 (http://hr2:53480/): Traceback (most recent call last):
  File "/opt/ros/indigo/lib/python2.7/dist-packages/rospy/impl/tcpros_base.py", line 557, in connect
    self.read_header()
  File "/opt/ros/indigo/lib/python2.7/dist-packages/rospy/impl/tcpros_base.py", line 618, in read_header
    self._validate_header(read_ros_handshake_header(sock, self.read_buff, self.protocol.buff_size))
  File "/opt/ros/indigo/lib/python2.7/dist-packages/rospy/impl/tcpros_base.py", line 580, in _validate_header
    raise TransportInitError("remote error reported: %s"%header['error'])
TransportInitError: remote error reported: node shutting down

[rospy.internal][ERROR] 2015-03-04 11:52:49,492: Unable to initiate TCP/IP socket to hr2:43446 (http://hr2:53480/): Traceback (most recent call last):
  File "/opt/ros/indigo/lib/python2.7/dist-packages/rospy/impl/tcpros_base.py", line 557, in connect
    self.read_header()
  File "/opt/ros/indigo/lib/python2.7/dist-packages/rospy/impl/tcpros_base.py", line 618, in read_header
    self._validate_header(read_ros_handshake_header(sock, self.read_buff, self.protocol.buff_size))
  File "/opt/ros/indigo/lib/python2.7/dist-packages/rospy/impl/tcpros_base.py", line 580, in _validate_header
    raise TransportInitError("remote error reported: %s"%header['error'])
TransportInitError: remote error reported: node shutting down

[rospy.internal][ERROR] 2015-03-04 11:52:49,493: Unable to initiate TCP/IP socket to hr2:43446 (http://hr2:53480/): Traceback (most recent call last):
  File "/opt/ros/indigo/lib/python2.7/dist-packages/rospy/impl/tcpros_base.py", line 557, in connect
    self.read_header()
  File "/opt/ros/indigo/lib/python2.7/dist-packages/rospy/impl/tcpros_base.py", line 618, in read_header
    self._validate_header(read_ros_handshake_header(sock, self.read_buff, self.protocol.buff_size))
  File "/opt/ros/indigo/lib/python2.7/dist-packages/rospy/impl/tcpros_base.py", line 580, in _validate_header
    raise TransportInitError("remote error reported: %s"%header['error'])
TransportInitError: remote error reported: node shutting down

[rospy.internal][ERROR] 2015-03-04 11:52:49,493: Unable to initiate TCP/IP socket to hr2:43446 (http://hr2:53480/): Traceback (most recent call last):
  File "/opt/ros/indigo/lib/python2.7/dist-packages/rospy/impl/tcpros_base.py", line 557, in connect
    self.read_header()
  File "/opt/ros/indigo/lib/python2.7/dist-packages/rospy/impl/tcpros_base.py", line 618, in read_header
    self._validate_header(read_ros_handshake_header(sock, self.read_buff, self.protocol.buff_size))
  File "/opt/ros/indigo/lib/python2.7/dist-packages/rospy/impl/tcpros_base.py", line 580, in _validate_header
    raise TransportInitError("remote error reported: %s"%header['error'])
TransportInitError: remote error reported: node shutting down

[rospy.internal][ERROR] 2015-03-04 11:52:49,493: Unable to initiate TCP/IP socket to hr2:43446 (http://hr2:53480/): Traceback (most recent call last):
  File "/opt/ros/indigo/lib/python2.7/dist-packages/rospy/impl/tcpros_base.py", line 557, in connect
    self.read_header()
  File "/opt/ros/indigo/lib/python2.7/dist-packages/rospy/impl/tcpros_base.py", line 618, in read_header
    self._validate_header(read_ros_handshake_header(sock, self.read_buff, self.protocol.buff_size))
  File "/opt/ros/indigo/lib/python2.7/dist-packages/rospy/impl/tcpros_base.py", line 580, in _validate_header
    raise TransportInitError("remote error reported: %s"%header['error'])
TransportInitError: remote error reported: node shutting down

[rospy.core][INFO] 2015-03-04 11:52:49,592: signal_shutdown [signal-2]
[rospy.registration][WARNING] 2015-03-04 11:52:49,593: cannot unregister with master due to network issues
[rospy.internal][INFO] 2015-03-04 11:52:49,593: topic[/rosout] removing connection to /rosout
[rospy.internal][INFO] 2015-03-04 11:52:49,594: topic[/han/motor_states/pan_tilt_port] removing connection to /han/dynamixel_manager
[rospy.internal][INFO] 2015-03-04 11:52:49,594: topic[/han/neck_right_controller/command] removing connection to http://hr2:53480/
[rospy.internal][INFO] 2015-03-04 11:52:49,594: topic[/han/neck_right_controller/command] removing connection to http://hr2:52200/
[rospy.internal][INFO] 2015-03-04 11:52:49,594: topic[/han/base_right_controller/command] removing connection to http://hr2:53480/
[rospy.internal][ERROR] 2015-03-04 11:52:49,594: Unable to initiate TCP/IP socket to hr2:38155 (http://hr2:46068/): Traceback (most recent call last):
  File "/opt/ros/indigo/lib/python2.7/dist-packages/rospy/impl/tcpros_base.py", line 557, in connect
    self.read_header()
  File "/opt/ros/indigo/lib/python2.7/dist-packages/rospy/impl/tcpros_base.py", line 618, in read_header
    self._validate_header(read_ros_handshake_header(sock, self.read_buff, self.protocol.buff_size))
  File "/opt/ros/indigo/lib/python2.7/dist-packages/rospy/impl/tcpros_base.py", line 580, in _validate_header
    raise TransportInitError("remote error reported: %s"%header['error'])
TransportInitError: remote error reported: node shutting down

[rospy.internal][INFO] 2015-03-04 11:52:49,594: topic[/han/base_controller/command] removing connection to http://hr2:53480/
[rospy.internal][INFO] 2015-03-04 11:52:49,594: topic[/han/base_left_controller/command] removing connection to http://hr2:53480/
[rospy.internal][INFO] 2015-03-04 11:52:49,594: topic[/han/neck_left_controller/command] removing connection to http://hr2:53480/
[rospy.internal][INFO] 2015-03-04 11:52:49,595: topic[/han/motor_states/pan_tilt_port] removing connection to http://hr2:46068/
[rospy.impl.masterslave][INFO] 2015-03-04 11:52:49,595: signal-2
[rospy.core][INFO] 2015-03-04 11:52:50,222: signal_shutdown [atexit]
