[rospy.client][INFO] 2015-03-06 10:56:21,881: init_node, name[/state_publisher], pid[21289]
[xmlrpc][INFO] 2015-03-06 10:56:21,882: XML-RPC server binding to 0.0.0.0:0
[xmlrpc][INFO] 2015-03-06 10:56:21,882: Started XML-RPC server [http://hr2:59005/]
[rospy.impl.masterslave][INFO] 2015-03-06 10:56:21,882: _ready: http://hr2:59005/
[xmlrpc][INFO] 2015-03-06 10:56:21,883: xml rpc node: starting XML-RPC server
[rospy.registration][INFO] 2015-03-06 10:56:21,884: Registering with master node http://localhost:11311
[rospy.init][INFO] 2015-03-06 10:56:21,890: ROS Slave URI: [http://hr2:59005/]
[rospy.init][INFO] 2015-03-06 10:56:21,890: registered with master
[rospy.rosout][INFO] 2015-03-06 10:56:21,890: initializing /rosout core topic
[rospy.rosout][INFO] 2015-03-06 10:56:21,894: connected to core topic /rosout
[rospy.simtime][INFO] 2015-03-06 10:56:21,900: /use_sim_time is not set, will not subscribe to simulated time [/clock] topic
[rospy.internal][INFO] 2015-03-06 10:56:22,128: topic[/rosout] adding connection to [/rosout], count 0
[rospy.internal][INFO] 2015-03-06 10:56:22,225: topic[/joint_states_combined] adding connection to [/joint_state_publisher], count 0
[rospy.internal][INFO] 2015-03-06 11:00:17,949: topic[/joint_states_combined] removing connection to /joint_state_publisher
[rospy.core][INFO] 2015-03-06 11:00:22,225: signal_shutdown [signal-15]
[rospy.registration][WARNING] 2015-03-06 11:00:22,228: cannot unregister with master due to network issues
[rospy.internal][INFO] 2015-03-06 11:00:22,229: topic[/rosout] removing connection to /rosout
[rospy.impl.masterslave][INFO] 2015-03-06 11:00:22,229: signal-15
[rospy.core][INFO] 2015-03-06 11:00:22,320: signal_shutdown [signal-2]
[rospy.core][INFO] 2015-03-06 11:00:22,321: signal_shutdown [atexit]
