[rospy.client][INFO] 2015-03-03 15:00:08,310: init_node, name[/joint_state_publisher], pid[3324]
[xmlrpc][INFO] 2015-03-03 15:00:08,310: XML-RPC server binding to 0.0.0.0:0
[xmlrpc][INFO] 2015-03-03 15:00:08,310: Started XML-RPC server [http://hr2:35870/]
[rospy.impl.masterslave][INFO] 2015-03-03 15:00:08,310: _ready: http://hr2:35870/
[rospy.init][INFO] 2015-03-03 15:00:08,310: ROS Slave URI: [http://hr2:35870/]
[xmlrpc][INFO] 2015-03-03 15:00:08,311: xml rpc node: starting XML-RPC server
[rospy.registration][INFO] 2015-03-03 15:00:08,311: Registering with master node http://localhost:11311
[rospy.init][INFO] 2015-03-03 15:00:08,411: registered with master
[rospy.rosout][INFO] 2015-03-03 15:00:08,411: initializing /rosout core topic
[rospy.rosout][INFO] 2015-03-03 15:00:08,413: connected to core topic /rosout
[rospy.simtime][INFO] 2015-03-03 15:00:08,414: /use_sim_time is not set, will not subscribe to simulated time [/clock] topic
[rospy.internal][INFO] 2015-03-03 15:00:08,673: topic[/rosout] adding connection to [/rosout], count 0
[rosout][INFO] 2015-03-03 15:00:08,871: Centering
[rospy.internal][INFO] 2015-03-03 15:00:08,888: topic[/joint_states_combined] adding connection to [http://hr2:41653/], count 0
[rospy.internal][INFO] 2015-03-03 15:00:09,168: topic[/joint_states] adding connection to [/robot_state_publisher], count 0
