[rospy.client][INFO] 2015-03-04 15:15:38,211: init_node, name[/state_publisher], pid[23842]
[xmlrpc][INFO] 2015-03-04 15:15:38,212: XML-RPC server binding to 0.0.0.0:0
[xmlrpc][INFO] 2015-03-04 15:15:38,213: Started XML-RPC server [http://hr2:48706/]
[rospy.init][INFO] 2015-03-04 15:15:38,213: ROS Slave URI: [http://hr2:48706/]
[rospy.impl.masterslave][INFO] 2015-03-04 15:15:38,213: _ready: http://hr2:48706/
[xmlrpc][INFO] 2015-03-04 15:15:38,214: xml rpc node: starting XML-RPC server
[rospy.registration][INFO] 2015-03-04 15:15:38,214: Registering with master node http://localhost:11311
[rospy.init][INFO] 2015-03-04 15:15:38,314: registered with master
[rospy.rosout][INFO] 2015-03-04 15:15:38,314: initializing /rosout core topic
[rospy.rosout][INFO] 2015-03-04 15:15:38,334: connected to core topic /rosout
[rospy.simtime][INFO] 2015-03-04 15:15:38,376: /use_sim_time is not set, will not subscribe to simulated time [/clock] topic
[rospy.internal][INFO] 2015-03-04 15:15:38,549: topic[/joint_states_combined] adding connection to [/joint_state_publisher], count 0
[rospy.internal][INFO] 2015-03-04 15:15:38,648: topic[/rosout] adding connection to [/rosout], count 0
[rospy.internal][INFO] 2015-03-04 15:16:53,021: topic[/joint_states_combined] removing connection to /joint_state_publisher
[rospy.core][INFO] 2015-03-04 15:17:01,815: signal_shutdown [signal-2]
[rospy.registration][WARNING] 2015-03-04 15:17:01,815: cannot unregister with master due to network issues
[rospy.internal][INFO] 2015-03-04 15:17:01,815: topic[/rosout] removing connection to /rosout
[rospy.impl.masterslave][INFO] 2015-03-04 15:17:01,815: signal-2
[rospy.core][INFO] 2015-03-04 15:17:01,919: signal_shutdown [signal-15]
[rospy.core][INFO] 2015-03-04 15:17:01,919: signal_shutdown [atexit]
