[rospy.client][INFO] 2015-02-07 14:30:13,215: init_node, name[/fritz/pau2motors], pid[7877]
[xmlrpc][INFO] 2015-02-07 14:30:13,215: XML-RPC server binding to 0.0.0.0:0
[xmlrpc][INFO] 2015-02-07 14:30:13,215: Started XML-RPC server [http://hr2:43168/]
[rospy.init][INFO] 2015-02-07 14:30:13,215: ROS Slave URI: [http://hr2:43168/]
[rospy.impl.masterslave][INFO] 2015-02-07 14:30:13,215: _ready: http://hr2:43168/
[xmlrpc][INFO] 2015-02-07 14:30:13,215: xml rpc node: starting XML-RPC server
[rospy.registration][INFO] 2015-02-07 14:30:13,216: Registering with master node http://localhost:11311
[rospy.init][INFO] 2015-02-07 14:30:13,315: registered with master
[rospy.rosout][INFO] 2015-02-07 14:30:13,316: initializing /rosout core topic
[rospy.rosout][INFO] 2015-02-07 14:30:13,317: connected to core topic /rosout
[rospy.simtime][INFO] 2015-02-07 14:30:13,318: /use_sim_time is not set, will not subscribe to simulated time [/clock] topic
[rosout][INFO] 2015-02-07 14:30:13,345: Loaded '/fritz/pau2motors' from param server.
[rosout][INFO] 2015-02-07 14:30:13,350: Started
[rospy.internal][INFO] 2015-02-07 14:30:13,523: topic[/rosout] adding connection to [/rosout], count 0
[rospy.internal][INFO] 2015-02-07 14:30:13,618: topic[/fritz/left/command] adding connection to [/fritz/left_pololu_node], count 0
[rospy.internal][INFO] 2015-02-07 14:30:13,624: topic[/fritz/right/command] adding connection to [/fritz/right_pololu_node], count 0
[rospy.internal][INFO] 2015-02-07 14:30:13,649: topic[/fritz/base_right_controller/command] adding connection to [/fritz/dynamixel_manager], count 0
[rospy.internal][INFO] 2015-02-07 14:30:13,650: topic[/fritz/base_controller/command] adding connection to [/fritz/dynamixel_manager], count 0
[rospy.internal][INFO] 2015-02-07 14:30:13,666: topic[/fritz/base_left_controller/command] adding connection to [/fritz/dynamixel_manager], count 0
[rospy.internal][INFO] 2015-02-07 14:30:13,699: topic[/fritz/neck_right_controller/command] adding connection to [/fritz/dynamixel_manager], count 0
[rospy.internal][INFO] 2015-02-07 14:30:13,716: topic[/fritz/neck_left_controller/command] adding connection to [/fritz/dynamixel_manager], count 0
[rospy.internal][INFO] 2015-02-07 14:30:18,880: topic[/fritz/no_pau] adding connection to [http://hr2:46777/], count 0
[rospy.internal][INFO] 2015-02-07 14:30:20,577: topic[/fritz/neck_pau] adding connection to [http://hr2:36671/], count 0
[rospy.internal][INFO] 2015-02-07 14:30:20,589: topic[/fritz/head_pau] adding connection to [http://hr2:32778/], count 0
[rospy.internal][WARNING] 2015-02-07 14:32:52,634: Unknown error initiating TCP/IP socket to hr2:51763 (http://hr2:46777/): Traceback (most recent call last):
  File "/opt/ros/indigo/lib/python2.7/dist-packages/rospy/impl/tcpros_base.py", line 555, in connect
    self.socket.connect((dest_addr, dest_port))
  File "/usr/lib/python2.7/socket.py", line 224, in meth
    return getattr(self._sock,name)(*args)
error: [Errno 111] Connection refused

[rospy.internal][INFO] 2015-02-07 14:32:52,634: topic[/fritz/no_pau] removing connection to http://hr2:46777/
[rospy.core][INFO] 2015-02-07 14:32:52,669: signal_shutdown [signal-2]
[rospy.internal][INFO] 2015-02-07 14:32:52,677: topic[/fritz/base_controller/command] removing connection to /fritz/dynamixel_manager
[rospy.internal][INFO] 2015-02-07 14:32:52,677: topic[/fritz/base_right_controller/command] removing connection to /fritz/dynamixel_manager
[rospy.internal][INFO] 2015-02-07 14:32:52,677: topic[/fritz/base_left_controller/command] removing connection to /fritz/dynamixel_manager
[rospy.internal][INFO] 2015-02-07 14:32:52,677: topic[/fritz/neck_right_controller/command] removing connection to /fritz/dynamixel_manager
[rospy.internal][INFO] 2015-02-07 14:32:52,677: topic[/fritz/right/command] removing connection to /fritz/right_pololu_node
[rospy.internal][INFO] 2015-02-07 14:32:52,677: topic[/rosout] removing connection to /rosout
[rospy.internal][INFO] 2015-02-07 14:32:52,678: topic[/fritz/left/command] removing connection to /fritz/left_pololu_node
[rospy.internal][INFO] 2015-02-07 14:32:52,678: topic[/fritz/neck_left_controller/command] removing connection to /fritz/dynamixel_manager
[rospy.internal][INFO] 2015-02-07 14:32:52,678: topic[/fritz/neck_pau] removing connection to http://hr2:36671/
[rospy.internal][INFO] 2015-02-07 14:32:52,678: topic[/fritz/head_pau] removing connection to http://hr2:32778/
[rospy.impl.masterslave][INFO] 2015-02-07 14:32:52,678: signal-2
[rospy.core][INFO] 2015-02-07 14:32:52,783: signal_shutdown [atexit]
