[rospy.client][INFO] 2015-02-07 14:30:19,354: init_node, name[/rosbridge_websocket], pid[8705]
[xmlrpc][INFO] 2015-02-07 14:30:19,354: XML-RPC server binding to 0.0.0.0:0
[rospy.init][INFO] 2015-02-07 14:30:19,355: ROS Slave URI: [http://hr2:52426/]
[xmlrpc][INFO] 2015-02-07 14:30:19,355: Started XML-RPC server [http://hr2:52426/]
[rospy.impl.masterslave][INFO] 2015-02-07 14:30:19,355: _ready: http://hr2:52426/
[xmlrpc][INFO] 2015-02-07 14:30:19,355: xml rpc node: starting XML-RPC server
[rospy.registration][INFO] 2015-02-07 14:30:19,356: Registering with master node http://localhost:11311
[rospy.init][INFO] 2015-02-07 14:30:19,455: registered with master
[rospy.rosout][INFO] 2015-02-07 14:30:19,455: initializing /rosout core topic
[rospy.rosout][INFO] 2015-02-07 14:30:19,495: connected to core topic /rosout
[rospy.simtime][INFO] 2015-02-07 14:30:19,519: /use_sim_time is not set, will not subscribe to simulated time [/clock] topic
[rosout][INFO] 2015-02-07 14:30:19,603: Rosbridge WebSocket server started on port 9090
[rospy.internal][INFO] 2015-02-07 14:30:19,643: topic[/rosout] adding connection to [/rosout], count 0
[rosout][INFO] 2015-02-07 14:30:29,379: Client connected.  1 clients total.
[rospy.internal][INFO] 2015-02-07 14:30:29,795: topic[/behavior_switch] adding connection to [/Eva_Behavior], count 0
[rosout][INFO] 2015-02-07 14:30:29,814: [Client 0] Subscribed to /blender_api/available_gestures
[rosout][INFO] 2015-02-07 14:30:29,848: [Client 0] Subscribed to /blender_api/available_emotion_states
[rospy.internal][INFO] 2015-02-07 14:30:29,864: topic[/fritz/make_coupled_face_expr] adding connection to [/fritz/basic_head_api], count 0
[rospy.internal][INFO] 2015-02-07 14:30:29,865: topic[/fritz/cmd_blink] adding connection to [/fritz/basic_head_api], count 0
[rospy.internal][INFO] 2015-02-07 14:30:29,866: topic[/blender_api/available_emotion_states] adding connection to [http://hr2:52653/], count 0
[rospy.internal][INFO] 2015-02-07 14:30:29,866: topic[/blender_api/available_gestures] adding connection to [http://hr2:52653/], count 0
[rosout][INFO] 2015-02-07 14:30:29,879: [Client 0] Subscribed to /fritz/chatbot_responses
[rospy.internal][INFO] 2015-02-07 14:30:29,905: topic[/fritz/chatbot_responses] adding connection to [http://hr2:36572/], count 0
[rospy.internal][INFO] 2015-02-07 14:30:29,938: topic[/fritz/point_head] adding connection to [/fritz/basic_head_api], count 0
[rospy.internal][INFO] 2015-02-07 14:30:29,956: topic[/fritz/base_left_controller/command] adding connection to [/fritz/dynamixel_manager], count 0
[rospy.internal][INFO] 2015-02-07 14:30:29,985: topic[/fritz/base_controller/command] adding connection to [/fritz/dynamixel_manager], count 0
[rospy.internal][INFO] 2015-02-07 14:30:30,018: topic[/fritz/base_right_controller/command] adding connection to [/fritz/dynamixel_manager], count 0
[rospy.internal][INFO] 2015-02-07 14:30:30,042: topic[/fritz/neck_right_controller/command] adding connection to [/fritz/dynamixel_manager], count 0
[rospy.internal][INFO] 2015-02-07 14:30:30,050: topic[/fritz/neck_left_controller/command] adding connection to [/fritz/dynamixel_manager], count 0
[rospy.internal][INFO] 2015-02-07 14:30:30,189: topic[/fritz/right/command] adding connection to [/fritz/right_pololu_node], count 0
[rospy.internal][INFO] 2015-02-07 14:30:30,203: topic[/fritz/left/command] adding connection to [/fritz/left_pololu_node], count 0
[rospy.internal][WARNING] 2015-02-07 14:32:52,666: Unknown error initiating TCP/IP socket to hr2:39253 (http://hr2:52653/): Traceback (most recent call last):
  File "/opt/ros/indigo/lib/python2.7/dist-packages/rospy/impl/tcpros_base.py", line 555, in connect
    self.socket.connect((dest_addr, dest_port))
  File "/usr/lib/python2.7/socket.py", line 224, in meth
    return getattr(self._sock,name)(*args)
error: [Errno 111] Connection refused

[rospy.internal][INFO] 2015-02-07 14:32:52,666: topic[/blender_api/available_gestures] removing connection to http://hr2:52653/
[rospy.internal][WARNING] 2015-02-07 14:32:52,669: Unknown error initiating TCP/IP socket to hr2:39253 (http://hr2:52653/): Traceback (most recent call last):
  File "/opt/ros/indigo/lib/python2.7/dist-packages/rospy/impl/tcpros_base.py", line 555, in connect
    self.socket.connect((dest_addr, dest_port))
  File "/usr/lib/python2.7/socket.py", line 224, in meth
    return getattr(self._sock,name)(*args)
error: [Errno 111] Connection refused

[rospy.internal][INFO] 2015-02-07 14:32:52,670: topic[/blender_api/available_emotion_states] removing connection to http://hr2:52653/
[rospy.internal][WARNING] 2015-02-07 14:32:52,674: Unknown error initiating TCP/IP socket to hr2:35869 (http://hr2:36572/): Traceback (most recent call last):
  File "/opt/ros/indigo/lib/python2.7/dist-packages/rospy/impl/tcpros_base.py", line 557, in connect
    self.read_header()
  File "/opt/ros/indigo/lib/python2.7/dist-packages/rospy/impl/tcpros_base.py", line 618, in read_header
    self._validate_header(read_ros_handshake_header(sock, self.read_buff, self.protocol.buff_size))
  File "/opt/ros/indigo/lib/python2.7/dist-packages/rosgraph/network.py", line 362, in read_ros_handshake_header
    raise ROSHandshakeException("connection from sender terminated before handshake header received. %s bytes were received. Please check sender for additional details."%b.tell())
ROSHandshakeException: connection from sender terminated before handshake header received. 0 bytes were received. Please check sender for additional details.

[rospy.internal][INFO] 2015-02-07 14:32:52,675: topic[/fritz/chatbot_responses] removing connection to http://hr2:36572/
