[rospy.client][INFO] 2015-02-08 21:17:21,005: init_node, name[/faces_broadcaster], pid[3410]
[xmlrpc][INFO] 2015-02-08 21:17:21,006: XML-RPC server binding to 0.0.0.0:0
[xmlrpc][INFO] 2015-02-08 21:17:21,006: Started XML-RPC server [http://hr2:55160/]
[rospy.impl.masterslave][INFO] 2015-02-08 21:17:21,006: _ready: http://hr2:55160/
[rospy.init][INFO] 2015-02-08 21:17:21,006: ROS Slave URI: [http://hr2:55160/]
[xmlrpc][INFO] 2015-02-08 21:17:21,006: xml rpc node: starting XML-RPC server
[rospy.registration][INFO] 2015-02-08 21:17:21,007: Registering with master node http://localhost:11311
[rospy.init][INFO] 2015-02-08 21:17:21,106: registered with master
[rospy.rosout][INFO] 2015-02-08 21:17:21,107: initializing /rosout core topic
[rospy.rosout][INFO] 2015-02-08 21:17:21,108: connected to core topic /rosout
[rospy.simtime][INFO] 2015-02-08 21:17:21,109: /use_sim_time is not set, will not subscribe to simulated time [/clock] topic
[rospy.internal][INFO] 2015-02-08 21:17:21,125: topic[/tf] adding connection to [http://hr2:46073/], count 0
[rospy.internal][INFO] 2015-02-08 21:17:21,126: topic[/tf] adding connection to [http://hr2:55160/], count 1
[rospy.internal][INFO] 2015-02-08 21:17:21,127: topic[/tf] adding connection to [/faces_broadcaster], count 0
[rospy.internal][INFO] 2015-02-08 21:17:21,223: topic[/tf] adding connection to [/Eva_Behavior], count 1
[rospy.internal][INFO] 2015-02-08 21:17:21,318: topic[/rosout] adding connection to [/rosout], count 0
[rospy.internal][INFO] 2015-02-08 21:17:21,491: topic[/eye_camera/face_locations] adding connection to [http://hr2:44104/], count 0
[rospy.internal][INFO] 2015-02-08 21:17:21,603: topic[/camera/face_locations] adding connection to [http://hr2:39563/], count 0
[rospy.core][INFO] 2015-02-08 21:18:25,728: signal_shutdown [signal-2]
[rospy.internal][INFO] 2015-02-08 21:18:25,751: topic[/rosout] removing connection to /rosout
[rospy.internal][INFO] 2015-02-08 21:18:25,751: topic[/tf] removing connection to /faces_broadcaster
[rospy.internal][INFO] 2015-02-08 21:18:25,751: topic[/tf] removing connection to /Eva_Behavior
[rospy.internal][INFO] 2015-02-08 21:18:25,752: topic[/eye_camera/face_locations] removing connection to http://hr2:44104/
[rospy.internal][INFO] 2015-02-08 21:18:25,752: topic[/camera/face_locations] removing connection to http://hr2:39563/
[rospy.internal][INFO] 2015-02-08 21:18:25,753: topic[/tf] removing connection to http://hr2:46073/
[rospy.internal][INFO] 2015-02-08 21:18:25,753: topic[/tf] removing connection to http://hr2:55160/
[rospy.impl.masterslave][INFO] 2015-02-08 21:18:25,753: signal-2
[rospy.internal][ERROR] 2015-02-08 21:18:25,753: Unable to initiate TCP/IP socket to hr2:56107 (http://hr2:55160/): Traceback (most recent call last):
  File "/opt/ros/indigo/lib/python2.7/dist-packages/rospy/impl/tcpros_base.py", line 557, in connect
    self.read_header()
  File "/opt/ros/indigo/lib/python2.7/dist-packages/rospy/impl/tcpros_base.py", line 618, in read_header
    self._validate_header(read_ros_handshake_header(sock, self.read_buff, self.protocol.buff_size))
  File "/opt/ros/indigo/lib/python2.7/dist-packages/rospy/impl/tcpros_base.py", line 580, in _validate_header
    raise TransportInitError("remote error reported: %s"%header['error'])
TransportInitError: remote error reported: node shutting down

[rospy.core][INFO] 2015-02-08 21:18:25,869: signal_shutdown [atexit]
