[rospy.client][INFO] 2015-02-08 18:53:59,595: init_node, name[/fritz/pau2motors], pid[10916]
[xmlrpc][INFO] 2015-02-08 18:53:59,595: XML-RPC server binding to 0.0.0.0:0
[xmlrpc][INFO] 2015-02-08 18:53:59,596: Started XML-RPC server [http://hr2:54920/]
[rospy.init][INFO] 2015-02-08 18:53:59,596: ROS Slave URI: [http://hr2:54920/]
[rospy.impl.masterslave][INFO] 2015-02-08 18:53:59,596: _ready: http://hr2:54920/
[xmlrpc][INFO] 2015-02-08 18:53:59,596: xml rpc node: starting XML-RPC server
[rospy.registration][INFO] 2015-02-08 18:53:59,596: Registering with master node http://localhost:11311
[rospy.init][INFO] 2015-02-08 18:53:59,696: registered with master
[rospy.rosout][INFO] 2015-02-08 18:53:59,696: initializing /rosout core topic
[rospy.rosout][INFO] 2015-02-08 18:53:59,698: connected to core topic /rosout
[rospy.simtime][INFO] 2015-02-08 18:53:59,700: /use_sim_time is not set, will not subscribe to simulated time [/clock] topic
[rosout][INFO] 2015-02-08 18:53:59,738: Loaded '/fritz/pau2motors' from param server.
[rosout][INFO] 2015-02-08 18:53:59,743: Started
[rospy.internal][INFO] 2015-02-08 18:53:59,954: topic[/rosout] adding connection to [/rosout], count 0
[rospy.internal][INFO] 2015-02-08 18:54:08,237: topic[/fritz/no_pau] adding connection to [http://hr2:35848/], count 0
[rospy.internal][INFO] 2015-02-08 18:54:12,054: topic[/fritz/head_pau] adding connection to [http://hr2:58673/], count 0
[rospy.internal][INFO] 2015-02-08 18:54:12,055: topic[/fritz/neck_pau] adding connection to [http://hr2:58594/], count 0
[rospy.internal][WARNING] 2015-02-08 18:56:03,401: Unknown error initiating TCP/IP socket to hr2:56654 (http://hr2:35848/): Traceback (most recent call last):
  File "/opt/ros/indigo/lib/python2.7/dist-packages/rospy/impl/tcpros_base.py", line 555, in connect
    self.socket.connect((dest_addr, dest_port))
  File "/usr/lib/python2.7/socket.py", line 224, in meth
    return getattr(self._sock,name)(*args)
error: [Errno 111] Connection refused

[rospy.internal][INFO] 2015-02-08 18:56:03,402: topic[/fritz/no_pau] removing connection to http://hr2:35848/
[rospy.core][INFO] 2015-02-08 18:56:03,468: signal_shutdown [signal-2]
[rospy.internal][INFO] 2015-02-08 18:56:03,510: topic[/rosout] removing connection to /rosout
[rospy.internal][INFO] 2015-02-08 18:56:03,510: topic[/fritz/neck_pau] removing connection to http://hr2:58594/
[rospy.internal][INFO] 2015-02-08 18:56:03,511: topic[/fritz/head_pau] removing connection to http://hr2:58673/
[rospy.impl.masterslave][INFO] 2015-02-08 18:56:03,511: signal-2
[rospy.core][INFO] 2015-02-08 18:56:04,126: signal_shutdown [atexit]
